0.003735742
-0.03786159
0.3242383
-0.04916362
0.9882988
0.009961819
-0.1440458
0.03203507
-0.04386389
0.2921939
-0.2455107
0.4870633
-0.4223928
0.7239325
0.06632765
-0.046727
0.3087159
-0.2124723
0.4673225
-0.4440211
0.7343776
0.08748674
-0.04832304
0.3186143
-0.2831396
0.5087666
-0.3962525
0.7099102
0.03630871
-0.05178428
0.3535939
0.6978165
0.1413739
-0.1338623
0.6893086
0.03333018
-0.07099272
0.3426852
-0.987946
-0.05443056
0.1412795
0.03225148
0.0287973
-0.06678265
0.327473
-0.9376923
-0.008984531
0.1202179
0.3258837
0.02107765
-0.05514075
0.359059
0.7065488
0.166409
-0.02120275
0.6874935
0.0222416
-0.07601652
0.3452583
-0.985511
-0.1141182
0.120162
0.03614292
0.01700617
-0.07109319
0.3281181
-0.9154584
-0.06603906
0.1423119
0.3705699
-0.01685441
-0.0574531
0.3588807
0.681898
0.09141181
0.1596422
0.707936
-0.01008251
-0.07443942
0.3510612
-0.9807719
-0.1552498
-0.047319
-0.1083744
-0.00990767
-0.07293203
0.337382
-0.9420032
-0.1594802
0.03422993
0.2932992
0.001242101
-0.05652852
0.3592822
0.7160972
0.124479
0.05169974
0.6848628
0.005140139
-0.07551579
0.3454943
-0.9891115
-0.137788
0.0383426
0.03468164
0.002570444
-0.070241
0.3283395
-0.911374
-0.1145542
0.07519155
0.3880992
