0.004485042
0.04732025
0.31997
-0.04498616
0.9869534
-0.001206811
-0.1545889
0.03236129
0.04064271
0.2867471
-0.2523956
0.4973239
-0.4242789
0.7134094
0.06734539
0.03779393
0.3017438
-0.232615
0.4883878
-0.4377279
0.7181657
0.08910677
0.03668112
0.3101707
-0.3149288
0.5241363
-0.3789652
0.6946124
0.03945726
0.03388804
0.3489743
0.676238
0.2059201
-0.1331929
0.6946645
0.03725085
0.0137549
0.3387468
-0.9755828
-0.09380808
0.1985588
-0.003552902
0.03068804
0.01663896
0.3240285
-0.9325032
-0.02692952
0.1918758
0.304789
0.02398075
0.03130507
0.3563416
0.6665623
0.2017438
-0.01740856
0.7174199
0.02631205
0.009463251
0.3444669
-0.9792692
-0.1477312
0.1383298
-0.008498775
0.020395
0.01215225
0.3268526
-0.9357851
-0.09796072
0.1649824
0.2957883
-0.01507913
0.02877802
0.3566126
0.6474791
0.1122577
0.1598639
0.7366224
-0.008090463
0.01201737
0.3501142
-0.9768608
-0.1794997
-0.03310052
-0.1114782
-0.008153537
0.01289371
0.3360708
-0.9525462
-0.1785882
0.04100372
0.2430654
0.003467611
0.02960336
0.3574318
0.6716647
0.1442499
0.05428439
0.724646
0.007887707
0.009174496
0.3459879
-0.9868658
-0.1482137
0.05682398
-0.02999536
0.00489935
0.01174068
0.3281337
-0.9417266
-0.1213023
0.09735735
0.2982589
