-0.1921395
0.1591882
0.2584605
-0.2843175
0.9417571
-0.1758086
0.03672195
-0.1532626
0.1625149
0.2401469
-0.3312734
0.2182139
-0.3295106
0.856775
-0.1321927
0.1761844
0.2683455
-0.2255792
0.1900617
-0.3569206
0.8863399
-0.1204701
0.182524
0.2874599
-0.2402149
0.1941644
-0.3534849
0.8829754
-0.1714778
0.1709064
0.3000326
0.5073134
0.1980437
0.1677164
0.8217561
-0.1607653
0.1514488
0.2978714
-0.9397016
-0.2758511
0.0150267
-0.2015969
-0.1612167
0.1480446
0.2818627
-0.9559915
-0.2594289
0.09116651
0.1023012
-0.1849914
0.1611672
0.3018347
0.4923216
0.2265546
0.2721286
0.7951342
-0.1678328
0.1422369
0.2990849
-0.8982365
-0.3819376
-0.05275496
-0.2109785
-0.1654994
0.1384901
0.2807406
-0.9190136
-0.3833545
0.05074079
0.07667325
-0.2147851
0.138045
0.2916358
0.4598091
0.1516602
0.4525847
0.7488271
-0.1986594
0.1272565
0.2935619
-0.8293807
-0.4314431
-0.2495157
-0.2524411
-0.1919169
0.126319
0.280934
-0.8640094
-0.490054
-0.1137464
0.01991289
-0.2010122
0.1490392
0.2975551
0.4926491
0.1799953
0.3509094
0.7757327
-0.1829934
0.1327281
0.2956397
-0.8831714
-0.3949787
-0.1409435
-0.2100832
-0.1777975
0.1304104
0.2780367
-0.9036549
-0.4216152
-0.02622717
0.0704323
