-0.05263031
0.01778865
0.3192304
-0.01473791
0.9915672
0.007629719
-0.1285267
-0.02361208
0.009370625
0.2882124
-0.213082
0.4948297
-0.453519
0.709972
0.009429088
0.00302884
0.3061298
-0.1655535
0.4492312
-0.4863444
0.7309258
0.02876524
-0.001503855
0.3187364
-0.1723063
0.4558227
-0.4818921
0.7282282
-0.0212595
0.001816034
0.3502565
0.6880283
0.124095
-0.1401438
0.7011257
-0.02492885
-0.01817399
0.3400946
-0.9882481
-0.02647892
0.1503743
-0.007227638
-0.02961518
-0.01496577
0.3247342
-0.9450948
0.02122974
0.1283918
0.2997678
-0.03696383
-0.0001156926
0.3553904
0.6952688
0.1429526
-0.02780905
0.7038413
-0.03669304
-0.02216151
0.3426118
-0.988978
-0.07384656
0.1281716
-0.00642473
-0.04196389
-0.01880717
0.3249426
-0.9390502
-0.02921711
0.1496981
0.3080935
-0.07517205
0.0002533197
0.3537283
0.6671949
0.07580659
0.150662
0.725538
-0.06917582
-0.01617068
0.3464691
-0.9863399
-0.1443825
-0.04348487
-0.06630535
-0.06892607
-0.01415306
0.3324189
-0.9512555
-0.1499345
0.01739228
0.2689427
-0.05717732
-0.0003561378
0.3552013
0.6986399
0.09314986
0.04465259
0.7079771
-0.05440447
-0.02037334
0.3426624
-0.9952339
-0.08573485
0.04643978
0.001570525
-0.05682719
-0.01664135
0.3247411
-0.945271
-0.06710138
0.07769147
0.3097166
