-0.02445142
-0.06105366
0.3850226
-0.1354246
0.9485626
0.2667413
-0.1036261
0.005044685
-0.04605883
0.3571098
-0.06907016
0.5445699
-0.2377751
0.801334
0.03959588
-0.05193287
0.3723975
-0.06298031
0.5425106
-0.2419454
0.8019839
0.06127459
-0.05315246
0.3805689
-0.2061449
0.5811163
-0.1399252
0.7747446
0.01114228
-0.08596827
0.4084564
0.8026982
0.2188999
-0.005430393
0.5547333
0.012309
-0.09984064
0.391066
-0.9563025
-0.1713011
0.1275329
0.1996919
0.006553472
-0.09142065
0.3783332
-0.8541706
-0.121704
0.1570171
0.4805479
-0.004845908
-0.09352891
0.4089206
0.8266355
0.1903204
0.09373125
0.5212163
-0.0003769306
-0.105064
0.3885038
-0.9356614
-0.2018871
0.07189175
0.2803764
-0.006225592
-0.09285592
0.3757915
-0.7839358
-0.1637265
0.131695
0.5842043
-0.04340293
-0.0980472
0.4055119
0.79303
0.06658968
0.2479282
0.5524499
-0.03433947
-0.1087902
0.3928913
-0.9596664
-0.2088635
-0.1185444
0.1461632
-0.03439652
-0.1005448
0.3821559
-0.8026046
-0.2413283
-0.004842294
0.5454934
-0.02483453
-0.09664111
0.4070002
0.8337443
0.1267025
0.1497528
0.5161309
-0.01838123
-0.1063501
0.3878706
-0.9357046
-0.2001402
-0.009346063
0.2903679
-0.02175727
-0.09338745
0.3756494
-0.7678956
-0.1889548
0.06000771
0.6091235
