-0.05320499
0.0383932
0.3183214
-0.07915612
0.9884802
-0.02194979
-0.1271201
-0.02289925
0.03197014
0.2873405
-0.2480577
0.4778302
-0.4192812
0.7309918
0.01069694
0.02952448
0.3053909
-0.19417
0.4353644
-0.4529389
0.7533938
0.03044547
0.02718365
0.3181591
-0.2011158
0.4409381
-0.4487929
0.7508069
-0.02074612
0.02818504
0.348869
0.6867459
0.159308
-0.1012269
0.7019644
-0.02216432
0.008720219
0.3383051
-0.9865268
-0.08366689
0.1389618
0.02131445
-0.02690285
0.01228827
0.3228663
-0.9440877
-0.04070414
0.1314234
0.2996158
-0.03612114
0.02381745
0.3542814
0.6882707
0.1756355
0.01171331
0.7037745
-0.03342185
0.002544612
0.3414025
-0.9843313
-0.1306055
0.1180809
0.00953806
-0.03872935
0.006068289
0.3237108
-0.933483
-0.08783852
0.1522754
0.3125799
-0.07385865
0.0194096
0.35329
0.6542823
0.1084448
0.19618
0.7222658
-0.06588261
0.003564715
0.3464648
-0.9750534
-0.1997116
-0.05598988
-0.07906633
-0.06551766
0.005198836
0.3323948
-0.9455645
-0.2061703
0.0234224
0.250705
-0.05607489
0.02099329
0.3543393
0.6914992
0.1242325
0.08679461
0.7063015
-0.05101306
0.001671761
0.3419195
-0.989199
-0.141801
0.03618107
0.008302979
-0.05346928
0.005439222
0.3240032
-0.939352
-0.124038
0.08178321
0.3091016
