-0.01811647
-0.06287377
0.3945202
-0.1237074
0.9510841
0.2618118
-0.1076573
0.01099303
-0.04942453
0.3660716
-0.05239122
0.5505493
-0.2554747
0.7930216
0.04552539
-0.05672854
0.3807877
-0.06066286
0.5536269
-0.2496529
0.7921431
0.06740762
-0.05854221
0.3884009
-0.194999
0.5950764
-0.1503883
0.7650117
0.01680311
-0.08782306
0.4164308
0.8210634
0.2170049
-0.02577648
0.5273513
0.01691645
-0.100729
0.3981906
-0.9507421
-0.1601774
0.1305483
0.2310626
0.01114496
-0.09144959
0.3859648
-0.8449764
-0.110489
0.1517957
0.5007646
0.0006155907
-0.09466298
0.4169075
-0.8491455
-0.1876129
-0.07169521
-0.4884804
0.003884375
-0.1050363
0.3953507
-0.9288858
-0.1869309
0.07734811
0.3102344
-0.001978413
-0.09203163
0.3832453
-0.7801843
-0.1497833
0.1264793
0.5940374
-0.03751601
-0.09883466
0.4146677
0.8129891
0.06607409
0.2307692
0.5304984
-0.02905176
-0.108923
0.401153
-0.9574535
-0.1994833
-0.1091587
0.1776899
-0.02920794
-0.1001585
0.3905671
-0.8063682
-0.2280523
-0.01158843
0.545553
-0.01915268
-0.09752062
0.4156416
-0.8525713
-0.1244768
-0.1312436
-0.4903089
-0.0134975
-0.1065646
0.3954695
-0.9343381
-0.1851338
-0.003202204
0.304512
-0.01680103
-0.0933032
0.3833787
-0.7763359
-0.1740949
0.05584574
0.6032204
