-0.08340736
0.1623145
0.09418088
0.039653
0.9474708
-0.2450918
-0.201635
-0.05903968
0.1376482
0.0703209
-0.3883272
0.3864399
-0.5732139
0.6093375
-0.02564189
0.1387891
0.08912554
-0.312054
0.3090523
-0.6150655
0.6548309
-0.007394328
0.1394601
0.1045565
-0.2747879
0.2712775
-0.6313117
0.6725665
-0.0480185
0.1603002
0.1237265
0.4951866
0.127386
-0.237863
0.8258234
-0.05334346
0.1377668
0.1245747
-0.94112
0.01536649
0.2265213
-0.2504898
-0.06024154
0.1335323
0.1103812
-0.9783582
0.07931748
0.1800542
0.06406669
-0.0624909
0.1631858
0.1311213
0.504401
0.1708986
-0.133255
0.8358328
-0.0641799
0.1364003
0.1309807
-0.9338263
-0.03210163
0.2166427
-0.2828496
-0.07193683
0.1306471
0.1153501
-0.9706696
0.05319856
0.216052
0.09106047
-0.1005541
0.164967
0.1348538
0.4967403
0.137336
0.05938181
0.8549045
-0.09618998
0.1459882
0.1353458
-0.940442
-0.1143939
0.06280497
-0.3139087
-0.09799339
0.1407128
0.1222932
-0.9899878
-0.08109268
0.1134419
0.02189003
-0.08277637
0.1642259
0.1335512
0.522577
0.132065
-0.05087396
0.8407639
-0.08209235
0.1391888
0.1317053
-0.9527969
-0.05632645
0.1308659
-0.2681037
-0.08679061
0.1336413
0.1150325
-0.9852459
-0.004896041
0.1463484
0.08859302
