-0.02726854
-0.04978934
0.2157776
-0.02684116
0.9549943
-0.255885
-0.1476086
0.001280767
-0.07035233
0.1914891
-0.4175987
0.3567654
-0.5295142
0.6464863
0.03440472
-0.06437215
0.208962
-0.3606779
0.3068294
-0.5575963
0.6818018
0.05416714
-0.06078668
0.2207839
-0.409872
0.3499843
-0.5336664
0.6517026
0.004913948
-0.04549712
0.2479168
0.4963308
0.1021235
-0.1480873
0.8492919
0.002419378
-0.06744723
0.2479306
-0.9652678
-0.01624835
0.1444285
-0.217105
-0.0019744
-0.07109228
0.232561
-0.9890927
0.02262642
0.1173145
0.08614589
-0.01035269
-0.04640961
0.254472
0.5025023
0.1555584
-0.04546851
0.8492501
-0.008544117
-0.07111399
0.2529218
-0.9628916
-0.08517645
0.1375416
-0.2160255
-0.01353985
-0.075267
0.2355306
-0.9795245
-0.03432002
0.1523223
0.1270901
-0.04785332
-0.04990822
0.2551959
0.4764326
0.1438009
0.1458745
0.8550169
-0.0404921
-0.06762654
0.2561855
-0.9311309
-0.1909233
-0.002792621
-0.3107022
-0.04045656
-0.07217301
0.2430542
-0.9792498
-0.1747374
0.07866743
0.06594066
-0.03000921
-0.04828981
0.2555603
0.5073091
0.1357307
0.03686718
0.8502091
-0.02550988
-0.07119477
0.2533089
-0.9648588
-0.1284703
0.06788458
-0.21894
-0.02797022
-0.07519738
0.2357599
-0.980754
-0.09758241
0.1041322
0.1332512
