0.04868114
0.05250999
0.2877337
0.08265141
0.9656328
-0.03509727
-0.2439062
0.06712206
0.03400362
0.2543478
-0.2157019
0.5457925
-0.5435015
0.6001578
0.09955581
0.02033249
0.2692046
-0.1500104
0.4783155
-0.600054
0.6234151
0.117806
0.01109016
0.2812408
-0.1392489
0.4668784
-0.6084641
0.626423
0.08177371
0.03329304
0.3111197
0.6723397
0.111555
-0.3006893
0.6671587
0.07170674
0.01408142
0.3025967
-0.9709529
0.05872226
0.2310067
-0.02093425
0.06535715
0.01742131
0.287905
-0.9364913
0.1281397
0.1567216
0.2863613
0.06828503
0.03549135
0.3200849
0.6848857
0.1409935
-0.190122
0.6891343
0.06098296
0.01242888
0.3089439
-0.972172
0.01829891
0.2293213
-0.04425471
0.05295856
0.01518631
0.2923201
-0.9316067
0.09403015
0.2055405
0.2846411
0.03191099
0.04251909
0.3277739
0.6599446
0.078839
-0.004829732
0.7471507
0.03269678
0.02379888
0.3211851
-0.9857548
-0.04534992
0.06494622
-0.1483679
0.0306142
0.02364844
0.30729
-0.9726113
-0.01764772
0.08570506
0.2153381
0.04923534
0.03919649
0.3249241
0.6841767
0.09519625
-0.1135285
0.7141088
0.04517867
0.01713103
0.3138127
-0.987167
0.003973966
0.1457744
-0.06508048
0.0400475
0.01908928
0.2964535
-0.9494098
0.05383412
0.1338042
0.2789613
