-0.05315514
0.2770229
0.2389828
-0.1228549
0.9702073
-0.1574358
-0.1371802
-0.02265701
0.2665481
0.2117262
-0.3445224
0.3753006
-0.4374732
0.7409933
0.00901388
0.2725137
0.2319918
-0.2849455
0.3413479
-0.4659992
0.7649394
0.02781076
0.2755427
0.2456993
-0.3149271
0.3585826
-0.4521038
0.7535527
-0.01935938
0.27946
0.272119
0.5409324
0.1939231
-0.06741676
0.8156232
-0.01724841
0.2572044
0.2689846
-0.961915
-0.1376151
0.1523548
-0.1804708
-0.02199772
0.2544984
0.2537269
-0.9713131
-0.08444164
0.162634
0.1515609
-0.03441269
0.2754399
0.2789828
0.540173
0.2200656
0.04321066
0.8111209
-0.02722143
0.2508766
0.2744519
-0.9503373
-0.2022594
0.1120427
-0.2083187
-0.03128108
0.2464915
0.2569276
-0.9648749
-0.1530657
0.1669414
0.1331094
-0.07210289
0.264886
0.278553
0.543979
0.1467093
0.2290011
0.7938021
-0.06188925
0.2479752
0.2768389
-0.9302825
-0.2497125
-0.07374085
-0.2584192
-0.05990688
0.2446374
0.263187
-0.9640691
-0.2583784
0.01827902
0.05896962
-0.05426824
0.2699199
0.2797356
0.5560746
0.1742658
0.1207132
0.8036422
-0.04531335
0.2475995
0.2746253
-0.95464
-0.2199547
0.0248984
-0.1991546
-0.0463215
0.2441265
0.2567783
-0.9659622
-0.1998981
0.09161051
0.1362549
