0.06998229
0.05721509
0.3008639
0.1727589
0.9511172
0.06759017
-0.2469048
0.08578184
0.04176536
0.2642207
-0.1364169
0.6097403
-0.5450109
0.5590799
0.1168302
0.02159745
0.2742688
-0.1055009
0.5718857
-0.5802906
0.5701572
0.1353358
0.0087578
0.2817411
-0.1131966
0.5814676
-0.5717524
0.5676101
0.09799933
0.02749664
0.3211139
0.7242312
0.0713839
-0.3564869
0.5859272
0.08430806
0.01218975
0.3103903
-0.952297
0.1498295
0.2545642
0.07667289
0.07837981
0.01901492
0.2966986
-0.8897262
0.2236392
0.1643464
0.3624403
0.08488286
0.03120869
0.330548
0.7402046
0.08320925
-0.2477963
0.6194921
0.0731457
0.01179689
0.3166135
-0.9640016
0.1068405
0.2394246
0.04429317
0.06582914
0.01830792
0.3006744
-0.8953683
0.1798023
0.1911965
0.3597649
0.05047087
0.04494351
0.339362
0.7120619
0.0067171
-0.07678097
0.6978735
0.04721932
0.02778256
0.3303822
-0.9918612
0.06952202
0.08723503
-0.06138583
0.04513823
0.03057808
0.3169122
-0.9378313
0.09885404
0.07422129
0.3243324
0.06671724
0.03831977
0.3359907
0.7369446
0.02653927
-0.1797854
0.6510649
0.05812711
0.01925364
0.3221334
-0.9817186
0.1068451
0.1568003
0.01504704
0.05368651
0.02470192
0.3054693
-0.9088502
0.1563325
0.1117695
0.3702149
