-0.08300471
0.01000038
0.2979771
-0.00223868
0.979595
-0.01024805
-0.2007079
-0.05907981
-0.0008800626
0.2647129
-0.2332386
0.5259594
-0.4652308
0.6727011
-0.02520992
-0.009267032
0.2799896
-0.157153
0.4804256
-0.5199272
0.6886
-0.005959683
-0.01611939
0.2917634
-0.1407596
0.4700688
-0.5308036
0.6909918
-0.04849489
-0.005564809
0.3238044
0.6820512
0.1527137
-0.2052189
0.6851058
-0.05431799
-0.02537236
0.3140669
-0.9789537
-0.01531138
0.2034998
-0.00176756
-0.06042434
-0.02186781
0.2993313
-0.9345869
0.05030607
0.1654343
0.3108828
-0.06293429
-0.006897032
0.3313882
0.692359
0.1819075
-0.09220789
0.6921318
-0.06512419
-0.0291875
0.3187699
-0.9790108
-0.06532416
0.1929211
-0.007216829
-0.07251942
-0.02578664
0.301976
-0.9256783
0.002590437
0.203389
0.3189765
-0.1005611
-0.005717754
0.3359366
0.6658461
0.1245169
0.09231412
0.7298101
-0.09597865
-0.02270055
0.3284592
-0.9864591
-0.1371841
0.0325457
-0.08378467
-0.09779601
-0.02119771
0.3146088
-0.9495091
-0.1150888
0.09205564
0.276971
-0.08284009
-0.006710231
0.3344195
0.6969283
0.1324415
-0.01783684
0.7045795
-0.08224389
-0.02728784
0.3218732
-0.9909248
-0.07943738
0.1079502
-0.01021864
-0.0867082
-0.02385306
0.3044618
-0.9369537
-0.0386759
0.1297166
0.3221734
