0.06014518
0.1727782
0.309382
0.06052386
0.9902058
-0.01170799
-0.1252691
0.08660978
0.1574562
0.2807563
-0.1627141
0.4744535
-0.5359963
0.6790627
0.1153513
0.1451386
0.3025484
-0.07459307
0.3989306
-0.5926343
0.6957549
0.1300129
0.1361893
0.3188897
-0.04245269
0.3699002
-0.6106482
0.6989137
0.0886642
0.153885
0.3408467
0.6842071
0.07128341
-0.1972018
0.6984919
0.08213307
0.1340187
0.3312575
-0.9887365
0.03608013
0.1431695
-0.02451528
0.07815707
0.1369433
0.315643
-0.9511963
0.07808616
0.09362726
0.2834823
0.07292408
0.1548659
0.3467359
0.6815746
0.0850184
-0.08510952
0.7217924
0.07010993
0.1309481
0.3354214
-0.9907271
-0.01021253
0.115418
-0.07095183
0.0659056
0.1327133
0.3174779
-0.9519629
0.03111171
0.1078958
0.2848811
0.0346867
0.1604065
0.344627
0.652832
-0.001626548
0.09200507
0.7518929
0.03783771
0.1418349
0.3385392
-0.9854832
-0.04849929
-0.06260663
-0.1501704
0.03934371
0.1415471
0.3244449
-0.9784952
-0.0658032
-0.03569916
0.192205
0.05257303
0.1577055
0.34636
0.6840857
0.02683786
-0.0127134
0.7287968
0.05245908
0.1352088
0.3351096
-0.996438
-0.01566795
0.02336557
-0.07949787
0.05156749
0.1366995
0.3170215
-0.9601796
-0.006638345
0.02426039
0.2782492
