-0.1449998
0.05500451
0.3614411
-0.2722445
0.9613596
0.01709336
0.03712917
-0.1074389
0.06557775
0.3410561
-0.1981332
0.3414238
-0.2685459
0.8786673
-0.08177567
0.06936496
0.3686317
-0.1078003
0.3145378
-0.3020904
0.8934129
-0.06712874
0.06944728
0.386797
-0.1093163
0.3150166
-0.3015591
0.8932394
-0.1195798
0.0516392
0.4040096
0.6185327
0.202252
0.1805802
0.7374973
-0.1085482
0.03411794
0.395999
-0.9472239
-0.3159274
-0.01778917
-0.05138491
-0.1092938
0.03563038
0.3796715
-0.918909
-0.3081303
0.05286658
0.2405559
-0.1331683
0.04122078
0.4034714
0.6099535
0.2068945
0.2873398
0.7089339
-0.1171388
0.0242967
0.3943191
-0.9284621
-0.3629129
-0.06145592
-0.04975442
-0.1168576
0.02627766
0.3756136
-0.899168
-0.3647795
0.0448497
0.2375321
-0.1664665
0.02309054
0.3886954
0.575572
0.06436633
0.4491565
0.6803179
-0.1515133
0.01124847
0.3867347
-0.889483
-0.3427879
-0.2803383
-0.1128134
-0.1456819
0.01382008
0.3740436
-0.8798938
-0.4143299
-0.1487694
0.1788442
-0.1506744
0.03107476
0.3971151
0.6052679
0.1297067
0.3549938
0.7005757
-0.1341889
0.01639247
0.3898391
-0.9173489
-0.3617105
-0.1618684
-0.03788257
-0.1305977
0.02000737
0.3720231
-0.8875875
-0.3933993
-0.05771952
0.232581
