-0.1575084
0.06891596
0.2382036
-0.2895115
0.9488872
-0.1230077
-0.02579376
-0.130127
0.06451422
0.2227924
-0.05212029
0.1911831
-0.3214578
0.9259576
-0.1230074
0.05724159
0.2567973
0.2296493
0.03727119
-0.3627954
0.9023589
-0.1283853
0.04531926
0.2749317
0.4485036
-0.09554677
-0.3680505
0.8088599
-0.1314345
0.07764262
0.2740765
0.5888919
0.2586172
0.1159097
0.756894
-0.1217871
0.05840451
0.2671323
-0.9416303
-0.2983583
0.06812844
-0.1402614
-0.1240216
0.0558902
0.2513393
-0.9474599
-0.2735751
0.1272163
0.1062661
-0.144097
0.06726813
0.2764204
0.5946484
0.2867541
0.2168446
0.7191272
-0.1299939
0.04948646
0.2666655
-0.9247189
-0.3701973
0.03856515
-0.07975955
-0.1327245
0.04907227
0.2485656
-0.9052162
-0.3414197
0.1418188
0.2095319
-0.1745524
0.04591596
0.2701005
0.5818352
0.2146725
0.3977441
0.6761533
-0.1591408
0.03673923
0.2657773
-0.8476106
-0.4879573
-0.1946582
-0.07458044
-0.155891
0.0395481
0.2523423
-0.8284446
-0.5248399
-0.08463183
0.1762385
-0.1602585
0.05564585
0.2737563
0.610917
0.234067
0.2939811
0.6968272
-0.1442394
0.04084402
0.2645257
-0.9074296
-0.4070384
-0.08021584
-0.06675954
-0.1430475
0.04232204
0.2465662
-0.8876832
-0.4144256
0.01911059
0.1997622
