-0.009650588
0.0934937
0.3114184
-0.0126835
0.981338
-0.04064659
-0.1875177
0.005777281
0.07634631
0.288305
-0.006268523
0.3359127
-0.56581
0.7529824
0.01581189
0.06105679
0.3188923
0.2106833
0.123056
-0.6415082
0.7272806
0.00955053
0.0508514
0.3377384
0.3879141
-0.07853694
-0.6556096
0.6430635
0.02492042
0.08128655
0.3388303
0.6584243
0.1718332
-0.1869399
0.7085227
0.02053254
0.06016099
0.3305973
-0.9724439
-0.05020376
0.2114505
-0.08438766
0.01410512
0.06053877
0.3160307
-0.9593391
0.01236686
0.1891162
0.2091663
0.009559656
0.07953376
0.345052
0.6871506
0.1847335
-0.0808977
0.6979637
0.00862524
0.05713686
0.3328229
-0.9804286
-0.09841993
0.1667349
-0.03567782
0.002235131
0.05868709
0.3155555
-0.9531057
-0.04828721
0.1768037
0.2408282
-0.0281632
0.07942393
0.3483838
0.6714977
0.1037704
0.1034658
0.7263728
-0.02261357
0.06314448
0.3409935
-0.9787599
-0.1846448
-0.04205469
-0.07852877
-0.02204921
0.06445459
0.327038
-0.956597
-0.1905628
-0.007883522
0.2203316
-0.01048609
0.07922947
0.3477758
0.6906154
0.1212681
-0.004425514
0.7129691
-0.008660173
0.0585286
0.3358837
-0.9912527
-0.107511
0.06471414
-0.04088655
-0.01139244
0.06031007
0.318104
-0.9621317
-0.08497447
0.07979934
0.2464022
