0.179558
0.004276186
0.2836972
0.2268208
0.9487017
-0.04357427
-0.2159136
0.184296
-0.01873848
0.2624092
0.00572629
0.3217275
-0.7386068
0.5923839
0.1886712
-0.03337467
0.294054
0.1839749
0.03271444
-0.8038014
0.5647888
0.1788194
-0.03680599
0.3133357
-0.3320571
0.243916
0.7767089
-0.4764099
0.2057318
-0.0195742
0.3096934
0.6745099
-0.002569264
-0.374526
0.6362076
0.192073
-0.03469563
0.30146
-0.9605085
0.1987662
0.1933661
0.02291287
0.1879398
-0.03014708
0.2866328
-0.9251269
0.2445466
0.09367849
0.2748846
0.1921853
-0.01408476
0.3170669
0.6933161
0.02604959
-0.2695816
0.6678024
0.1809043
-0.03199893
0.3059889
-0.9714002
0.1521064
0.1745933
0.05255946
0.1760179
-0.02637315
0.2888541
-0.9337758
0.189682
0.1210151
0.2782782
0.159086
0.003882587
0.3219268
0.6513151
-0.04383337
-0.09239554
0.7518846
0.1565754
-0.01281503
0.315671
-0.9962838
0.02511037
-0.02675213
-0.0779253
0.1578231
-0.01195419
0.3016824
-0.9785977
0.01414097
-0.0680543
0.1936883
0.1746123
-0.004966974
0.3202826
0.6829816
-0.03073605
-0.1952299
0.7031904
0.1669826
-0.02323151
0.3093094
-0.9915662
0.1124907
0.06398321
0.006969393
0.1656615
-0.01991695
0.2913963
-0.9628561
0.124581
0.0124992
0.2392314
