0.01050365
0.07147831
0.3280406
0.0140972
0.9938227
0.06400777
-0.08955871
0.02548972
0.05772656
0.3075165
0.1828468
0.2511024
-0.5677217
0.7623692
0.0239196
0.03580889
0.3363737
0.374855
0.0756492
-0.6172878
0.687544
0.01256064
0.02237847
0.350949
0.512475
-0.07399613
-0.6230571
0.5862541
0.03795456
0.05109435
0.3572474
0.7631701
0.09421023
-0.1328228
0.6253431
0.03339195
0.03324533
0.3434093
-0.9895198
-0.001904266
0.137303
0.04466341
0.02916146
0.03718203
0.3282036
-0.956439
0.02900898
0.123694
0.2628361
0.02154629
0.04975533
0.3600335
0.7786177
0.09416168
-0.02352006
0.6199475
0.02137896
0.03086567
0.3427142
-0.9929789
-0.06246468
0.06963757
0.0723995
0.01839183
0.03624028
0.325094
-0.9489516
-0.04411158
0.07722143
0.302625
-0.01573776
0.05294913
0.3558024
0.7584558
0.0017114
0.1481349
0.6346638
-0.009390322
0.03898683
0.345228
-0.9723889
-0.1533106
-0.1699072
0.04568629
-0.005485817
0.04354632
0.3322571
-0.9315011
-0.1866222
-0.1572186
0.2697413
0.001518416
0.0507611
0.3583933
0.7808082
0.02329472
0.04552513
0.6226745
0.004758523
0.03334105
0.3418942
-0.9930897
-0.07880642
-0.05685242
0.0658048
0.006340442
0.03874516
0.3245265
-0.9487736
-0.08879638
-0.05405121
0.2983662
