0.001394487
0.051301
0.08964631
-0.07258946
0.8562105
-0.5025254
-0.09540719
0.02344777
0.02877814
0.08974211
-0.3249362
-0.04107256
-0.5198183
0.7889984
0.02410523
0.04736692
0.1198026
-0.1024938
-0.2669527
-0.4520516
0.8449146
0.01184621
0.05419153
0.1364034
0.1481466
-0.4768112
-0.325059
0.803144
0.02891607
0.07590866
0.1146638
0.2830029
0.1064615
-0.08817577
0.9491051
0.0297851
0.05593726
0.1253965
0.8537381
0.03454257
-0.1321472
0.5024692
0.02626482
0.04424047
0.1153637
-0.9684815
0.004212786
0.1296592
-0.212637
0.01342698
0.07560208
0.1210186
0.2680162
0.171824
0.006071794
0.9479488
0.01980541
0.05371612
0.1319353
-0.8479034
-0.1395613
0.1110339
-0.4992534
0.01787275
0.03911439
0.120645
-0.9465631
-0.1093133
0.1389426
-0.2697477
-0.02315559
0.06610221
0.1228912
0.2363689
0.1884123
0.2028455
0.9313884
-0.0120231
0.0536415
0.1320892
0.7620321
0.3631757
0.05417506
0.5333626
-0.006623958
0.04366541
0.1236729
-0.8681028
-0.3842334
0.01023402
-0.314098
-0.006005215
0.07133418
0.1232325
0.2552978
0.1549429
0.103316
0.9487579
0.0033768
0.05188489
0.1335908
0.8263223
0.2299819
-0.01710968
0.5138161
0.006107976
0.03769636
0.1225631
-0.926408
-0.2278948
0.05794633
-0.2940655
