-0.02022431
0.07602707
0.2291593
-0.09105841
0.9870248
-0.1090481
-0.0748267
0.001526417
0.06025249
0.2126564
0.00376037
0.2115771
-0.5079672
0.8349793
0.006040015
0.04908115
0.2463289
0.2379796
0.02820113
-0.5478046
0.8015489
-0.002656183
0.03916663
0.2643166
0.43838
-0.1465086
-0.5397651
0.7035709
0.009067453
0.07349387
0.2644602
0.614734
0.1492638
-0.05417043
0.7725853
0.01003287
0.05212024
0.2581315
-0.9802359
-0.1028994
0.1161131
-0.1227483
0.006329941
0.05064821
0.2424978
-0.9812975
-0.07229925
0.1231528
0.1290795
-0.00675729
0.0688464
0.2681515
0.6209926
0.1672851
0.05463698
0.7638054
-0.001133489
0.0468083
0.2594033
-0.9785995
-0.1772917
0.06429665
-0.08232015
-0.003963765
0.04659581
0.2411355
-0.9651614
-0.1542436
0.09932704
0.1865653
-0.04402484
0.0618012
0.2629436
0.6023682
0.09114048
0.2392727
0.7560388
-0.03379536
0.04682714
0.2591323
-0.9274919
-0.3027845
-0.1723375
-0.1355736
-0.02950053
0.04743937
0.245711
-0.9226744
-0.3427951
-0.1205462
0.1289655
-0.0267306
0.06474853
0.2663812
0.626544
0.1042529
0.1337602
0.7607117
-0.01849322
0.04456559
0.2581417
-0.9717835
-0.2090232
-0.055531
-0.09414129
-0.01691863
0.04470819
0.2400811
-0.9611735
-0.2181242
-0.01839827
0.1680144
