-0.0278945
0.1651084
0.2186284
-0.1395387
0.9719568
-0.1611945
-0.09922369
-0.006842893
0.1497923
0.2030967
-0.04235542
0.1809288
-0.4737345
0.8608406
-0.002228457
0.1427505
0.2377125
0.1961809
-0.008469372
-0.5037594
0.8412299
-0.0110969
0.1344952
0.2560756
0.4242011
-0.2041903
-0.4847669
0.7371301
0.003303192
0.1691073
0.2524794
0.5590265
0.20179
-0.03812341
0.8033161
0.006254754
0.1474274
0.248491
-0.9615465
-0.1494005
0.1460294
-0.178279
0.001801072
0.144047
0.2334454
-0.9763389
-0.1077067
0.1662943
0.0866483
-0.01156686
0.1638231
0.2577099
0.5601413
0.2311048
0.07010045
0.7924131
-0.003346223
0.1412144
0.2515472
-0.95223
-0.2429328
0.09177434
-0.1606831
-0.006648634
0.1378484
0.2337553
-0.9601156
-0.2095075
0.1423908
0.1183622
-0.04830979
0.1521069
0.2546841
0.5705763
0.1567181
0.253922
0.7651181
-0.03625076
0.1373755
0.2518259
-0.8964149
-0.3626429
-0.1541497
-0.2029001
-0.03182472
0.1362087
0.2384523
-0.9107088
-0.3988099
-0.09211884
0.05544627
-0.03120834
0.1575183
0.2572355
0.5777819
0.1720936
0.1500127
0.7836123
-0.02061233
0.1368191
0.2510564
-0.9450788
-0.2756223
-0.02884133
-0.1732814
-0.01939104
0.134059
0.233224
-0.9557205
-0.2772939
0.02371117
0.09562572
