-0.06504732
0.3545508
0.2269045
0.1019417
0.9764275
-0.1897559
-0.01378387
-0.04821783
0.3306557
0.2155386
-0.002319676
0.07079695
-0.6585032
0.749237
-0.05313779
0.3274311
0.2503765
0.2022693
-0.1594897
-0.648323
0.7164688
-0.06799473
0.3259267
0.2656026
0.4246909
-0.418747
-0.5514573
0.5832525
-0.04514079
0.3485783
0.2655181
0.6148422
-0.0569353
-0.1461407
0.7728974
-0.0518551
0.3270276
0.2600053
-0.9758334
0.1153736
0.05349439
-0.1776981
-0.05338256
0.3245043
0.244144
-0.9879597
0.123315
0.007708342
0.09311104
-0.06184654
0.351575
0.2662076
0.6079411
-0.04419865
-0.03833495
0.7918236
-0.06373446
0.3266231
0.2598426
-0.983372
0.02325879
-0.02842349
-0.1778503
-0.06244761
0.323544
0.2417375
-0.9927213
0.0109061
-0.05227058
0.1079509
-0.09672423
0.3558578
0.2557817
0.5507472
-0.06913876
0.1467113
0.8187633
-0.09205085
0.3376936
0.2549358
-0.9386631
-0.1232714
-0.2064704
-0.2471553
-0.08593363
0.3348867
0.2426075
-0.9614136
-0.185872
-0.2004201
0.03110101
-0.08053914
0.3538402
0.2613752
0.592231
-0.07700806
0.04476515
0.8008298
-0.07909454
0.3302624
0.255975
-0.9737465
-0.01419589
-0.1150844
-0.1958872
-0.0747086
0.3267908
0.2388086
-0.9866394
-0.05042483
-0.1272239
0.08839723
