-0.1823452
0.02622235
0.1469012
-0.4834036
0.860999
-0.1552485
-0.02999163
-0.1578745
0.02901775
0.1308869
-0.05142194
0.1637499
-0.1260073
0.9770691
-0.1495644
0.02285308
0.1648258
0.2474936
0.07582723
-0.1681385
0.9511712
-0.1501597
0.008846015
0.1821516
0.4806676
-0.004212601
-0.1907143
0.8559024
-0.1613313
0.04831517
0.1829997
0.4556547
0.3692423
0.2752553
0.7617568
-0.1439277
0.03415358
0.1795205
-0.8442729
-0.4772349
0.03666444
-0.2410517
-0.1435304
0.02844438
0.1644934
-0.8780298
-0.4550938
0.1470899
-0.01782922
-0.1685837
0.03305608
0.1848996
0.4973667
0.4155175
0.3440638
0.6794054
-0.1480513
0.02191192
0.1760254
-0.8156509
-0.5650323
0.0233984
-0.1220845
-0.1497575
0.01937437
0.1580681
-0.8128297
-0.5309892
0.1852628
0.1517763
-0.1880341
0.0008261204
0.1807986
0.5161182
0.3561972
0.5069643
0.5913821
-0.169447
-0.001729071
0.1763766
-0.7177997
-0.6568154
-0.2144527
-0.08583254
-0.1662518
0.001289457
0.1629158
-0.7062864
-0.6928127
-0.06898399
0.128107
-0.1785997
0.01606339
0.1836342
0.5203727
0.3819336
0.4141552
0.6417277
-0.1574736
0.008398712
0.1749675
-0.7905191
-0.5997015
-0.07813493
-0.09660505
-0.1562361
0.008508384
0.156913
-0.7850738
-0.6006993
0.06740449
0.1351897
