-0.01297545
0.06126857
0.1821167
0.1172278
0.9726375
-0.146036
-0.1375048
-0.0005616078
0.03904986
0.1670419
-0.06457258
0.1960734
-0.6722394
0.710971
0.004448454
0.03259069
0.2019789
0.1357993
-0.01176338
-0.6995952
0.7014177
-0.004534228
0.02904063
0.2219141
0.3346591
-0.2298118
-0.6645756
0.6273191
0.0148561
0.04984418
0.213905
0.631218
0.02257002
-0.2495971
0.7339998
0.006025299
0.02997068
0.207691
-0.977974
0.0994927
0.1510514
-0.1041711
0.001692154
0.02977473
0.1920254
-0.9776946
0.1303617
0.09685429
0.1331858
-0.0001731779
0.05284888
0.218793
0.6395185
0.06720445
-0.1440938
0.7521547
-0.005206371
0.02994332
0.2103728
-0.9874733
0.02695861
0.1280472
-0.08816854
-0.009712085
0.02982187
0.1922773
-0.9810754
0.05597209
0.1061049
0.151987
-0.03662256
0.06092864
0.217056
0.610099
0.02417342
0.04211613
0.7908358
-0.03394121
0.04289988
0.2129043
-0.9785905
-0.1002739
-0.05654207
-0.1706131
-0.03219694
0.04143512
0.1989855
-0.9856415
-0.1167255
-0.05395289
0.1094302
-0.01955298
0.05698097
0.2184082
0.6404804
0.02258527
-0.06269384
0.7650779
-0.02112468
0.03469878
0.2099373
-0.9925124
-0.01219491
0.02876271
-0.1180812
-0.02196758
0.03347144
0.1917638
-0.9911254
-0.006836923
0.0126982
0.1321459
