-0.1956823
0.1062691
0.2738473
-0.3898463
0.9011295
-0.1780632
0.06541459
-0.1660907
0.1073511
0.2628006
-0.05117908
0.08143963
-0.2132194
0.9722581
-0.1647365
0.101637
0.2974823
0.2613547
-0.03077798
-0.2259657
0.9379157
-0.1709653
0.08808982
0.3133523
0.5429652
-0.1388583
-0.2136835
0.8001541
-0.179574
0.1219702
0.3139665
0.5077159
0.243613
0.2585491
0.7848756
-0.1648006
0.1047878
0.3114115
-0.9025599
-0.360558
-0.02999038
-0.2334183
-0.1636309
0.1009291
0.2961391
-0.9293631
-0.3516848
0.08511377
0.07319681
-0.1902744
0.109578
0.3152783
0.4913592
0.2774697
0.3569699
0.7444121
-0.1701138
0.09493235
0.3114106
-0.8624625
-0.4628907
-0.07532879
-0.1903056
-0.1672791
0.09214047
0.2934799
-0.8799319
-0.466524
0.05434769
0.07156508
-0.2132033
0.08063686
0.3052546
0.4744684
0.1985291
0.5322535
0.6724375
-0.1949493
0.07459247
0.306481
-0.7393566
-0.5566902
-0.326484
-0.1919793
-0.1877512
0.07716995
0.2947972
-0.747687
-0.6363559
-0.1799021
0.060419
-0.2028222
0.09412688
0.3113641
0.4944858
0.2204931
0.4373832
0.7180269
-0.1819104
0.08285856
0.3088723
-0.8250065
-0.5016696
-0.1962211
-0.1708483
-0.1756457
0.08313206
0.291957
-0.834724
-0.5406102
-0.06683807
0.08068001
