0.08936439
0.2091429
0.3161483
0.008624643
0.98687
-0.07307196
-0.1437839
0.1061474
0.1903062
0.2957551
-0.002288583
0.2793622
-0.5868367
0.7599831
0.1125581
0.1772881
0.3280952
0.217389
0.05195556
-0.6446071
0.7311117
0.1037183
0.1690876
0.3466368
0.4020456
-0.1651758
-0.6380598
0.6355754
0.1211207
0.1979719
0.346528
0.6575052
0.1389338
-0.1750821
0.7195351
0.1169733
0.1771173
0.3383774
-0.9813357
-0.03977366
0.1718047
-0.07669146
0.1118142
0.177792
0.3233022
-0.966061
0.009636795
0.1431585
0.2147997
0.1052855
0.1971076
0.3510655
0.6853299
0.1566885
-0.06915835
0.7078057
0.1048125
0.1746134
0.3391077
-0.9859937
-0.09424981
0.1310983
-0.04179459
0.09978149
0.176361
0.3215699
-0.9545977
-0.05091738
0.1366232
0.2597786
0.0672175
0.1981669
0.3507785
0.674363
0.06999376
0.1146494
0.7260792
0.07330948
0.1821065
0.3436
-0.9709944
-0.2021918
-0.1055214
-0.07178959
0.07576577
0.1838082
0.3298105
-0.9481491
-0.22618
-0.08586147
0.2061157
0.08485819
0.1973871
0.3515295
0.6961673
0.08634625
0.008010313
0.7126228
0.08751351
0.1765169
0.3395583
-0.9918739
-0.1163235
0.005970713
-0.05118151
0.0870423
0.1781481
0.321588
-0.9652849
-0.1112187
0.01095355
0.2360839
