0.0814413
0.0703904
0.2464052
0.3037209
0.9196603
-0.10791
-0.2243523
0.08166635
0.04569602
0.2297054
-0.03660059
0.251745
-0.799143
0.5446608
0.08621497
0.03524572
0.2636437
0.1231303
0.01690869
-0.8378887
0.531503
0.07766224
0.0339973
0.2836505
-0.3001485
0.2647151
0.7935345
-0.4584102
0.1068025
0.04652852
0.2745153
0.6198488
-0.01384133
-0.4312434
0.6554579
0.09064074
0.03161418
0.2697259
-0.926792
0.2626572
0.2633025
-0.05234181
0.08429623
0.0348857
0.2554392
-0.9089116
0.3262878
0.1499963
0.2119365
0.09416871
0.05555084
0.2814287
0.6363503
-0.008332848
-0.3307264
0.6968565
0.07991026
0.03722915
0.273821
-0.9540436
0.2178484
0.2031362
-0.03284267
0.07368618
0.04014891
0.2563901
-0.9400426
0.2568141
0.1400385
0.1753732
0.06404671
0.07789445
0.284148
0.6107854
-0.04217436
-0.1560296
0.7751241
0.05898553
0.06095064
0.2797291
-0.9856749
0.09357756
0.04674805
-0.1322984
0.05820464
0.06050298
0.2657223
-0.9834341
0.09984613
-0.005039802
0.1512044
0.07810772
0.06710613
0.2834061
0.6342307
-0.05246371
-0.2547367
0.7280854
0.06714498
0.04843682
0.2752278
-0.9730046
0.1879057
0.1166557
-0.06591764
0.06381822
0.04961377
0.2573178
-0.9615946
0.209597
0.05429948
0.1686909
