-0.1469284
0.1061873
0.3030503
-0.3066792
0.9419796
-0.1363702
-0.005038004
-0.118791
0.1021015
0.2880241
-0.03559254
0.1630985
-0.3042557
0.937849
-0.1136354
0.09364596
0.3218372
0.2747123
0.02577229
-0.3403729
0.8988968
-0.11966
0.08003002
0.338378
0.508414
-0.09086476
-0.3399601
0.78593
-0.1227697
0.1164879
0.3409384
0.5588028
0.2472217
0.1494934
0.7773498
-0.1120147
0.09744132
0.3357218
-0.9361922
-0.3023101
0.04716871
-0.1729969
-0.1135938
0.09453177
0.3201401
-0.9457555
-0.2765268
0.1244906
0.1165404
-0.1352786
0.1058178
0.3431377
0.5592068
0.2755559
0.2509777
0.7405181
-0.1188584
0.08792192
0.3357531
-0.9057831
-0.3979148
-0.0126029
-0.1451275
-0.1188131
0.08579311
0.3175256
-0.9085276
-0.3864172
0.09053451
0.1306257
-0.164834
0.08294728
0.3352854
0.5499784
0.2022576
0.4285155
0.6877428
-0.1481859
0.07370964
0.332984
-0.820513
-0.4930615
-0.2468659
-0.1506854
-0.1427809
0.07554108
0.3201756
-0.8193226
-0.548097
-0.1312263
0.1052616
-0.1509134
0.09352049
0.3402024
0.5667562
0.224583
0.3293786
0.721013
-0.1329028
0.07869679
0.3338256
-0.8815419
-0.4327535
-0.128636
-0.1380623
-0.1291705
0.07870758
0.3162505
-0.879956
-0.4550653
-0.02214626
0.1345461
