-0.228016
0.1395206
0.2226778
-0.3427658
0.8894102
-0.2790121
0.1166768
-0.198979
0.1369506
0.2178725
-0.0642729
-0.05397925
-0.239222
0.9673305
-0.2079616
0.1342473
0.2514639
0.2622252
-0.2077788
-0.1993261
0.9210511
-0.2204648
0.122324
0.2645642
0.5493875
-0.3320398
-0.1339355
0.754973
-0.2182705
0.1596146
0.2614593
0.4618533
0.1685408
0.2586181
0.831506
-0.2050069
0.1420137
0.2622044
-0.9066577
-0.3232183
-0.07665746
-0.2600488
-0.201882
0.1376162
0.2472179
-0.9422667
-0.3343163
0.0103142
0.01611757
-0.2301563
0.1474897
0.2632232
0.431886
0.1939697
0.3610166
0.8034409
-0.2119703
0.1318574
0.2639462
-0.8727632
-0.413673
-0.1158593
-0.2318096
-0.2067908
0.128004
0.2465978
-0.9020886
-0.4312694
-0.01533123
-0.002805479
-0.2537235
0.1192755
0.2527825
0.3931888
0.1293238
0.5440196
0.7298771
-0.2376046
0.1127506
0.2572669
-0.7332757
-0.5485126
-0.3330654
-0.2247402
-0.2288198
0.1143084
0.246151
-0.753886
-0.6131517
-0.2311614
-0.04759546
-0.2425732
0.1323858
0.2587519
0.4315737
0.1537586
0.4432026
0.7705024
-0.2233351
0.1204277
0.2601531
-0.8206515
-0.4799785
-0.2267617
-0.2114967
-0.2144038
0.119364
0.2440962
-0.8415232
-0.5186205
-0.1457714
-0.04027908
