0.1365671
0.06914759
0.2826191
0.1779701
0.9646115
-0.00506004
-0.1944885
0.1446
0.04856271
0.2601906
0.0333287
0.3292935
-0.6962985
0.6368858
0.1493687
0.03144026
0.290921
0.2206625
0.08692981
-0.7646577
0.5992076
0.1399063
0.02434105
0.3094589
0.3857752
-0.163843
-0.7566584
0.5017977
0.1639276
0.04525724
0.3089873
0.6952199
0.03872437
-0.3232624
0.6408364
0.1520055
0.02904218
0.2997545
-0.9650967
0.1540429
0.2094113
0.03172065
0.146942
0.03377587
0.2852231
-0.9277738
0.2045187
0.1364074
0.280715
0.1491507
0.04907638
0.3156926
0.716443
0.05058091
-0.2164966
0.6612718
0.1399433
0.0305832
0.3031475
-0.9775648
0.1070501
0.1701212
0.06297892
0.13479
0.03631508
0.2860951
-0.9381543
0.1436967
0.1341086
0.2850134
0.1141101
0.06358564
0.3195389
0.6804348
-0.03387676
-0.04047131
0.7309056
0.1131339
0.04717541
0.3120188
-0.9983034
0.005199444
-0.03907191
-0.04285743
0.114519
0.04907483
0.2981399
-0.9709343
-0.00669439
-0.06355423
0.2306568
0.1303445
0.05634278
0.3182744
0.711677
-0.01798577
-0.1442256
0.6873074
0.1246344
0.03813142
0.3057353
-0.994839
0.08113956
0.05096332
0.03338578
0.1235824
0.04231626
0.2879532
-0.9601325
0.091354
0.01408514
0.2638214
