-0.1757013
0.1070446
0.2849759
-0.3623084
0.9202684
-0.1435576
0.0350735
-0.1468309
0.1067674
0.2717062
-0.03874571
0.1287467
-0.2451089
0.9601275
-0.142679
0.0995549
0.3059807
0.2642943
0.01481365
-0.272202
0.9251136
-0.1478232
0.08587873
0.3224034
0.5190278
-0.09175114
-0.2714688
0.8052929
-0.1556596
0.1195812
0.3241639
0.5484481
0.2495774
0.2148238
0.7686135
-0.1423251
0.1017173
0.3194391
-0.918718
-0.3461223
-0.00180647
-0.1901407
-0.1422819
0.09869507
0.3038447
-0.9331625
-0.3323515
0.09380461
0.09975535
-0.1668892
0.1076715
0.3254723
0.5408528
0.2832183
0.3138095
0.7271789
-0.1480654
0.09178451
0.3189064
-0.8836215
-0.4388843
-0.04936792
-0.1554238
-0.1466295
0.08970648
0.3007185
-0.8906183
-0.4362562
0.0690733
0.1082061
-0.1925407
0.08130962
0.3159236
0.5261701
0.2085419
0.4889305
0.6637788
-0.1745844
0.07402
0.3148472
-0.7794911
-0.5294129
-0.2934921
-0.161177
-0.1683131
0.07652169
0.3026097
-0.7799269
-0.597922
-0.1595169
0.09358222
-0.1807456
0.09346884
0.3217617
0.545922
0.2259327
0.3932671
0.7044604
-0.1609061
0.0809263
0.3165359
-0.8544666
-0.4729281
-0.1676319
-0.134631
-0.1560403
0.08167163
0.299202
-0.8538715
-0.5039916
-0.04967557
0.1201178
