-0.1211628
0.0677793
0.2962603
-0.2878231
0.9520552
-0.097184
-0.0361127
-0.0935325
0.06322977
0.2788843
-0.02702212
0.2304847
-0.3259204
0.9164729
-0.08468838
0.0534575
0.3118039
0.2497578
0.07202514
-0.3805448
0.8874791
-0.08951937
0.04048687
0.329236
0.4709646
-0.07325364
-0.3954912
0.7851198
-0.09390476
0.07427818
0.3313192
0.6180998
0.2634328
0.1046138
0.7332202
-0.0845557
0.05530521
0.322747
-0.9426857
-0.3089661
0.06262926
-0.1093677
-0.08701844
0.05412871
0.3069765
-0.9362321
-0.2811599
0.1237504
0.1706005
-0.1066211
0.06418028
0.3334577
0.6249974
0.2918438
0.2056462
0.6942011
-0.09253509
0.04659143
0.3219133
-0.9219807
-0.3818415
0.02642614
-0.05873916
-0.0951575
0.04715794
0.3038549
-0.8940303
-0.3552219
0.1275418
0.241372
-0.1373515
0.04359901
0.3271866
0.6152321
0.2202318
0.3845356
0.6520121
-0.1219659
0.03460526
0.3215081
-0.8487716
-0.486885
-0.2007
-0.0474284
-0.1189364
0.03820661
0.3082192
-0.8203365
-0.5246934
-0.09615753
0.2061521
-0.1228778
0.05297756
0.3306327
0.6438533
0.2417087
0.2803228
0.6696633
-0.1069138
0.03849399
0.3195983
-0.9058622
-0.4120412
-0.08767666
-0.04414388
-0.1059075
0.04100174
0.3018236
-0.8754221
-0.4206728
0.0110533
0.237799
