-0.09635056
0.1172878
0.1196227
0.03148144
0.9077178
-0.3557232
-0.2202686
-0.08206958
0.0913583
0.1090656
-0.3037355
0.1500086
-0.6156386
0.7114995
-0.06874473
0.1007104
0.1418271
-0.09011163
-0.07811508
-0.6192063
0.7761196
-0.07455248
0.1052446
0.1627576
0.1728896
-0.3361272
-0.5422537
0.7503924
-0.06026653
0.1227187
0.144537
0.4458294
0.1248053
-0.2591781
0.8476359
-0.06499623
0.1005686
0.1474293
-0.9372799
-0.01800191
0.2127919
-0.2755033
-0.07127315
0.09468174
0.1332261
-0.98647
0.02684758
0.1615579
-0.007433768
-0.07453622
0.1254023
0.1523272
0.4580372
0.1858146
-0.1629707
0.8538826
-0.07592539
0.1004666
0.1532637
-0.9415256
-0.0594943
0.220294
-0.2479127
-0.08373969
0.09368527
0.1369241
-0.9772953
-0.01106056
0.2106122
-0.02035327
-0.1121312
0.1278814
0.1581259
0.4460447
0.1804357
0.03486967
0.8759402
-0.1061666
0.1102892
0.1594195
-0.9258242
-0.2403436
0.05693456
-0.2860822
-0.1068911
0.105033
0.1459132
-0.9704867
-0.2255316
0.08538704
0.0003039131
-0.09439959
0.126559
0.1561802
0.4678329
0.1545508
-0.07181988
0.8672304
-0.0925255
0.1030173
0.1558991
-0.9508076
-0.1237102
0.1238803
-0.2555672
-0.09635812
0.09617603
0.1387483
-0.9875368
-0.09564203
0.1248713
-0.00555387
