-0.1783097
0.1189294
0.3577085
-0.4043274
0.9039274
-0.1142171
-0.07993242
-0.1508717
0.1189341
0.3374879
-0.07565183
0.2636238
-0.220619
0.9360057
-0.1365116
0.1120536
0.3706954
0.2129474
0.1432719
-0.2889791
0.9222893
-0.1364278
0.09823334
0.3891881
0.4536717
0.02260737
-0.3251584
0.8294232
-0.1496333
0.134798
0.3904448
0.5459775
0.3782293
0.163032
0.7295696
-0.1351788
0.1170671
0.3825997
-0.8781274
-0.4339613
0.09029123
-0.1800484
-0.1380839
0.1132951
0.3672002
-0.8887772
-0.381636
0.2079105
0.1456102
-0.1590185
0.1209183
0.3947518
0.5623064
0.3922167
0.2588343
0.6804282
-0.1401676
0.1052939
0.383395
-0.8593208
-0.4956286
0.04028809
-0.1195705
-0.1425747
0.1029356
0.3648791
-0.8533263
-0.4595299
0.1772509
0.1710227
-0.1851444
0.09286469
0.3915129
0.5890495
0.3277383
0.4231584
0.6054299
-0.1671819
0.08619666
0.3846425
-0.8061236
-0.5605608
-0.169011
-0.08585863
-0.1651458
0.08859682
0.3706349
-0.7852296
-0.5879343
-0.01112045
0.1939692
-0.1727354
0.1058821
0.3939084
0.5925097
0.3485467
0.3280894
0.6479234
-0.1528156
0.09313977
0.3826978
-0.8545192
-0.5039846
-0.05772023
-0.1116463
-0.1524751
0.09297389
0.364394
-0.840494
-0.4961969
0.09704465
0.194784
