0.1427917
0.1124996
0.3359688
0.1740011
0.918384
0.02548295
-0.3544647
0.1413904
0.09375042
0.3102481
-0.00203069
0.4435958
-0.6980969
0.5620314
0.152041
0.0728575
0.3384194
0.1477558
0.1624551
-0.8038517
0.5528102
0.1470323
0.06508055
0.3597358
-0.2549776
0.07399575
0.823571
-0.5012405
0.1758554
0.08417067
0.3496076
0.67239
0.1507783
-0.4354456
0.5792623
0.1599534
0.06786776
0.3427844
-0.9110067
0.1447829
0.3852267
0.02655488
0.1502453
0.07395115
0.3311884
-0.8610433
0.2653204
0.2887939
0.32374
0.1631002
0.08802366
0.3615102
0.7125657
0.1226995
-0.3389497
0.6019203
0.1485471
0.06965733
0.3497396
-0.9466222
0.1154632
0.2943561
0.06268282
0.1396294
0.07676086
0.334528
-0.8906965
0.1994623
0.2261086
0.3402198
0.1322285
0.1025239
0.3767056
0.7297035
0.08090108
-0.1642977
0.6587822
0.127521
0.08685434
0.366786
-0.9892401
0.02415196
0.1423565
0.02356647
0.1238988
0.09078532
0.3532149
-0.9482473
0.06219447
0.1132428
0.2900604
0.1466072
0.09512749
0.3700227
0.7287911
0.0757158
-0.2693801
0.6249521
0.1353049
0.07715932
0.3569281
-0.9713514
0.09690219
0.2131433
0.04069798
0.1288719
0.08292437
0.3403903
-0.921696
0.1555711
0.1553332
0.3196026
