-0.2190685
0.07647726
0.2779202
-0.4369378
0.8779345
-0.1955747
0.008192127
-0.189409
0.07858402
0.2634893
-0.1074123
0.1296056
-0.1784721
0.9694394
-0.1835132
0.07534003
0.299081
0.2297198
0.02480567
-0.2084303
0.9503527
-0.1870653
0.06165868
0.3168112
0.512458
-0.07364621
-0.2129149
0.8286316
-0.1999361
0.09765422
0.3148094
0.4700026
0.3245181
0.2503181
0.7817458
-0.1838895
0.08177143
0.3115936
-0.8769526
-0.4296233
0.0378494
-0.2120031
-0.1845618
0.0771955
0.2957422
-0.9008327
-0.4018302
0.1522833
0.06199035
-0.2089641
0.08418661
0.3184233
0.4601637
0.3628042
0.344569
0.7334131
-0.1878004
0.07114431
0.3129627
-0.8298341
-0.5312788
-0.002995887
-0.1706145
-0.1875607
0.06756064
0.2943138
-0.8428732
-0.5111782
0.1399718
0.09311003
-0.2312379
0.05269492
0.3134637
0.4532068
0.2968138
0.520565
0.6599373
-0.2125356
0.04877326
0.3125006
-0.7191771
-0.6409396
-0.2281114
-0.1412306
-0.2081734
0.05101937
0.2988604
-0.7184113
-0.6851161
-0.06864765
0.09893814
-0.2205426
0.06754145
0.3169116
0.4723974
0.3218962
0.4224857
0.70337
-0.1988566
0.05806637
0.3120439
-0.800632
-0.5712593
-0.105419
-0.1467589
-0.1957642
0.0573836
0.2936524
-0.8062481
-0.581402
0.0396378
0.1018068
