-0.2280859
0.06953436
0.2623907
-0.4483464
0.876579
-0.174738
-0.007834087
-0.1983575
0.07212168
0.2464041
-0.09551387
0.1713598
-0.1683147
0.9660141
-0.1891571
0.06802505
0.2815238
0.2194537
0.07781686
-0.2119958
0.9491272
-0.1904326
0.05428028
0.2996391
0.4936044
-0.01791916
-0.23181
0.8380321
-0.2074845
0.09094185
0.2996172
0.4580125
0.34505
0.2599741
0.7769032
-0.1906356
0.07553881
0.2964679
-0.8631451
-0.4482466
0.04261294
-0.2285601
-0.1910945
0.07027301
0.2807885
-0.8927653
-0.4191811
0.1612816
0.03529202
-0.2162448
0.0767445
0.3031821
0.463459
0.3730515
0.3519942
0.7225916
-0.1946846
0.06424138
0.2972242
-0.822934
-0.5434519
-0.004395156
-0.1655907
-0.1944593
0.06079197
0.2785478
-0.8349168
-0.5233997
0.141436
0.09467113
-0.2378722
0.04463607
0.2984418
0.4632448
0.3023658
0.5249761
0.6468225
-0.2190275
0.04098228
0.2970345
-0.7197934
-0.6417409
-0.2297766
-0.1314109
-0.2148719
0.04345256
0.2833821
-0.7162737
-0.6858701
-0.06614069
0.1102711
-0.2275559
0.05966133
0.3018342
0.4802349
0.3273903
0.428169
0.6919982
-0.2058997
0.05052218
0.2963903
-0.8032387
-0.5719974
-0.0993711
-0.1332366
-0.2033068
0.05007088
0.2779008
-0.805525
-0.579504
0.04916332
0.1135239
