-0.1883968
0.1271015
0.2791945
-0.3938569
0.8837683
-0.2138243
-0.1345721
-0.1618754
0.1230451
0.2588425
-0.1955249
0.2298946
-0.2408141
0.9224571
-0.1485668
0.1241638
0.2925174
0.1296044
0.08791598
-0.2968484
0.941995
-0.1502322
0.1138844
0.3125494
0.4275582
-0.05990581
-0.3145489
0.8453783
-0.1588655
0.1496422
0.3064169
0.4647281
0.4107589
0.1066772
0.7771262
-0.145548
0.1306322
0.301971
-0.8635014
-0.3990883
0.1837652
-0.2476376
-0.1503567
0.1238383
0.2880048
-0.8989281
-0.3162763
0.2954327
0.06795045
-0.1685431
0.138018
0.3143542
0.4763386
0.4325536
0.2063988
0.7371557
-0.1500778
0.1203246
0.3065187
-0.8402746
-0.4871332
0.1208868
-0.2050029
-0.1536237
0.1138523
0.289194
-0.8630943
-0.4240597
0.2582752
0.09238788
-0.194567
0.1099134
0.3194228
0.493835
0.3689895
0.3918383
0.6829616
-0.1767127
0.1022006
0.3150612
-0.7842551
-0.5866048
-0.1009014
-0.1750936
-0.1747214
0.1013508
0.3008233
-0.7953356
-0.5950123
0.05740128
0.1005325
-0.1822655
0.1232648
0.3179149
0.5026615
0.3894077
0.2865998
0.7166266
-0.1628608
0.1089477
0.3099235
-0.8353125
-0.5185257
0.01745492
-0.1818777
-0.1632059
0.1049082
0.2918319
-0.8509308
-0.4923088
0.1556734
0.09651233
