0.03013729
0.09494752
0.3315719
-0.1962008
0.9385852
0.03775679
-0.281314
0.04228345
0.08736068
0.3025944
-0.002289703
0.4463522
-0.4126395
0.794036
0.05990429
0.06875467
0.3280692
0.260229
0.2401872
-0.5427428
0.7615913
0.05749789
0.05312473
0.3446611
0.4427524
0.056811
-0.5959251
0.667545
0.07299311
0.08975452
0.3484377
0.6784179
0.3742744
-0.1280271
0.6190935
0.07281111
0.06953186
0.3352506
-0.9247754
-0.2458075
0.2904426
-0.003517002
0.06301209
0.07105967
0.3227679
-0.8713377
-0.1205674
0.3224849
0.3496251
0.06074747
0.08122665
0.3575982
0.7042339
0.3618003
-0.02109554
0.6104999
0.06491078
0.06059951
0.3399962
-0.9310911
-0.3056269
0.1989213
0.009587819
0.05615319
0.0619179
0.3233331
-0.8931632
-0.233363
0.2500252
0.2920423
0.02430952
0.06860214
0.3660634
0.7610645
0.2367409
0.1346222
0.5887373
0.03382442
0.05434972
0.3528879
-0.9366025
-0.3362103
-0.07310413
-0.06629007
0.03494826
0.05609196
0.3386061
-0.9145434
-0.3466818
-0.03284208
0.2057757
0.04214316
0.07413763
0.3639645
0.7249992
0.2863886
0.04870393
0.6244883
0.04903274
0.0541676
0.3472835
-0.9503776
-0.2903686
0.09406865
-0.06016344
0.04444124
0.05480489
0.3297849
-0.9165657
-0.2427311
0.159959
0.2745945
