0.04364233
0.02196679
0.2887801
0.131915
0.9374018
-0.02410283
-0.3213961
0.04734937
0.001164258
0.2618923
-0.05635282
0.4462945
-0.662928
0.5984749
0.06189918
-0.01742879
0.289709
0.1177709
0.1808291
-0.769983
0.6004641
0.0584483
-0.02540702
0.3108706
0.2599997
-0.06931728
-0.7929211
0.5466912
0.07950532
-0.0008376241
0.3067457
0.6464781
0.1663708
-0.3817744
0.6392459
0.06658152
-0.01888949
0.300593
-0.9277965
0.1127364
0.3556461
-0.0002771059
0.05714921
-0.01398724
0.288292
-0.8831156
0.2250768
0.2742045
0.3070165
0.06527777
0.001808107
0.3176127
0.6860892
0.1389057
-0.2827035
0.6557938
0.05397928
-0.01840198
0.3068905
-0.9587362
0.07851109
0.2713412
0.03217151
0.045385
-0.01248759
0.2912292
-0.9008552
0.1629247
0.2145098
0.3404422
0.03204829
0.01372877
0.3301354
0.6901956
0.1076381
-0.1013787
0.7083548
0.0299635
-0.003079891
0.3218383
-0.991052
-0.02558276
0.1289638
-0.02302116
0.02637147
-8.821487E-05
0.308306
-0.9471191
0.01705437
0.1181938
0.2978335
0.04754809
0.007506013
0.3247034
0.6999717
0.09539085
-0.2095431
0.6760414
0.03939116
-0.0121212
0.3129166
-0.9797245
0.05527264
0.1923035
0.01021476
0.03326689
-0.007377446
0.2961746
-0.9266525
0.1146684
0.1485167
0.3257441
