0.1014739
0.1234843
0.3287013
0.2480163
0.9009904
0.02752171
-0.3548898
0.09764466
0.1042132
0.3041895
-0.003885062
0.4361965
-0.7390681
0.5133185
0.1073572
0.08236498
0.3323765
0.1398226
0.1882809
-0.8355672
0.4968173
0.1021896
0.07447055
0.3532205
-0.2729652
0.08190326
0.8550595
-0.4331919
0.1319949
0.09091783
0.3442937
0.6427774
0.1266525
-0.4747904
0.5876823
0.1144753
0.07419896
0.3398222
-0.8941681
0.1685174
0.4124764
-0.0439143
0.1041722
0.07890612
0.3285322
-0.8592287
0.3082484
0.2911877
0.2862144
0.1201863
0.09733921
0.3561303
0.6831833
0.09818851
-0.3797805
0.6159436
0.1037571
0.07897821
0.3466905
-0.9346675
0.1617919
0.3159232
0.02030999
0.09395258
0.08472389
0.331282
-0.9020573
0.2387353
0.2480966
0.2602808
0.09058711
0.1167529
0.3710212
0.6896462
0.03329757
-0.211273
0.6918405
0.08349411
0.1008493
0.363292
-0.9778625
0.1172602
0.1715212
-0.02481104
0.07938435
0.1038877
0.3496286
-0.9469451
0.1600754
0.1301731
0.2464263
0.1044071
0.1070606
0.3649389
0.6878242
0.03993538
-0.3129034
0.6537542
0.0909186
0.08909059
0.3546027
-0.9577717
0.1661713
0.2346339
-0.002715001
0.08383173
0.09363395
0.3378483
-0.9256383
0.2232756
0.1699326
0.253899
