0.1707554
0.106582
0.29189
0.161388
0.8938472
0.08456776
-0.4096822
0.1647051
0.09243128
0.2637416
0.01231779
0.5156743
-0.6728691
0.5302598
0.1772845
0.0673289
0.2871858
0.151555
0.2596064
-0.8000924
0.5191222
0.1734633
0.05696306
0.3067266
-0.2835359
0.04365013
0.846311
-0.4488429
0.2069646
0.07598346
0.2978865
0.6794904
0.2748355
-0.4412304
0.5177586
0.1919267
0.06102759
0.2907721
-0.8615489
0.1059513
0.4759679
0.1412879
0.1805548
0.06986415
0.2830284
-0.7820904
0.2518713
0.4042701
0.4018223
0.19441
0.07770774
0.3115902
0.7291886
0.2159099
-0.3565902
0.5426882
0.1796179
0.0625034
0.2998232
-0.896935
0.1120612
0.385069
0.1862038
0.1686168
0.07351601
0.2886513
-0.8175889
0.2117657
0.3352976
0.4174675
0.1645369
0.0911206
0.3327087
0.7453423
0.1326248
-0.1923156
0.624412
0.1589796
0.07689461
0.3222919
-0.9728795
0.02624415
0.2076063
0.09857187
0.153859
0.08311433
0.3103825
-0.9011903
0.08833241
0.1786969
0.3848647
0.1784719
0.08406532
0.3231834
0.7457898
0.1471777
-0.2961091
0.5783215
0.1664508
0.06920838
0.3099763
-0.9400205
0.09885317
0.2873961
0.154897
0.1581609
0.07882351
0.2962609
-0.8647768
0.1755205
0.2388202
0.4053623
