-0.008284451
0.1444251
0.2323742
0.1007154
0.945039
-0.08358059
-0.2996196
-0.002190938
0.1211706
0.2082179
-0.0901948
0.3923199
-0.6541395
0.6403526
0.01397769
0.1065973
0.2381724
0.07119175
0.1750219
-0.7343064
0.6519918
0.01248996
0.09959614
0.259888
0.2283845
-0.05860381
-0.7557678
0.6109183
0.03109618
0.128036
0.2542017
0.5784273
0.2090952
-0.3340587
0.7142169
0.02140941
0.1071645
0.2514561
-0.9140338
0.07478999
0.381809
-0.1147638
0.0100834
0.1079275
0.2395564
-0.9088751
0.1825343
0.3407804
0.1565122
0.01484723
0.1296872
0.2640626
0.6380143
0.1572649
-0.2385929
0.7150378
0.006073644
0.1073601
0.25597
-0.9584466
0.05824609
0.2762921
-0.04062322
-0.003680243
0.1099052
0.2396597
-0.9347799
0.1300338
0.2490389
0.2173876
-0.02039216
0.1387858
0.2742773
0.6461006
0.1230022
-0.05469992
0.7512871
-0.02067874
0.1211381
0.2678762
-0.9875781
-0.04943651
0.1250699
-0.08126019
-0.02444254
0.1220642
0.2539378
-0.9680214
-0.01060699
0.1341407
0.2117271
-0.003980847
0.1339036
0.2699774
0.6567454
0.1112709
-0.1634274
0.7277334
-0.009786172
0.1124653
0.2604564
-0.9805436
0.02821804
0.1871023
-0.05225691
-0.01636312
0.1144478
0.2431143
-0.9540408
0.08128949
0.1663013
0.2356735
