-0.1051026
0.1428763
0.2193013
-0.1474333
0.9655594
-0.124158
-0.1747663
-0.08487075
0.1290092
0.1974366
-0.109343
0.2998015
-0.4632351
0.8267869
-0.0704643
0.1212854
0.2301822
0.1391926
0.1169871
-0.5300067
0.8282707
-0.07435354
0.1118973
0.2501733
0.3924778
-0.09399474
-0.5426223
0.7366732
-0.06865717
0.144618
0.2477288
0.5905138
0.2571688
-0.08826624
0.7598466
-0.06711979
0.1230472
0.2411463
-0.9591909
-0.161715
0.2103231
-0.09780236
-0.07405534
0.1214354
0.2259388
-0.959268
-0.1098476
0.2240552
0.1324298
-0.08283795
0.1384068
0.2543828
0.6122944
0.2860502
0.01529359
0.7369105
-0.07740231
0.116715
0.2439938
-0.9554971
-0.2320709
0.1772031
-0.04204121
-0.0847908
0.1164683
0.2261581
-0.9393373
-0.1828159
0.2167322
0.1930049
-0.1202493
0.1279094
0.2579377
0.6122897
0.203798
0.205455
0.735769
-0.1097488
0.1135615
0.2518307
-0.9306125
-0.3522339
-0.0579297
-0.08084473
-0.1092055
0.1146603
0.2373282
-0.9143369
-0.3570888
0.009877802
0.1907305
-0.1026325
0.1323329
0.2568303
0.6353105
0.2221332
0.09362192
0.7336705
-0.09471165
0.1130167
0.2460607
-0.9613946
-0.2674795
0.05516925
-0.03363919
-0.09777758
0.114177
0.2275079
-0.9397408
-0.2455761
0.099425
0.2160887
