0.0744023
0.1359391
0.3007763
0.1742583
0.9281298
0.02374437
-0.3280935
0.07520289
0.1168084
0.2739085
-0.006772881
0.4455109
-0.6890189
0.5716006
0.08761148
0.09497404
0.3011737
0.1392664
0.2238407
-0.7857283
0.5595814
0.08392888
0.08527556
0.3214164
-0.2865609
0.03985193
0.8193936
-0.4948624
0.1080713
0.1075874
0.3172293
0.6641495
0.1626362
-0.4094346
0.6040019
0.09333925
0.09002209
0.3106732
-0.9148744
0.1240454
0.3842044
-0.002166095
0.08330634
0.09516314
0.2990084
-0.8688384
0.2479247
0.2978022
0.3081673
0.09436077
0.1116092
0.3286443
0.701165
0.1229554
-0.313224
0.628602
0.08072258
0.09183866
0.3175541
-0.9479911
0.1105657
0.2976437
0.0222823
0.0712436
0.09751397
0.3020924
-0.9013382
0.1941812
0.2424974
0.3017915
0.06216441
0.1262626
0.3422475
0.7019665
0.07287448
-0.1376753
0.6949661
0.05806945
0.1093248
0.3337173
-0.9881186
0.03209435
0.1443436
-0.04191101
0.05432436
0.1119967
0.3201554
-0.9496319
0.07666375
0.1221617
0.278206
0.07709788
0.1188037
0.3362892
0.7132556
0.07066449
-0.2441847
0.6531821
0.06651442
0.0995602
0.3241295
-0.9714059
0.100796
0.2149663
0.0005041303
0.0597951
0.1041483
0.3074598
-0.9256543
0.1621713
0.1653868
0.2991853
