-0.2205702
0.07381839
0.269633
-0.4663705
0.8625678
-0.1954244
-0.0168738
-0.1911373
0.07625097
0.2533803
-0.1124523
0.1697421
-0.1567619
0.9664201
-0.1817935
0.07375273
0.2886525
0.1949015
0.07389542
-0.1981845
0.9577452
-0.1830028
0.06083274
0.3071234
0.4893187
-0.0327315
-0.2189659
0.8435341
-0.2007995
0.09793705
0.3060684
0.426254
0.3575438
0.2680942
0.7865084
-0.1833383
0.08284423
0.304141
-0.8494871
-0.4516574
0.05003395
-0.2680933
-0.1835936
0.07642531
0.2889977
-0.8909821
-0.4156845
0.1824758
0.007734814
-0.208785
0.08297163
0.3097283
0.4495911
0.3891763
0.351871
0.7229084
-0.1872194
0.07085025
0.3038133
-0.8159887
-0.5524795
0.0131638
-0.1695752
-0.1874796
0.0668782
0.2852409
-0.8295804
-0.5262846
0.1632758
0.09034342
-0.2294022
0.0502291
0.3065775
0.4501738
0.3252957
0.5253423
0.6446253
-0.2106578
0.04697868
0.304875
-0.7184957
-0.6525785
-0.2009796
-0.1323349
-0.2075104
0.04887587
0.2910256
-0.7139381
-0.6875195
-0.01138419
0.1322114
-0.2195145
0.06563473
0.309092
0.4677517
0.3491351
0.4275717
0.6902866
-0.1980294
0.05693972
0.3033983
-0.7981061
-0.5832348
-0.07341103
-0.1321921
-0.196345
0.0559392
0.2848499
-0.8004152
-0.581934
0.08318936
0.117337
