-0.02964112
0.1235781
0.2676096
0.02521223
0.9537891
-0.1470715
-0.260808
-0.01798707
0.1011124
0.2461088
-0.1459287
0.3307804
-0.608063
0.7067875
-0.002330728
0.09291929
0.278138
0.0686606
0.1019271
-0.6772662
0.7254014
-0.006470628
0.08780491
0.2995545
0.2956079
-0.1610045
-0.6723371
0.6592848
0.007833282
0.1154057
0.2913984
0.5849718
0.1659341
-0.2737834
0.7451956
0.001045439
0.09329003
0.2872848
-0.9577775
-0.01400227
0.252507
-0.1367718
-0.006493854
0.09236026
0.2727787
-0.964085
0.05805057
0.1994043
0.1655538
-0.006467885
0.1159346
0.3007323
0.6091703
0.1888937
-0.1681793
0.7516292
-0.01016662
0.09149921
0.2932597
-0.9684734
-0.0569598
0.2200239
-0.1020027
-0.01827957
0.09053493
0.2759313
-0.9660932
-0.0002404443
0.2084713
0.1523274
-0.04363814
0.119056
0.3089398
0.6132309
0.1380158
0.02254009
0.7774261
-0.03994019
0.1011527
0.3036845
-0.9763986
-0.1676076
0.03731376
-0.1310011
-0.04113887
0.1003349
0.2891768
-0.9759563
-0.1545596
0.05588871
0.143169
-0.02617128
0.1171587
0.3058715
0.6230684
0.1375668
-0.08698913
0.7650451
-0.02680955
0.09432518
0.2975253
-0.9834871
-0.08751187
0.1176226
-0.1061122
-0.03110055
0.09333664
0.2792764
-0.9796735
-0.05634575
0.1124841
0.1562446
