-0.06482818
0.09659687
0.1938293
0.04977347
0.9221889
-0.3368038
-0.1834491
-0.04850292
0.06994468
0.1829322
-0.2810418
0.1562363
-0.632981
0.7042306
-0.03660892
0.0778625
0.2162806
-0.05656493
-0.1026216
-0.63375
0.7646111
-0.04393031
0.08227396
0.2369124
0.1863059
-0.3608068
-0.551968
0.7283131
-0.03127219
0.1007323
0.2219972
0.4715005
0.07900553
-0.2407796
0.844672
-0.03651248
0.07835984
0.2238738
-0.9483413
-0.007748897
0.1620876
-0.2726105
-0.04110859
0.07280219
0.2090411
-0.9944159
0.02394292
0.1013346
0.01718109
-0.04593509
0.1034851
0.2288052
0.4752849
0.1431524
-0.1435093
0.856164
-0.04777671
0.07828218
0.2292955
-0.9502017
-0.03888504
0.1794912
-0.2517693
-0.05421404
0.07153946
0.2123888
-0.9854859
0.000356115
0.1684633
-0.02092013
-0.08381073
0.1062626
0.2313166
0.4568732
0.1360415
0.05245265
0.8775012
-0.07842124
0.08835143
0.232781
-0.9338417
-0.2021467
0.02193653
-0.2942708
-0.07828557
0.0830901
0.2192446
-0.9791972
-0.1966691
0.049184
-0.008669483
-0.06607339
0.1047409
0.2309235
0.4824659
0.1095752
-0.05287879
0.8674237
-0.06469403
0.08086294
0.230457
-0.956562
-0.09353898
0.08482634
-0.2627622
-0.06724083
0.07397279
0.213088
-0.993499
-0.07509854
0.08453479
-0.0131803
