0.0813739
0.1162384
0.4022268
-0.08442125
0.9520423
0.2549335
-0.1466199
0.09376444
0.1132343
0.3755141
0.3216006
0.394534
-0.4660997
0.7236485
0.09697778
0.08067057
0.3945677
0.44245
0.2311017
-0.5628536
0.6588064
0.0888503
0.06171882
0.4059573
0.5371059
0.05915191
-0.6275709
0.5605115
0.1182306
0.08977112
0.4219474
0.7988501
0.2474238
-0.06712477
0.5441638
0.1168179
0.0741604
0.4042384
-0.9587523
-0.1519377
0.1957514
0.13925
0.1094718
0.08088297
0.3914627
-0.861867
-0.07735226
0.2231137
0.4488009
0.1020565
0.08360901
0.4253037
0.8204342
0.2130958
0.03351208
0.5294856
0.1057769
0.0690625
0.4035957
-0.9570776
-0.2198229
0.05592518
0.180424
0.1011844
0.07845479
0.388037
-0.8521231
-0.1841627
0.08804148
0.4818913
0.06117047
0.08181626
0.4259339
0.8111361
0.03994975
0.1676823
0.5588784
0.06909357
0.06707641
0.4123503
-0.9761173
-0.1476207
-0.1552404
-0.03610746
0.07290056
0.06956393
0.3987333
-0.9507266
-0.1825514
-0.1318894
0.2130707
0.08112568
0.08169529
0.4257079
0.8325056
0.1343229
0.0841499
0.5308584
0.08739572
0.06820852
0.4050636
-0.9652289
-0.2053611
-0.05364535
0.1525856
0.08717556
0.07717991
0.3887213
-0.8848352
-0.2061238
-0.03341277
0.4164893
