-0.1611935
0.09686339
0.2864325
-0.3572504
0.9215398
-0.1212108
-0.0918945
-0.1336494
0.09524363
0.2654371
-0.1221111
0.269913
-0.2646867
0.917702
-0.1191985
0.09064069
0.2985604
0.1817208
0.1207194
-0.3340254
0.9169686
-0.1205489
0.07841167
0.3178521
0.4334119
-0.02373987
-0.3622617
0.8248376
-0.1311165
0.1108991
0.3190429
0.5488932
0.3464026
0.1239496
0.7505718
-0.1193034
0.092343
0.3118096
-0.9073086
-0.3766958
0.1196059
-0.1434778
-0.1234326
0.08935964
0.2962438
-0.9091093
-0.3234974
0.209375
0.1582146
-0.1417209
0.09834608
0.3237506
0.5630707
0.3695346
0.2213519
0.7052651
-0.1256811
0.08156273
0.3130287
-0.8868718
-0.4469627
0.08150079
-0.08390681
-0.1300454
0.08000255
0.2947419
-0.8691909
-0.3996501
0.2021348
0.2095914
-0.1708429
0.07280123
0.3221779
0.5736986
0.2929757
0.398983
0.6525702
-0.1543181
0.06466794
0.3163918
-0.8304732
-0.5343174
-0.140481
-0.07130475
-0.1528967
0.06695038
0.3022199
-0.8076209
-0.5538636
-7.370014E-05
0.2024436
-0.1569295
0.0845142
0.3235524
0.5913218
0.3194842
0.2943217
0.6794433
-0.1397827
0.07083154
0.3128596
-0.8808546
-0.4690272
-0.02034847
-0.06078386
-0.1410237
0.07153386
0.2943311
-0.8584344
-0.4550907
0.1003668
0.2142648
