0.05979887
0.1312652
0.3244678
0.171586
0.9372566
-0.01229796
-0.3032444
0.06214487
0.1109707
0.3001387
-0.01766545
0.3994402
-0.697878
0.5942237
0.07282822
0.09226829
0.3301139
0.1447
0.1504041
-0.785689
0.5823517
0.06722125
0.08488882
0.351089
0.2915473
-0.1100461
-0.7981855
0.5155483
0.09319411
0.1051425
0.3442235
0.6493263
0.1364576
-0.3935553
0.6362931
0.07916331
0.08608145
0.3382511
-0.9295782
0.1058059
0.3471846
-0.06443912
0.06967926
0.08901456
0.3254591
-0.9067979
0.216009
0.2578002
0.2541588
0.07942452
0.1097887
0.3544469
0.6860469
0.1152959
-0.2936092
0.655622
0.06718329
0.08913106
0.3438872
-0.9595085
0.0930317
0.2658727
0.0004797217
0.05826753
0.09326261
0.3273876
-0.9316899
0.1574102
0.2199704
0.2424645
0.04582777
0.1241829
0.3654471
0.6890904
0.05646848
-0.1175977
0.712837
0.04244232
0.1071389
0.3573922
-0.992138
0.02782551
0.1130659
-0.0458705
0.03942437
0.1091405
0.343231
-0.9674212
0.0574577
0.09488481
0.2275781
0.06146013
0.1169264
0.3609888
0.6953453
0.05852792
-0.2225644
0.6808337
0.05224391
0.09703684
0.3495555
-0.9798636
0.08743922
0.1787857
-0.01604184
0.04641361
0.1003132
0.3319723
-0.9518801
0.1311126
0.1370429
0.2407347
