-0.02650587
0.1549912
0.3481251
-0.1336382
0.9767436
-0.02825443
-0.165271
-0.009940219
0.1427623
0.3252947
0.03753274
0.3011213
-0.4790391
0.823674
-0.000898366
0.1262168
0.3570247
0.2630109
0.1200446
-0.5474598
0.785304
-0.007438946
0.1131962
0.3747011
0.4581865
-0.06482515
-0.5668997
0.6815333
0.009823976
0.1482171
0.3758168
0.6712664
0.2410939
-0.09761165
0.6940801
0.009937808
0.1271335
0.3651862
-0.9680274
-0.157844
0.1897315
-0.04483635
0.003445759
0.1277151
0.3499107
-0.9503521
-0.1035701
0.1996998
0.214998
-0.005213529
0.1421371
0.3803058
0.7090617
0.2602431
0.0025837
0.6553612
-0.00159112
0.121607
0.3646863
-0.9645425
-0.215585
0.1496538
0.02801063
-0.008447101
0.1243806
0.3469093
-0.9296809
-0.1714353
0.184461
0.2688447
-0.04301706
0.1345204
0.3816043
0.7234233
0.1726978
0.1786322
0.6441466
-0.0334022
0.120957
0.371025
-0.9420715
-0.3188341
-0.1040229
0.00505391
-0.03200166
0.124697
0.3568827
-0.9060612
-0.3341504
-0.0622204
0.2520424
-0.02523338
0.1376097
0.3815916
0.732197
0.1951916
0.07418352
0.6482936
-0.01851716
0.1192763
0.3658248
-0.9696637
-0.2423137
0.02104275
0.02436591
-0.02069335
0.1229831
0.3475213
-0.9321597
-0.2283224
0.0542684
0.275685
