-0.1305391
0.1021931
0.2989932
-0.3015811
0.9395562
-0.1005024
-0.1272099
-0.1052051
0.09613833
0.2765257
-0.07641006
0.3067951
-0.3255456
0.8910995
-0.0901818
0.08681196
0.3083652
0.2182849
0.1494152
-0.4073149
0.8741404
-0.09226558
0.07315248
0.3265755
0.458499
-0.005252974
-0.4395685
0.772354
-0.09725773
0.1113337
0.3291292
0.5933681
0.3262671
0.05274718
0.7339494
-0.08848793
0.09139347
0.3203564
-0.9268924
-0.3308679
0.1364167
-0.1130815
-0.09336316
0.0896216
0.3048925
-0.9186381
-0.2736902
0.2017214
0.2012621
-0.1091252
0.1002126
0.3348054
0.6068247
0.3410238
0.156032
0.7008
-0.09563845
0.08118126
0.3227139
-0.9110881
-0.3967933
0.08317359
-0.07453723
-0.1000448
0.08041862
0.304436
-0.8894066
-0.3516296
0.1796121
0.2303303
-0.1412144
0.07875022
0.3344404
0.6288274
0.2631077
0.3312584
0.6523944
-0.1261228
0.06850898
0.3270012
-0.8655221
-0.4775676
-0.139992
-0.0565942
-0.1244748
0.07127517
0.3129114
-0.8371202
-0.4996226
-0.03160045
0.2204735
-0.1260531
0.08850816
0.3354684
0.6348051
0.2848957
0.2293169
0.68064
-0.1109823
0.07237732
0.3234957
-0.9087584
-0.4120944
-0.02455159
-0.06110312
-0.1119072
0.07359356
0.3051217
-0.8811783
-0.4009754
0.07534694
0.2388859
