-0.009491992
0.1654051
0.1898371
0.2236957
0.8939189
-0.2456393
-0.3008829
-0.00695601
0.1352717
0.1755398
-0.2190372
0.291347
-0.7504075
0.5513876
0.01113915
0.1303213
0.2075238
-0.07419876
0.07404706
-0.7979636
0.5935198
0.01093375
0.131357
0.2299401
0.1142438
-0.2047793
-0.7759596
0.5855772
0.02641097
0.151851
0.214864
0.4800629
0.07070868
-0.4324203
0.7599689
0.01263005
0.1326519
0.2180766
-0.8914453
0.1813808
0.3361961
-0.2437182
0.002631887
0.1306171
0.2053889
-0.9327496
0.2747326
0.2250403
0.06210568
0.01371893
0.1601577
0.2236559
0.5061486
0.08616598
-0.3313069
0.7915964
0.001773529
0.136993
0.224216
-0.9257906
0.1376178
0.2787853
-0.2150625
-0.008359073
0.1340297
0.2083299
-0.9530802
0.2072353
0.2143612
0.05235359
-0.01917214
0.1771602
0.2307927
0.4980769
0.0885872
-0.1464876
0.8500665
-0.02175166
0.1584632
0.2313806
-0.9538555
0.01200059
0.1511222
-0.2591869
-0.02588338
0.1548645
0.2181185
-0.9885689
0.05630647
0.1256853
0.06135536
-0.003663491
0.1690365
0.2282674
0.5102925
0.05901742
-0.2494139
0.8209209
-0.01242787
0.1462971
0.227539
-0.9460436
0.1055933
0.2032946
-0.2291789
-0.019767
0.1424181
0.210872
-0.9740058
0.1583261
0.1495487
0.06229644
