-0.02738392
0.0897342
0.1592284
0.141752
0.8669688
-0.421133
-0.2256513
-0.01705457
0.05962822
0.1542368
-0.3532719
0.1211137
-0.6994681
0.6093233
-0.000928623
0.07250583
0.1846078
-0.1953557
-0.1269445
-0.6826488
0.6926124
-0.004390175
0.08304977
0.2039007
0.01737019
-0.407542
-0.5782599
0.7065574
0.007729871
0.09387565
0.1848593
0.377043
0.01639213
-0.326954
0.8664127
-0.001367464
0.07380715
0.191706
-0.9059291
0.0985273
0.1965712
-0.3618627
-0.007403603
0.06638539
0.1784602
-0.9842791
0.1336566
0.09894007
-0.05951061
-0.006119587
0.1009229
0.1916851
0.3790266
0.07793493
-0.232742
0.8922423
-0.01189076
0.07759324
0.1976272
-0.9250429
0.04833103
0.1866999
-0.3272658
-0.01882519
0.06892845
0.1819361
-0.9822116
0.0851532
0.1441479
-0.08503278
-0.04160003
0.1113475
0.1940883
0.3445596
0.1432547
-0.05411647
0.9261901
-0.0393407
0.09459168
0.1993765
-0.9221548
-0.09957715
0.1261472
-0.351855
-0.04232921
0.08735943
0.1870819
-0.9850335
-0.06766872
0.1325787
-0.08690763
-0.0248437
0.1061132
0.1939385
0.3773065
0.07752459
-0.1473129
0.9110042
-0.02767732
0.08414555
0.1984174
-0.9373761
0.01546651
0.1378424
-0.3195097
-0.03271584
0.07524526
0.1823813
-0.9869329
0.04137125
0.1176289
-0.1020555
