-0.1800872
0.09986824
0.2848476
-0.3548841
0.9177964
-0.1722369
-0.04518285
-0.1507474
0.09795737
0.266995
-0.1395035
0.1975382
-0.2691507
0.9322422
-0.1407912
0.09546936
0.3016387
0.1889485
0.05658055
-0.3163997
0.9278947
-0.1448249
0.08344623
0.3201021
0.4918398
-0.09121296
-0.3225694
0.8035688
-0.1540672
0.1160101
0.3191636
0.5286103
0.3243467
0.1435232
0.7712142
-0.141866
0.09792221
0.3132574
-0.9095025
-0.3777222
0.09679367
-0.1440911
-0.1451145
0.09489208
0.2972901
-0.9151004
-0.3381713
0.1772718
0.1296391
-0.1650755
0.1042568
0.322873
0.5341256
0.363157
0.2387116
0.7251508
-0.1483055
0.08771652
0.3138165
-0.8819533
-0.4536175
0.07292742
-0.1052195
-0.1520293
0.08549792
0.2954239
-0.8714519
-0.4094819
0.1959506
0.1857409
-0.1934345
0.0779593
0.3198719
0.5355519
0.2885261
0.4216306
0.6724318
-0.1765414
0.07073617
0.3156838
-0.7983806
-0.5742806
-0.1635434
-0.07774179
-0.174533
0.0733012
0.301575
-0.776705
-0.6000356
-0.02509592
0.189886
-0.1798906
0.09015465
0.3220249
0.556216
0.3142127
0.3174462
0.7008011
-0.1617634
0.07699019
0.3132121
-0.8655051
-0.492375
-0.04021496
-0.08276811
-0.1619279
0.07723507
0.2945724
-0.8508715
-0.48496
0.08054488
0.1853215
