0.01714553
0.1719459
0.2058102
0.25785
0.8870823
-0.2041756
-0.3238993
0.0160194
0.1422716
0.1903255
-0.1870228
0.3228051
-0.7730991
0.512969
0.03333999
0.1332609
0.2219708
-0.04861398
0.1080326
-0.8300791
0.5449169
0.03348666
0.1323436
0.2446172
0.1185124
-0.1542874
-0.8229145
0.5338182
0.05209411
0.1530574
0.2299492
0.4916666
0.07657947
-0.4746116
0.7260464
0.03659006
0.1350841
0.233085
-0.872852
0.2177108
0.3800817
-0.2151031
0.02559249
0.134667
0.2210609
-0.9045072
0.3257581
0.2629803
0.08117796
0.0402306
0.1623762
0.2391843
0.524008
0.07989937
-0.3750977
0.7604824
0.02584571
0.1401505
0.2393123
-0.9131541
0.173655
0.3122864
-0.1961398
0.01476603
0.1385932
0.223915
-0.9349032
0.2539113
0.2366714
0.0739715
0.009145664
0.1822662
0.2474207
0.5256941
0.0728526
-0.1948207
0.8248534
0.004458973
0.1634252
0.2472944
-0.9487584
0.05409247
0.1784766
-0.2551034
-0.0003513488
0.1604579
0.2342372
-0.9809301
0.1087371
0.13546
0.08719503
0.02380269
0.1728541
0.2443053
0.5323046
0.04822217
-0.2965021
0.7914626
0.01247077
0.1505753
0.2429519
-0.9363497
0.142321
0.2347047
-0.2188784
0.004199792
0.1477568
0.2266321
-0.9605196
0.2064674
0.1643922
0.08802564
