-0.03280846
0.1385968
0.3930466
-0.2286848
0.9594811
0.101205
-0.129834
-0.0124527
0.1353215
0.36617
0.1384282
0.4023162
-0.3590638
0.8306941
0.00238172
0.1114824
0.3906061
0.335371
0.2689248
-0.4547318
0.7800159
0.0007327736
0.09299034
0.4038889
0.5262594
0.1002237
-0.5242622
0.6619332
0.005259826
0.1303322
0.4215916
0.7027947
0.3107315
0.02850577
0.6393067
0.01135123
0.1111065
0.4073548
-0.9455743
-0.2927019
0.1359586
-0.04159547
0.005957688
0.1114045
0.3918087
-0.921213
-0.2427725
0.191625
0.2360254
-0.008778797
0.1201544
0.4249988
0.7225108
0.2914055
0.1312897
0.6130449
0.0006783982
0.103935
0.4075035
-0.9362572
-0.3323898
0.07206953
0.08800936
-0.005110152
0.1093678
0.3903523
-0.8610574
-0.2898923
0.1510102
0.3895365
-0.04541072
0.1061797
0.421255
0.7403139
0.18176
0.2883865
0.5794237
-0.03234195
0.09507287
0.410102
-0.919451
-0.3573072
-0.1639187
0.008487512
-0.02999446
0.09950387
0.3964537
-0.8787888
-0.3877279
-0.08784205
0.2639718
-0.02791535
0.1120273
0.4239646
0.7432386
0.2234232
0.1926718
0.6004632
-0.0166969
0.0978637
0.4072284
-0.9412104
-0.3260801
-0.02638057
0.08425437
-0.0189282
0.1041984
0.3899251
-0.8701901
-0.3165993
0.05186461
0.3739576
