0.02048128
0.02447587
0.2877488
0.07447365
0.9558673
-0.004977733
-0.2841596
0.02841049
0.006023556
0.2605019
-0.02756814
0.4352379
-0.6193826
0.6528194
0.04287097
-0.01323569
0.2882908
0.1545449
0.2041691
-0.7217569
0.643038
0.0393738
-0.0235278
0.3084599
0.3102777
-0.02826727
-0.7541477
0.5780917
0.05798198
0.004243821
0.3080567
0.6548783
0.201159
-0.3078743
0.6602144
0.04809872
-0.01541102
0.3007827
-0.9381611
0.04803677
0.3423273
-0.01892584
0.03837242
-0.01168028
0.2883772
-0.8944798
0.1602298
0.292893
0.2973988
0.04243685
0.004512995
0.31751
0.6995068
0.1697183
-0.2095439
0.6617987
0.0345236
-0.0162068
0.3053387
-0.9661734
0.01833525
0.2537088
0.04248382
0.02576461
-0.01073298
0.2894637
-0.9111295
0.09387965
0.228432
0.3299219
0.006766265
0.01227304
0.3273371
0.7075306
0.1280472
-0.03000827
0.6943371
0.00736382
-0.004224181
0.317943
-0.991679
-0.09018928
0.09138814
-0.009322984
0.004349172
-0.001071215
0.3043056
-0.9440387
-0.05649467
0.1034595
0.3080508
0.02348242
0.007924378
0.3232502
0.7156632
0.1221345
-0.13775
0.6737465
0.01850676
-0.01177257
0.3101544
-0.9848289
-0.001533472
0.1714939
0.02644888
0.01254323
-0.006835997
0.2934207
-0.9254894
0.05382538
0.1551661
0.3413149
