-0.1347189
0.1404909
0.2560926
-0.1826248
0.9549061
-0.181015
-0.1484456
-0.1128907
0.1274299
0.2362875
-0.1313634
0.2293852
-0.4320589
0.8622361
-0.1025012
0.1238018
0.27088
0.1421754
0.03054481
-0.4768517
0.8668712
-0.1091955
0.1157711
0.2905764
0.4130888
-0.1833489
-0.4638065
0.7619871
-0.1007811
0.1475381
0.2850027
0.5767617
0.2616944
-0.05358335
0.7720044
-0.0972375
0.1264403
0.2786219
-0.9572189
-0.2115301
0.1730446
-0.09509211
-0.1029826
0.1248229
0.2629092
-0.957349
-0.1675114
0.1897197
0.1393892
-0.114124
0.1411993
0.2915936
0.5782215
0.3116652
0.0512563
0.7522616
-0.1061431
0.1198773
0.2822758
-0.9412919
-0.2857471
0.1655677
-0.07003933
-0.1129271
0.1182788
0.2642527
-0.9326299
-0.2379949
0.2147292
0.1656843
-0.150509
0.1272335
0.2943545
0.5776177
0.2330072
0.2452206
0.7429215
-0.1379845
0.1141407
0.2893281
-0.8915787
-0.4321152
-0.08983314
-0.1014593
-0.1364691
0.115047
0.2748526
-0.8804895
-0.4449097
-0.01541635
0.1629601
-0.1332101
0.1334093
0.2937656
0.5987384
0.2523806
0.1342177
0.7481992
-0.1226105
0.1147225
0.2842692
-0.9391772
-0.3353288
0.03691219
-0.06433059
-0.1247745
0.1146135
0.2654877
-0.9277254
-0.3183123
0.08927632
0.1732992
