-0.02798255
0.0916056
0.166203
0.1337964
0.869767
-0.4159789
-0.2292718
-0.01821542
0.06138664
0.1611134
-0.3333378
0.1196274
-0.6979693
0.622426
-0.003073532
0.07376432
0.1922162
-0.1836184
-0.1291093
-0.6791812
0.6988047
-0.007167989
0.08407143
0.2113438
0.02894095
-0.4258178
-0.5672822
0.7042959
0.007845821
0.0959326
0.1918048
0.3725251
0.03512674
-0.3253581
0.8684086
-0.0007282759
0.07545626
0.1992007
-0.8963476
0.08312681
0.2140161
-0.379273
-0.007230081
0.06761387
0.1865001
-0.98226
0.1247107
0.1200964
-0.07203712
-0.006341236
0.1027168
0.198889
0.3770252
0.08691031
-0.2276232
0.8935806
-0.01163648
0.07908523
0.2050936
-0.920561
0.03626326
0.191117
-0.3387134
-0.01863712
0.06999773
0.189726
-0.9811171
0.07449873
0.1510718
-0.09506109
-0.04205195
0.1126514
0.2015935
0.3483609
0.1499281
-0.04894353
0.9239972
-0.03938529
0.09573978
0.2067883
-0.9186574
-0.116696
0.1239497
-0.3564928
-0.04217027
0.08829063
0.194582
-0.9827346
-0.08645663
0.1323335
-0.09615622
-0.02520387
0.1076373
0.2013798
0.3771278
0.08395183
-0.1418568
0.9113744
-0.02758062
0.08542097
0.2059876
-0.9342782
0.00120513
0.1377492
-0.3288588
-0.03248224
0.07616323
0.190166
-0.9863918
0.02699777
0.1191656
-0.110009
