-0.2424823
0.2055037
0.2692567
-0.4217485
0.8612912
-0.2828377
-0.01756828
-0.2111389
0.2041152
0.2550419
-0.1750495
0.1082046
-0.201434
0.9576397
-0.2058833
0.2067765
0.2910334
0.135493
-0.006751544
-0.2174233
0.9666039
-0.2102708
0.1969388
0.3107881
0.4397671
-0.1244179
-0.2088585
0.8645827
-0.2240089
0.2334732
0.302753
0.3773603
0.3434431
0.2239297
0.8303623
-0.2073902
0.216687
0.3041359
-0.8400564
-0.3985107
0.06869984
-0.3616279
-0.2075403
0.2078877
0.2904827
-0.9130911
-0.3483574
0.2063358
-0.04834794
-0.2339201
0.2197448
0.3087576
0.3944086
0.3554211
0.3221981
0.7837769
-0.2125756
0.2047077
0.3074521
-0.8261084
-0.4837712
0.01245245
-0.2887132
-0.2110059
0.1971573
0.2901768
-0.8750454
-0.4556953
0.16282
-0.01126998
-0.2566277
0.1881955
0.3087226
0.3839807
0.2972732
0.5078063
0.7115619
-0.2378939
0.1829229
0.3102821
-0.7329868
-0.5959512
-0.2006108
-0.2594762
-0.2322531
0.1817978
0.2971019
-0.7723874
-0.6348319
-0.02012862
-0.001048319
-0.2460429
0.2033226
0.3101009
0.4000246
0.3133728
0.4081646
0.7584059
-0.2243596
0.1920497
0.3090865
-0.8025737
-0.5312894
-0.08697619
-0.256987
-0.2200248
0.1876154
0.2916342
-0.8414219
-0.534995
0.07430137
0.01640027
