0.05533336
0.115536
0.4171228
-0.02386193
0.9624257
0.2072015
-0.1738819
0.06796832
0.1097494
0.3896972
0.2276236
0.4165783
-0.5096405
0.7175769
0.07310177
0.07987115
0.4110317
0.4102771
0.2321217
-0.6141089
0.6329791
0.06404316
0.06232092
0.4229091
0.5529186
0.03598962
-0.6651118
0.5006118
0.08939424
0.08866954
0.4361015
0.8054277
0.1929471
-0.1522674
0.5393258
0.08376727
0.07381073
0.4193308
-0.9580672
-0.04896818
0.2194415
0.1776364
0.07660896
0.08179533
0.4064664
-0.8868815
0.008527307
0.2147336
0.4089719
0.07399483
0.08462232
0.4411925
0.8217561
0.1882326
-0.0402264
0.5363461
0.07285839
0.06924558
0.4202253
-0.9645499
-0.1209671
0.1389805
0.1889309
0.06642397
0.0784725
0.404592
-0.8877593
-0.08061679
0.1561277
0.4254512
0.03438435
0.08619708
0.4439803
0.817609
0.04245077
0.1076091
0.5640335
0.03947946
0.07280415
0.4296694
-0.9853848
-0.1234001
-0.09045961
0.07487503
0.04114459
0.07823986
0.4162576
-0.9289611
-0.1416414
-0.0711487
0.3345248
0.05284481
0.08457768
0.4434171
0.8306432
0.09561463
0.0117749
0.5484078
0.05432326
0.06999576
0.4232265
-0.9816881
-0.09786071
0.02636871
0.1612964
0.05236278
0.07873631
0.4067119
-0.9113407
-0.08615711
0.03695566
0.4008361
