0.03094651
0.04034194
0.286025
0.1528267
0.9249319
-0.08314133
-0.3379832
0.04046934
0.0175567
0.2514825
0.2929623
-0.5865249
0.5682476
-0.4972487
0.07404013
0.002745092
0.2617781
-0.2119925
0.4784019
-0.6549023
0.5452465
0.09199615
-0.006586254
0.2741143
-0.1523169
0.3954989
-0.7042481
0.5695742
0.06628435
0.01879132
0.3044329
0.6067462
0.1365122
-0.4134485
0.6650443
0.05274259
3.731251E-05
0.3003821
-0.9324385
0.1155718
0.3363856
-0.06361107
0.04391687
0.003269434
0.2872922
-0.9061982
0.2282042
0.2204165
0.2795428
0.0548463
0.02394688
0.3154006
0.6363432
0.1587693
-0.3097712
0.688405
0.04269729
0.001360327
0.3083161
-0.9382348
0.08815761
0.327873
-0.0666566
0.03193363
0.004460394
0.2934023
-0.9022357
0.1988121
0.2696911
0.2714979
0.02210189
0.0365473
0.3290941
0.6282019
0.12785
-0.1249887
0.7572283
0.0194106
0.0180485
0.3239843
-0.9724262
0.0009556353
0.1877986
-0.1382686
0.01422241
0.01854187
0.3109574
-0.9515591
0.07257488
0.1817951
0.2371049
0.03769586
0.03045979
0.3233397
0.6420239
0.1211173
-0.233221
0.7202388
0.02892683
0.008610427
0.3153028
-0.9635106
0.06412306
0.2461617
-0.08330682
0.02079325
0.01068881
0.2991477
-0.9295961
0.1484724
0.2009248
0.2709915
