-0.2798021
0.05792183
0.3397616
-0.4385912
0.8921919
-0.1078458
0.0008212916
-0.2465474
0.07451457
0.3165075
-0.3539918
0.2538246
-0.1575112
0.8862579
-0.2251601
0.09419334
0.3415583
-0.3008437
0.2458957
-0.1729069
0.9050589
-0.212081
0.1057245
0.3574817
-0.3501049
0.2532608
-0.1586659
0.887756
-0.2569037
0.07377115
0.3786515
0.5126811
0.3386224
0.2595406
0.7450715
-0.2410934
0.05941868
0.372685
-0.876095
-0.466297
0.03655624
-0.1169974
-0.2430872
0.05768085
0.3564002
-0.8711316
-0.4362744
0.1534786
0.1650415
-0.2659102
0.05958241
0.3814151
0.5047833
0.3554222
0.3596101
0.6996782
-0.245315
0.04746616
0.3738155
-0.8415023
-0.5300055
-0.008552372
-0.104379
-0.2463458
0.0461508
0.3549491
-0.8331462
-0.5089796
0.1405595
0.1644699
-0.2891889
0.0290677
0.3729481
0.5075347
0.2770673
0.5245477
0.6248935
-0.270627
0.02392754
0.3704166
-0.7872308
-0.5671894
-0.2110379
-0.1184349
-0.2674409
0.02600053
0.3566764
-0.7797982
-0.6059994
-0.01489175
0.1563902
-0.278025
0.04321742
0.3779667
0.5253484
0.3090703
0.429158
0.6665644
-0.2570383
0.03361383
0.3709153
-0.833977
-0.535035
-0.09604882
-0.09483957
-0.2557465
0.03434476
0.3524937
-0.8200732
-0.5386876
0.07123329
0.1795031
