-0.03415076
0.06227884
0.3187802
-0.0528223
0.9746969
-0.0444709
-0.2125987
-0.01047842
0.05387223
0.2842936
-0.3140808
0.5065987
-0.4213508
0.6835017
0.02672556
0.05472386
0.293777
-0.3532528
0.5325812
-0.391153
0.6622456
0.05007992
0.05657256
0.2966641
-0.4142412
0.5707601
-0.339072
0.6226295
0.00874426
0.0734483
0.3599946
-0.0573305
0.1915999
0.04988708
0.9785265
0.02081717
0.07450804
0.3866566
0.07590535
0.2460162
0.01997632
0.9660825
0.02890164
0.07074299
0.4000418
0.2137854
0.2880775
-0.01250728
0.9333546
-0.008602861
0.05514777
0.364216
0.4296753
0.2171723
0.006917924
0.8764517
-0.002246215
0.02950752
0.3669391
-0.9082315
-0.1486558
0.1493154
-0.361555
-0.007040741
0.02032256
0.3518268
-0.9757308
-0.07584781
0.2049553
0.01378344
-0.05658761
0.05726761
0.3706827
0.1006689
-0.06478497
0.2134801
0.9695849
-0.05665524
0.04864436
0.3926337
0.3277395
-0.0009812703
0.2238874
0.9178563
-0.05334789
0.03843421
0.4012556
0.5731132
0.06800348
0.2169383
0.7873085
-0.03058793
0.05227408
0.3672844
0.4356119
0.1475772
0.06924003
0.8852509
-0.02405803
0.02796224
0.3700428
-0.9143235
-0.1341731
0.05684581
-0.3778608
-0.02561406
0.0187619
0.3546234
-0.988342
-0.09678113
0.1174442
-0.004536554
