-0.08292612
0.09126154
0.2872801
0.04488755
0.9511061
-0.2033921
-0.2280658
-0.07458206
0.06851882
0.2727414
-0.1146692
0.1489482
-0.6222848
0.7598862
-0.06695291
0.06748211
0.3097176
0.03688939
-0.005372597
-0.6369736
0.7699838
-0.07232428
0.06600904
0.3321733
0.2170312
-0.1908102
-0.6147375
0.7338848
-0.03778506
0.09709346
0.3232919
0.1509186
0.2351259
-0.165792
0.9457549
-0.02777227
0.08257353
0.3474215
0.3337326
0.1951787
-0.2092768
0.8981822
-0.02503175
0.0702655
0.3583187
0.4424986
0.1654795
-0.2327405
0.8500844
-0.0620057
0.08734542
0.3226995
0.5687508
0.1527378
-0.1586674
0.7924762
-0.06554368
0.06149951
0.3182337
-0.9626313
-0.03129722
0.1992541
-0.1807186
-0.07286821
0.05799985
0.300824
-0.9780592
0.02196851
0.1861415
0.09093424
-0.1015348
0.09975466
0.3362494
0.2187872
0.02166451
0.1146007
0.9687774
-0.09933051
0.08649501
0.3558021
0.4369481
0.001981684
0.09646728
0.8942967
-0.09811229
0.07490745
0.363954
0.4979166
-0.004327948
0.08982505
0.8625495
-0.08079109
0.08913043
0.3262719
0.5736983
0.1431816
-0.07805115
0.8026689
-0.08123578
0.06504059
0.320954
-0.9711977
-0.06371044
0.1450171
-0.1780058
-0.08657606
0.06118706
0.3031153
-0.98599
-0.02712085
0.1503146
0.0670364
