-0.05602731
0.2417515
0.1948792
0.04816558
0.9752672
-0.08527216
-0.1981484
-0.04946235
0.2215208
0.1756699
0.0450398
0.167676
-0.629956
0.7569754
-0.04865059
0.2108803
0.2117721
0.1837148
0.0008018433
-0.6524793
0.7352
-0.05839666
0.2051644
0.2316535
0.353522
-0.2200288
-0.6338392
0.6518109
-0.01176301
0.2394279
0.2347587
0.1964991
0.2597854
-0.1329227
0.9360722
-0.0009259426
0.2231889
0.2568876
0.3674056
0.2054459
-0.1849391
0.8880331
0.001643119
0.2101766
0.2663335
0.5081878
0.1522059
-0.2248123
0.817336
-0.03686836
0.2295421
0.2327865
0.6119475
0.1420421
-0.1232454
0.7682154
-0.04011818
0.2048464
0.225546
-0.9751173
-0.01642833
0.1863063
-0.1190221
-0.04726478
0.202922
0.2074894
-0.9785113
0.02293491
0.1849859
0.08814662
-0.07750881
0.2413486
0.2443724
0.2659499
0.0001081798
0.1088182
0.9578253
-0.07576379
0.226111
0.2628582
0.470894
0.0006227496
0.09970278
0.8765375
-0.07435052
0.2137631
0.2702622
0.5274509
0.0001118104
0.09570706
0.8441775
-0.05713971
0.2314351
0.234844
0.6245309
0.09530579
-0.04840824
0.7736502
-0.05794752
0.2083814
0.2267422
-0.9872379
-0.02900779
0.1054447
-0.1157646
-0.06202693
0.2065385
0.2080598
-0.9897398
-0.006484514
0.1112056
0.08947919
