-0.0783589
-0.0235711
0.2613335
-0.2212372
0.9634803
-0.06175166
-0.1376465
-0.05529854
-0.03143355
0.2386931
-0.05393301
0.3167325
-0.3858939
0.8647876
-0.04144694
-0.04342505
0.2700381
0.2428184
0.1481664
-0.470825
0.8351107
-0.04545476
-0.05751738
0.2873914
0.4905532
-0.02423431
-0.4972875
0.7151752
-0.04368445
-0.02199697
0.291084
0.6409466
0.2688744
-0.01016222
0.7188816
-0.03933995
-0.04190394
0.2811362
-0.9599561
-0.2332691
0.1515318
-0.03328592
-0.04502442
-0.04109094
0.265566
-0.9355037
-0.183063
0.1834798
0.2401166
-0.05678796
-0.0308885
0.2965674
0.6476266
0.2969574
0.09778349
0.694863
-0.04824293
-0.04984632
0.2835224
-0.9449602
-0.301514
0.1255516
0.01940124
-0.05480517
-0.04745784
0.2658058
-0.901297
-0.2522603
0.1916528
0.2954622
-0.09209403
-0.04605085
0.2968004
0.6396171
0.2254936
0.2814962
0.6788243
-0.07934585
-0.057502
0.2893329
-0.8970185
-0.4279638
-0.1099079
-0.01118231
-0.07881473
-0.05385591
0.2754157
-0.8529004
-0.4412482
-0.01618378
0.2785662
-0.07525008
-0.03952554
0.2973937
0.6634393
0.2414666
0.1732749
0.6866718
-0.06432581
-0.05587097
0.2847139
-0.9412609
-0.3366015
0.0118887
0.02421203
-0.06707153
-0.05217567
0.2666778
-0.8946096
-0.3182449
0.08341666
0.3023832
