-0.08155491
0.08735621
0.2870937
-0.004875572
0.9539381
-0.1638049
-0.2512895
-0.060836
0.06689185
0.2562431
-0.3428484
0.4724547
-0.5194713
0.6240122
-0.02434516
0.06448042
0.2682348
-0.3475107
0.478083
-0.5158311
0.6201542
-0.001486292
0.06307316
0.2740809
-0.3884554
0.5271266
-0.4808962
0.5830771
-0.03828312
0.08660901
0.3182754
0.3631268
0.2262634
-0.1827032
0.8851912
-0.03737215
0.0628812
0.3269307
-0.8192789
-0.06782952
0.2835177
-0.4937601
-0.04512738
0.05239409
0.3182356
-0.9483336
0.05613859
0.2899724
-0.1158787
-0.0547547
0.08457881
0.3263456
0.4600175
0.231278
-0.09991817
0.8514169
-0.05281738
0.05881539
0.3271214
-0.9243488
-0.105966
0.2274998
-0.2873924
-0.06063532
0.05208516
0.3118702
-0.9668819
-0.01753372
0.244936
0.06955858
-0.09415648
0.08414721
0.331778
0.4988534
0.1899603
0.07328929
0.8424305
-0.08844457
0.06567249
0.3315217
-0.9381385
-0.1591161
0.09177261
-0.2935235
-0.09111175
0.06083393
0.3185086
-0.979714
-0.1115595
0.159075
0.04909309
-0.07508603
0.08393335
0.3300158
0.496168
0.203145
-0.0325924
0.843497
-0.07214466
0.06011435
0.3282797
-0.9463014
-0.1141138
0.1703926
-0.2499163
-0.07816148
0.0545066
0.3119592
-0.9746881
-0.04946101
0.2024369
0.08096957
