-0.08440644
0.08930966
0.2795317
-0.03331179
0.9523629
-0.1708697
-0.2503973
-0.06361444
0.0739947
0.2479895
-0.4299562
0.4182302
-0.4577641
0.656257
-0.02724553
0.08165938
0.2576302
-0.462927
0.4267918
-0.4340394
0.644327
-0.00475667
0.08776802
0.2611609
-0.5331309
0.4429539
-0.378386
0.6135042
-0.0395961
0.1021706
0.3133543
0.08581588
0.2147502
-0.05959668
0.9710645
-0.02847339
0.09272379
0.3373832
0.2897524
0.2217074
-0.1012897
0.925543
-0.02281891
0.08415526
0.3489959
0.2436441
0.2299598
-0.08902381
0.937993
-0.0584081
0.08707917
0.3187141
0.4771607
0.229497
-0.08176401
0.8443716
-0.05663154
0.06177962
0.3183044
-0.936218
-0.0882764
0.2289363
-0.2515776
-0.06491403
0.05536729
0.3024026
-0.9674917
-0.01701401
0.250783
0.02789654
-0.1022774
0.09439373
0.3319968
0.116312
0.01993142
0.2010484
0.9724474
-0.09890514
0.086218
0.353992
0.3155042
0.06354246
0.1927781
0.9269607
-0.09491908
0.07677299
0.3635091
0.4994784
0.09673511
0.1740319
0.843135
-0.07808397
0.08673257
0.3240498
0.4664797
0.2003261
0.000338092
0.8615487
-0.0735718
0.06309199
0.3237625
-0.9387922
-0.1332521
0.1460276
-0.2821153
-0.07856342
0.05623239
0.3074959
-0.9783878
-0.07569211
0.1872105
0.04449921
