-0.1117105
0.0915103
0.3036905
0.2595032
0.9166822
-0.2374184
-0.1896951
-0.1105039
0.06248805
0.2937612
-0.09082873
0.1221018
-0.7872949
0.5975016
-0.102476
0.06114888
0.3313169
-0.04625678
0.01179467
-0.7928624
0.6075283
-0.1033193
0.063719
0.3546265
0.03267837
-0.1799223
-0.7755301
0.604246
-0.07068728
0.08677426
0.3453403
0.1390432
0.1589806
-0.3590606
0.9091027
-0.07196388
0.06980819
0.3647443
0.6580565
0.02600968
-0.3698222
0.6553752
-0.08048631
0.05672598
0.3626927
-0.887606
0.07488405
0.301956
-0.3396625
-0.09385446
0.089082
0.3456913
0.438857
0.0451181
-0.2824016
0.8518323
-0.1046343
0.0672887
0.3490967
-0.9175737
0.203042
0.2353758
-0.2478524
-0.1136454
0.06378633
0.3327711
-0.9465767
0.2682993
0.1723873
0.04786336
-0.1289419
0.1062785
0.342163
0.4424307
0.03113368
-0.1051467
0.8900731
-0.1321208
0.08877403
0.3446873
-0.9475883
0.1062036
0.1186343
-0.2769894
-0.1358524
0.08484936
0.331306
-0.9836816
0.1442799
0.1019168
0.03415818
-0.1125821
0.09776723
0.3442229
0.4680532
0.01395474
-0.2058621
0.8592743
-0.1213188
0.0765751
0.3449714
-0.939881
0.1909489
0.1729677
-0.2241526
-0.1281405
0.07304126
0.3277935
-0.9615593
0.2357166
0.1325656
0.04762237
