-0.3234757
0.0359363
0.2930452
-0.5444565
0.8132736
-0.2041545
-0.02177587
-0.2936051
0.05494893
0.2668503
-0.456184
0.1875902
-0.07637975
0.8665289
-0.2786779
0.0828898
0.2883353
-0.3940061
0.1742027
-0.08559989
0.8983793
-0.2696635
0.09910756
0.3028761
-0.4139433
0.1785368
-0.08272016
0.8887818
-0.3069319
0.06440651
0.3276928
0.3847333
0.4175149
0.3207203
0.7581558
-0.2875594
0.05314711
0.3249368
-0.7978568
-0.5502157
0.05897312
-0.2391848
-0.2882637
0.04730219
0.3096954
-0.8328271
-0.5029902
0.2252809
0.05146386
-0.3125208
0.0496341
0.3331163
0.3764178
0.4510178
0.4092788
0.6981286
-0.2889182
0.04141364
0.3280645
-0.7569242
-0.6166244
0.03093707
-0.2142036
-0.2888304
0.03543723
0.3102161
-0.785434
-0.5733893
0.2276126
0.05010727
-0.3267482
0.01336235
0.3312785
0.391495
0.4024458
0.5679821
0.6018018
-0.3077413
0.01266724
0.3291522
-0.6986799
-0.6813814
-0.1365421
-0.170065
-0.3052413
0.01199123
0.3150105
-0.7164315
-0.6890213
0.08987062
0.06244132
-0.3198854
0.0305104
0.3331725
0.4035979
0.4200614
0.4777753
0.6575621
-0.2968802
0.0251427
0.3278337
-0.7478164
-0.6377203
-0.04398749
-0.1793005
-0.2952391
0.02180433
0.3096515
-0.7662575
-0.6197622
0.1564886
0.06523513
