-0.05766341
0.09619305
0.2506013
-0.1557734
0.9682567
0.02911644
-0.193303
-0.04134291
0.08649087
0.2245526
0.06304233
0.3792734
-0.4461294
0.8081746
-0.02761439
0.0662882
0.2526294
0.2651237
0.2215194
-0.5333719
0.7721095
-0.03045403
0.05076784
0.2693962
0.4481778
0.04644617
-0.5809107
0.6778808
-0.01800752
0.08860713
0.2753844
0.6777259
0.3152349
-0.0803325
0.6594402
-0.0168165
0.06849581
0.2631952
-0.9481027
-0.2132855
0.2355009
-0.01224598
-0.02507223
0.06962496
0.2490322
-0.916339
-0.1364202
0.2655067
0.266868
-0.03263169
0.08050275
0.2822995
0.6982745
0.2869947
0.02602217
0.6552631
-0.02769403
0.0607639
0.2668183
-0.9552184
-0.2499054
0.1535918
0.03892101
-0.03502407
0.06401518
0.2496667
-0.9057791
-0.1941391
0.2024317
0.3176408
-0.07083221
0.07112497
0.2850991
0.7140031
0.1817788
0.1958772
0.6471385
-0.06077739
0.05673167
0.2749303
-0.9490744
-0.2998976
-0.08045033
-0.05335712
-0.06003004
0.05916491
0.2609417
-0.9137801
-0.3112551
-0.007075829
0.2609141
-0.05271301
0.0747714
0.2843798
0.7236595
0.2154815
0.09108469
0.6492984
-0.04550396
0.05678195
0.2688992
-0.9661113
-0.253868
0.04084042
0.02262897
-0.04879341
0.06079334
0.2513251
-0.9088388
-0.2268252
0.09600464
0.3366683
