-0.137072
0.1532331
0.2866212
-0.239351
0.9610597
-0.08753028
-0.1068356
-0.1049992
0.1557269
0.2584197
-0.3469489
0.3663733
-0.3108966
0.8054443
-0.07363049
0.1687424
0.2768948
-0.3601129
0.375498
-0.3057337
0.7974001
-0.053616
0.1775697
0.2861454
-0.4371669
0.427797
-0.2721493
0.7428389
-0.1037632
0.1574456
0.3192477
0.5982867
0.2763388
0.03167059
0.7514565
-0.09750587
0.137871
0.3112434
-0.954029
-0.2560462
0.1445277
-0.05814504
-0.1029958
0.1380365
0.295714
-0.930163
-0.201679
0.1918183
0.2394334
-0.1171679
0.1484258
0.3244232
0.6029763
0.2947335
0.139349
0.7281027
-0.1057826
0.1283803
0.3138639
-0.9378098
-0.3265221
0.09616749
-0.06817501
-0.1107474
0.1282474
0.2957987
-0.907953
-0.2765566
0.1870055
0.2533118
-0.1521008
0.1309052
0.3224225
0.6031474
0.2060505
0.3200923
0.7009261
-0.138546
0.1179283
0.3169563
-0.91549
-0.3691632
-0.1040398
-0.1215416
-0.137227
0.1186572
0.3028177
-0.9022986
-0.3827612
0.02589869
0.1966731
-0.1354497
0.1388748
0.323932
0.625489
0.2425381
0.2122011
0.7105699
-0.1225172
0.1212778
0.3133056
-0.9388502
-0.3389001
0.003995911
-0.06075371
-0.124503
0.1225229
0.2951273
-0.9031554
-0.3178681
0.1083282
0.2674609
