-0.1195904
0.01614979
0.3346989
-0.08055959
0.978523
-0.003553161
-0.1897113
-0.09362608
0.009584427
0.3014909
-0.2345068
0.5125704
-0.4118903
0.715978
-0.05985361
0.004107237
0.3186209
-0.1370288
0.4483824
-0.4765823
0.7436704
-0.04171366
-0.001818836
0.3327571
-0.07867588
0.4068608
-0.5104108
0.7534954
-0.08371326
0.00448063
0.3603658
0.6920349
0.1982915
-0.1452356
0.6787304
-0.08662224
-0.01533106
0.3492807
-0.9771548
-0.08682324
0.1931852
0.01760243
-0.0930346
-0.01181197
0.3344132
-0.9320315
-0.02415602
0.1807232
0.3131661
-0.09802814
0.0008802414
0.367525
0.7009079
0.223094
-0.03204988
0.6767053
-0.09683401
-0.02119291
0.3533984
-0.9743088
-0.1398377
0.1765162
-0.003124316
-0.1042493
-0.01802933
0.3365393
-0.9148295
-0.06980355
0.213406
0.3356671
-0.1355991
-0.004132211
0.3707097
0.6937872
0.1517795
0.1493116
0.6879886
-0.1288528
-0.01969385
0.3615798
-0.9798797
-0.1958576
0.01065687
-0.03690592
-0.1306215
-0.01708952
0.3477453
-0.9300137
-0.1791023
0.09139538
0.3076425
-0.1179631
-0.002147317
0.3696954
0.716799
0.1693516
0.03979377
0.6752301
-0.1144007
-0.02183932
0.355369
-0.9847572
-0.1483305
0.09016886
0.01099084
-0.1188744
-0.01789021
0.337979
-0.922527
-0.1089452
0.1360198
0.3443452
