-0.1077496
0.02616143
0.07528237
-0.03302934
0.9158633
-0.2471013
-0.3147133
-0.09013194
0.005612046
0.04496926
-0.4953072
0.4353426
-0.4698507
0.5868458
-0.05315402
0.01010588
0.05329219
-0.3965588
0.4135065
-0.5449625
0.612184
-0.03083684
0.0111222
0.06114683
-0.4135973
0.4176545
-0.5329799
0.6086333
-0.06682885
0.0264191
0.09257364
0.509429
0.2603935
-0.2872831
0.7682094
-0.07121829
0.004124254
0.09121245
-0.9293439
-0.07089505
0.326647
-0.1568302
-0.08072875
0.002822995
0.0783353
-0.9392273
0.04589503
0.2726119
0.2035399
-0.07889672
0.02721763
0.1038399
0.5239546
0.3051018
-0.1818914
0.7741448
-0.080415
0.002451122
0.10003
-0.9263925
-0.09727863
0.3334374
-0.1454419
-0.09219337
0.0006216466
0.08572634
-0.9206954
0.02743476
0.3347117
0.1988349
-0.1139105
0.02716804
0.1186714
0.5075858
0.2834086
0.02293824
0.8133327
-0.1082546
0.009564042
0.1164023
-0.9345548
-0.2169808
0.1842158
-0.2135211
-0.1136778
0.006655693
0.1038148
-0.9458361
-0.1310631
0.2522865
0.1567421
-0.09711441
0.02707589
0.1121795
0.5346196
0.2747443
-0.09505681
0.7935122
-0.09585695
0.003857136
0.1074016
-0.9438781
-0.135304
0.2548959
-0.1606713
-0.1049901
0.00161919
0.09194741
-0.9361028
-0.02938607
0.2788896
0.2122938
