0.03098973
0.05011442
0.1969754
0.4552261
0.7515237
-0.3729173
-0.2981848
0.02088622
0.01628256
0.1959686
0.292905
-0.2275027
0.8852729
-0.2806087
0.04058097
0.01417571
0.2269574
0.188842
0.04534739
0.9150252
-0.3535692
0.04395436
0.02265477
0.2475112
0.05279199
0.343841
0.8495225
-0.396608
0.06222067
0.03478479
0.2280023
0.2979718
-0.09090898
-0.5996132
0.7371651
0.04332236
0.02670008
0.2378118
-0.7468675
0.469503
0.352062
-0.3127432
0.03272226
0.0259853
0.2257958
-0.8143089
0.5633874
0.1389092
-0.01414129
0.05544348
0.05053705
0.2322431
0.3009057
-0.05059149
-0.513679
0.8018916
0.03683273
0.03753221
0.2424526
-0.794413
0.4064394
0.3115777
-0.3265492
0.02493458
0.03465462
0.2283289
-0.8590953
0.4884985
0.1493932
-0.03172038
0.03303932
0.08090669
0.2286268
0.2756409
0.01727165
-0.3591304
0.8914871
0.02443716
0.06763136
0.2378747
-0.8308676
0.2558997
0.263593
-0.417963
0.01669812
0.06258065
0.2274678
-0.927029
0.3413154
0.145382
-0.05463578
0.04389054
0.06679603
0.2312602
0.2900918
-0.04681342
-0.4410096
0.8480365
0.02819275
0.05266005
0.240357
-0.8189421
0.3667665
0.264148
-0.3536128
0.01756307
0.04786766
0.2261854
-0.8892679
0.4365968
0.1265882
-0.05061062
