-0.005649623
0.1070686
0.355927
-0.1595245
0.9722189
0.1304846
-0.1109786
0.0150179
0.1022202
0.3299069
0.1786906
0.386693
-0.4076061
0.80771
0.02768615
0.07591087
0.3540083
0.341635
0.2869154
-0.4809666
0.7547425
0.02675004
0.05658841
0.3671467
0.4975953
0.167213
-0.5352131
0.6618049
0.03074713
0.09140795
0.3865444
0.7036902
0.2361501
0.004226399
0.670101
0.03600481
0.06918639
0.3741406
-0.9565672
-0.2348344
0.08959934
-0.1476614
0.03312229
0.06677908
0.3581715
-0.9621125
-0.2048205
0.1252848
0.1291971
0.01480204
0.08335325
0.3918298
0.6917962
0.1944704
0.1159215
0.6856833
0.02568011
0.05812505
0.379551
-0.9452045
-0.2344736
-0.007082243
-0.2270693
0.02669791
0.05246961
0.3615258
-0.9721032
-0.230611
0.04273378
-0.002816064
-0.02379021
0.07494953
0.3845692
0.7197961
0.08766951
0.2626281
0.63658
-0.01114356
0.0579688
0.3766733
-0.9180928
-0.2298494
-0.227984
-0.2286878
-0.003839759
0.05478054
0.3641939
-0.937905
-0.2634818
-0.206283
-0.09142748
-0.005531735
0.07800746
0.3900605
0.6997583
0.1290143
0.1747808
0.6805478
0.006721808
0.0550054
0.3785137
-0.9457183
-0.2219754
-0.1038593
-0.2134407
0.00962418
0.05393156
0.3616107
-0.9269525
-0.2504566
-0.01015389
0.2791549
