-0.09233768
0.07151359
0.2042142
-0.1193531
0.9446831
-0.1937611
-0.2361893
-0.07399234
0.05311549
0.1824175
-0.2066725
0.3165008
-0.4961427
0.7816369
-0.05627161
0.05009988
0.2139153
0.05494728
0.1038583
-0.5671508
0.8151898
-0.05913077
0.04418826
0.2352872
0.317441
-0.1281085
-0.5691803
0.7475649
-0.05383358
0.07582122
0.227598
0.5461466
0.2671683
-0.1606647
0.7775165
-0.05411315
0.05352056
0.2235596
-0.9460351
-0.1351194
0.2591099
-0.1400805
-0.0622357
0.0509938
0.2092792
-0.9562675
-0.06500385
0.2577778
0.1219742
-0.0673642
0.07150584
0.2371515
0.565053
0.2954294
-0.05506622
0.7683777
-0.06383651
0.04810321
0.229683
-0.9483595
-0.2011977
0.2238476
-0.10013
-0.07232364
0.04581785
0.2125868
-0.9465299
-0.1395344
0.2507449
0.1474393
-0.104127
0.06366369
0.245609
0.5758426
0.2425941
0.1382263
0.7684054
-0.09492111
0.04790592
0.2405261
-0.9320362
-0.3354454
0.01843932
-0.1358126
-0.09594411
0.04694128
0.226138
-0.9311792
-0.3201113
0.08222428
0.1538615
-0.08664088
0.06696886
0.2423449
0.5877452
0.2470093
0.02703103
0.7699425
-0.08042957
0.04557353
0.234002
-0.9567159
-0.2459827
0.1154975
-0.104152
-0.08496234
0.04396093
0.2159238
-0.9519403
-0.2082472
0.1522257
0.1651368
