-0.0978768
0.07269821
0.2780428
-0.1088905
0.9786381
0.0176156
-0.1734941
-0.0714286
0.07002896
0.244804
-0.2425288
0.4953554
-0.3751737
0.7450152
-0.03660753
0.06737509
0.2604623
-0.1777829
0.5023133
-0.4163113
0.7367222
-0.01546298
0.06445235
0.2704557
-0.2197703
0.4981581
-0.3899977
0.742591
-0.06081889
0.06221831
0.3049561
0.6854644
0.2446298
-0.1036621
0.6779005
-0.06147661
0.04269928
0.29353
-0.9687693
-0.1433188
0.2005014
0.02729554
-0.06849167
0.04617476
0.2790901
-0.9168842
-0.07242671
0.2068488
0.3336035
-0.07529529
0.05676121
0.3116218
0.6903343
0.2552263
0.01006206
0.6769025
-0.07182309
0.0363265
0.2974375
-0.9660818
-0.19264
0.1683234
0.03525676
-0.07945286
0.0401803
0.2806665
-0.9035256
-0.1274868
0.2158499
0.3475592
-0.1135677
0.04987234
0.3139632
0.6703352
0.1621706
0.1905258
0.6986068
-0.1052007
0.03474844
0.3058091
-0.9702051
-0.2364126
-0.01545801
-0.05071758
-0.1064554
0.03711835
0.2919667
-0.9222758
-0.2253551
0.08067361
0.3035035
-0.09548308
0.05261487
0.3133889
0.703041
0.1923872
0.08031648
0.6799042
-0.08997576
0.03404492
0.2995209
-0.9773665
-0.1931483
0.08050932
0.03109245
-0.09457545
0.03852957
0.2823607
-0.9068273
-0.1535234
0.1411058
0.3663113
