-0.08123957
0.1064317
0.3200441
-0.288022
0.9448208
-0.05738674
-0.145134
-0.0588447
0.1011025
0.2966186
-0.04160925
0.3182818
-0.3318565
0.8870381
-0.04461944
0.0892933
0.3277763
0.2519837
0.1461027
-0.4190086
0.8599942
-0.04781044
0.07484871
0.3450735
0.4827377
-0.01892719
-0.4527052
0.7494425
-0.04666322
0.1113689
0.3477238
0.6538885
0.3224627
0.016397
0.684236
-0.03998511
0.09248281
0.3357223
-0.9359244
-0.327811
0.1273299
-0.01930511
-0.04536115
0.09392759
0.3204629
-0.8958747
-0.268168
0.1732066
0.3090212
-0.05855665
0.1007601
0.353294
0.6622792
0.3402024
0.1229865
0.6561424
-0.04728231
0.08259958
0.3380035
-0.9188756
-0.3844442
0.08869879
0.001663971
-0.05280328
0.08456302
0.3201297
-0.8730685
-0.3357457
0.1717186
0.309094
-0.09141113
0.08113894
0.3534632
0.6842156
0.2561176
0.2972643
0.6147249
-0.0770566
0.07110357
0.3438246
-0.8702175
-0.4660398
-0.1596144
-0.007198249
-0.07549088
0.0755533
0.3302197
-0.8211305
-0.4918822
-0.06904934
0.2811206
-0.07578299
0.09000492
0.3542445
0.6866999
0.2823921
0.1961605
0.6404835
-0.06196633
0.07459933
0.3394712
-0.9116423
-0.4091984
-0.03804691
-0.004168707
-0.06319644
0.07816327
0.321521
-0.8614026
-0.3993768
0.04665795
0.3103333
