-0.01756186
0.1046481
0.2861764
0.06623281
0.9606352
-0.1623474
-0.2154915
-0.009616085
0.08173227
0.270172
-0.06770965
0.1701588
-0.6415854
0.7448689
-0.003055444
0.07736811
0.3071215
0.0669115
0.004697195
-0.6601265
0.7481536
-0.008712846
0.07512087
0.3295504
0.2138528
-0.1806287
-0.6449465
0.7111149
0.02543709
0.1048921
0.3236909
0.2239997
0.2041659
-0.1862222
0.9345918
0.03208945
0.08698273
0.3462837
0.4038616
0.15059
-0.226189
0.8735313
0.03247899
0.07348186
0.3555579
0.5196177
0.1092139
-0.2488373
0.8100308
0.001248723
0.09692931
0.3220262
0.6065602
0.1183118
-0.1621961
0.769272
-0.003472744
0.07120728
0.3155344
-0.9722428
-0.01196046
0.1731805
-0.1568745
-0.009830218
0.06872973
0.2975453
-0.9808714
0.03324484
0.1526632
0.1161041
-0.03800128
0.1105101
0.3352507
0.2460971
-0.0131892
0.095861
0.964403
-0.0374201
0.09747159
0.3560586
0.3307033
-0.01847553
0.0931345
0.9389462
-0.03701043
0.08732486
0.366341
0.4484008
-0.02727637
0.08740368
0.8891307
-0.01761034
0.09947222
0.3244244
0.619722
0.1064293
-0.08385465
0.7730368
-0.0189564
0.07523322
0.3168055
-0.9803429
-0.05092276
0.1109679
-0.1549868
-0.023006
0.07253402
0.2984469
-0.9884645
-0.02257877
0.1068446
0.1049398
