-0.1189795
-0.01351121
0.2695782
-0.2122564
0.9638224
0.08586632
-0.1364577
-0.0906003
-0.003366828
0.2385641
-0.2498956
0.4792556
-0.2501393
0.8033036
-0.05591854
0.003306687
0.2541837
-0.2653263
0.4855492
-0.2410283
0.7973389
-0.03442134
0.009771556
0.2610454
-0.405241
0.5355856
-0.150714
0.7254055
-0.08184829
-0.02234784
0.2981108
0.7067054
0.2674025
0.006202088
0.655
-0.07833279
-0.03974792
0.2848031
-0.9596559
-0.2239139
0.1509497
0.07834016
-0.08475907
-0.03506321
0.2705218
-0.8875949
-0.1620052
0.1917704
0.3862044
-0.09544862
-0.03167999
0.302734
0.7082164
0.2694095
0.1195282
0.6415302
-0.08766417
-0.04831058
0.2869865
-0.9474725
-0.2795483
0.1097758
0.1099908
-0.09464309
-0.04208493
0.2707921
-0.8537869
-0.2243303
0.1909034
0.4292781
-0.1322269
-0.04505903
0.3009174
0.688918
0.1597237
0.2913213
0.6442144
-0.1206959
-0.05732425
0.2921022
-0.9440792
-0.3146482
-0.09808128
0.009544563
-0.1209722
-0.05276453
0.2789751
-0.8645487
-0.3278903
0.0356195
0.3791763
-0.1146361
-0.03948089
0.3020328
0.7248907
0.2055044
0.1828855
0.6315491
-0.1053477
-0.05373999
0.2868957
-0.950651
-0.2826715
0.02139735
0.1261013
-0.1095742
-0.04613754
0.2707937
-0.8463836
-0.2563718
0.1123448
0.4530861
