-0.0153889
0.08307952
0.3086035
0.01909686
0.9683378
-0.08680582
-0.2332852
0.001611453
0.06356093
0.2820268
-0.1497859
0.4226635
-0.5714133
0.6873184
0.02059605
0.05110466
0.3100787
0.1037432
0.1782759
-0.6842006
0.6995174
0.01790179
0.04243982
0.3308584
0.3201607
-0.06287681
-0.7058719
0.6287197
0.02008559
0.07127237
0.333602
0.6377517
0.1410831
-0.248889
0.7151381
0.01359031
0.05003321
0.3263421
-0.977722
-0.02675985
0.1946899
-0.07375294
0.007993588
0.05134231
0.3111295
-0.9568384
0.03489671
0.1303791
0.2573787
0.00589115
0.0708788
0.3420822
0.6550249
0.1767246
-0.1402065
0.721147
0.002590596
0.04738551
0.3317589
-0.9780563
-0.06180397
0.1929719
-0.04845672
-0.004535557
0.04932219
0.3144971
-0.9434603
0.004143706
0.1809796
0.2776904
-0.0312786
0.07382756
0.3487283
0.6408493
0.1333202
0.04849816
0.7544441
-0.02739845
0.05646878
0.342236
-0.9831566
-0.1522361
0.03841259
-0.09355152
-0.02902075
0.05718848
0.3279551
-0.9634529
-0.1337773
0.07113327
0.2209122
-0.01364757
0.07197079
0.3465549
0.6569903
0.1324454
-0.060345
0.7397165
-0.01391999
0.04980022
0.336311
-0.9881307
-0.08055443
0.1110236
-0.06915633
-0.01815969
0.05102548
0.3184386
-0.9585971
-0.04120421
0.1140233
0.2576676
