-0.006774199
0.06707826
0.3177902
0.02262504
0.9677375
-0.08715025
-0.2353236
0.009321846
0.04686362
0.2922832
-0.1246515
0.4044273
-0.5820934
0.6943111
0.02690094
0.03387195
0.3213775
0.113466
0.170837
-0.6838233
0.7002327
0.02403683
0.02507412
0.3422947
0.312211
-0.0525596
-0.7047263
0.6349193
0.0287016
0.05502635
0.3425649
0.6398022
0.1434696
-0.2511965
0.7120184
0.02187423
0.03357905
0.3353468
-0.9740813
-0.01874538
0.2091261
-0.08414561
0.01586168
0.0347555
0.320384
-0.9530717
0.05018095
0.1451578
0.2608938
0.01444596
0.05487505
0.3509249
0.6596419
0.1760489
-0.1432731
0.716486
0.01107056
0.03086662
0.340373
-0.9771879
-0.067523
0.19078
-0.0644016
0.004085422
0.0324173
0.323147
-0.9430062
0.001565367
0.1767729
0.281937
-0.0226348
0.0576095
0.3573042
0.655531
0.1321289
0.0432023
0.7422633
-0.01868293
0.0400089
0.3502147
-0.9814137
-0.1605971
0.02692717
-0.1015419
-0.01990863
0.04060966
0.3359128
-0.963199
-0.1458595
0.05561019
0.218816
-0.005132013
0.05596817
0.3551435
0.6677707
0.1313195
-0.06468464
0.729831
-0.005402101
0.03317827
0.3443746
-0.9866762
-0.08835205
0.1044566
-0.08805109
-0.009322852
0.03396699
0.3265454
-0.9582424
-0.04875074
0.1046356
0.2616224
