-0.205003
0.06479493
0.3171052
-0.3724127
0.9020091
-0.1787773
-0.1254075
-0.1822358
0.05773976
0.2987887
-0.0589384
0.1747503
-0.2503139
0.9504376
-0.1739919
0.05278215
0.3348986
0.1724996
0.04892694
-0.2829046
0.9422394
-0.1769909
0.04213083
0.3553254
0.3804695
-0.07341304
-0.2953917
0.8732682
-0.1806659
0.100601
0.3591227
-0.03267362
0.2162512
0.3218253
0.9211929
-0.1674598
0.1028431
0.3852693
0.1583376
0.256942
0.2728423
0.9134917
-0.1578579
0.09889138
0.3978641
0.3016029
0.2789085
0.2272254
0.8829578
-0.1862849
0.07456189
0.3596342
0.411028
0.3345042
0.2680512
0.8045568
-0.1682022
0.05767009
0.3578348
-0.8671359
-0.4278131
0.05931568
-0.2480587
-0.1687348
0.05034119
0.3401454
-0.9019363
-0.3974568
0.168617
-0.01036429
-0.2241579
0.05044657
0.3674083
0.09692224
0.01713895
0.5389987
0.8365362
-0.2178307
0.04548803
0.3895852
0.2858544
0.1285161
0.5206985
0.794131
-0.2098458
0.04052106
0.4001525
0.3757659
0.1786829
0.501052
0.7588276
-0.2005031
0.05940539
0.3606623
0.4494768
0.307127
0.3301153
0.771147
-0.1819142
0.04485214
0.3573449
-0.8618742
-0.4588936
-0.01635251
-0.2152259
-0.1805812
0.04011017
0.3392716
-0.8874204
-0.4453689
0.1117072
0.0406605
