-0.0289397
0.1151323
0.2721713
0.07016595
0.9563302
-0.1773964
-0.2214491
-0.02113907
0.09253132
0.2566974
-0.0947368
0.1572642
-0.6403078
0.7458545
-0.0138055
0.09019259
0.2937038
0.04106137
-0.00045587
-0.6557676
0.7538452
-0.01904654
0.0888347
0.3162093
0.2030268
-0.1913256
-0.6361066
0.7194046
0.01472322
0.1163268
0.3093517
0.2017814
0.2080585
-0.1912588
0.9377719
0.02194184
0.09950918
0.3329496
0.3699244
0.1536043
-0.2299177
0.8869609
0.022766
0.08663082
0.3433768
0.4753591
0.1139125
-0.2513626
0.8353888
-0.009646418
0.1085609
0.3078989
0.5940582
0.1199044
-0.1701349
0.7770277
-0.01455984
0.08269829
0.3022677
-0.9684756
-0.008669514
0.1803877
-0.171581
-0.02114143
0.07977816
0.284515
-0.9808094
0.03921211
0.1578369
0.1075312
-0.04809022
0.1223653
0.3210606
0.2463081
0.01291305
0.08771235
0.9651281
-0.04672547
0.1079362
0.3402968
0.4449089
-0.01731863
0.07074919
0.8926089
-0.04631158
0.09608907
0.34861
0.4843587
-0.02362449
0.06673811
0.8720004
-0.02842935
0.1112519
0.3106365
0.6051742
0.1093518
-0.09125161
0.7832494
-0.03009003
0.08699638
0.3038906
-0.9776044
-0.04228606
0.1230821
-0.1653849
-0.03459638
0.0838832
0.2857202
-0.9886987
-0.01124196
0.1190371
0.0904358
