-0.1432423
0.1168243
0.298657
-0.1900837
0.9398194
-0.1678202
-0.2290068
-0.1191544
0.1053407
0.2714506
-0.2993371
0.3854059
-0.4074954
0.7718855
-0.09273221
0.1071276
0.2972799
-0.07374943
0.2298593
-0.4934494
0.8356037
-0.08601758
0.1029563
0.3188647
0.1461689
0.06391296
-0.5355681
0.8292869
-0.1059613
0.1224887
0.321223
0.5828058
0.2847016
-0.1125252
0.7527421
-0.1028802
0.1001022
0.3142627
-0.9407818
-0.263402
0.1709784
-0.1277322
-0.1081667
0.0989204
0.2992427
-0.9328232
-0.1921817
0.1656611
0.2558581
-0.1185208
0.1171311
0.3303291
0.5950358
0.324239
-0.006953974
0.7353593
-0.1119874
0.09352747
0.3202991
-0.9355528
-0.276251
0.190023
-0.1109855
-0.1194828
0.09179562
0.3034306
-0.9174889
-0.1916809
0.2471152
0.2457778
-0.1523223
0.1038747
0.3386654
0.6064057
0.2928952
0.1807909
0.7167979
-0.1416563
0.08954298
0.3313721
-0.9189458
-0.3805023
0.02843772
-0.09973965
-0.1438501
0.08968845
0.3173185
-0.8980555
-0.350667
0.1290041
0.2321359
-0.1362562
0.109946
0.3353355
0.6173111
0.291125
0.07208703
0.727308
-0.1275358
0.08939946
0.3244579
-0.9407987
-0.3100352
0.1046696
-0.0884321
-0.1323429
0.08901685
0.3068828
-0.9140735
-0.2556679
0.1748381
0.2617924
