0.005775778
0.05214566
0.180814
0.3794076
0.7914417
-0.3594342
-0.3169811
0.0004709596
0.01751184
0.1764989
0.3105209
-0.2622775
0.8433654
-0.3514573
0.02230799
0.01464611
0.206206
0.1973341
-0.01200554
0.8833125
-0.4250579
0.02660795
0.02099213
0.2275307
0.05359694
0.2651365
0.842706
-0.4654855
0.0395975
0.03806365
0.2084545
0.3323463
-0.04315012
-0.5539609
0.7621099
0.02213832
0.02608001
0.2176963
-0.8008934
0.3676905
0.3476994
-0.320123
0.01172584
0.02408081
0.2057525
-0.873826
0.4623476
0.1505238
0.002322103
0.03123349
0.05191445
0.2144039
0.347053
0.00330662
-0.4658017
0.8139853
0.01456225
0.03516808
0.2233231
-0.8349075
0.3205642
0.3193731
-0.3133191
0.002657038
0.03184077
0.209251
-0.8941052
0.4077955
0.1847163
-0.01259555
0.005497891
0.07914561
0.2156153
0.321163
0.074976
-0.3034921
0.8939382
-0.0007992298
0.06394732
0.2231809
-0.8717372
0.1737198
0.2629088
-0.3751994
-0.008247043
0.05921245
0.2122599
-0.9483988
0.2602508
0.179962
-0.02056475
0.01786944
0.06626147
0.2159375
0.3408986
0.009804376
-0.3911207
0.8548197
0.004383764
0.0490098
0.2234633
-0.8586207
0.2848778
0.2731385
-0.3271247
-0.006027069
0.04441327
0.2090499
-0.9181921
0.3615326
0.1612831
-0.01432383
