-0.1093237
0.09736216
0.2976616
0.1256488
0.9365172
-0.2752494
-0.1771601
-0.09844965
0.06996
0.2876968
-0.1676554
0.1555856
-0.6950455
0.6816131
-0.08970909
0.07086888
0.3240309
0.02069276
-0.04848577
-0.7094391
0.7027925
-0.09657836
0.0719564
0.3460705
0.2199443
-0.2621298
-0.6638382
0.6650048
-0.07673277
0.09395829
0.3294836
0.4880305
0.04321706
-0.2830006
0.8245418
-0.08605749
0.07283068
0.3311223
-0.933334
0.1340473
0.2154327
-0.2539836
-0.09295769
0.06902575
0.3166492
-0.969662
0.1895173
0.1483392
0.04282926
-0.09234402
0.09868997
0.33596
0.492624
0.06736407
-0.1767078
0.8494458
-0.09844108
0.07484803
0.3358242
-0.9589731
0.08728351
0.170198
-0.2092485
-0.104995
0.07090005
0.318163
-0.9799188
0.1296214
0.1417395
0.05354901
-0.1286731
0.107777
0.336035
0.4474698
0.09877457
0.006908481
0.8888007
-0.1269796
0.0910126
0.3374087
-0.9726578
-0.04697285
0.08279675
-0.2118374
-0.1294908
0.08796787
0.3233601
-0.9926934
-0.02065855
0.1003571
0.06372962
-0.1113989
0.1028602
0.3367873
0.4897534
0.05997567
-0.09548098
0.8645392
-0.1146632
0.0807988
0.3357268
-0.9706797
0.06564879
0.1259458
-0.1939298
-0.1196233
0.07696331
0.317791
-0.9871242
0.09661503
0.1178333
0.04864872
