-0.08129317
-0.001734972
0.2796583
-0.1044028
0.9799802
0.0616769
-0.157908
-0.05427907
0.0002782345
0.24622
-0.2494714
0.497221
-0.3435112
0.7566608
-0.01867585
0.001952291
0.2605417
-0.2604729
0.5018616
-0.3362189
0.7531572
0.003264122
0.005999297
0.2655731
-0.458017
0.5695871
-0.1850495
0.656923
-0.04547906
-0.01536655
0.3063629
0.7231282
0.2215085
-0.0965592
0.6470672
-0.0463504
-0.03359896
0.2930962
-0.9731714
-0.1413883
0.1633123
0.0792216
-0.05228864
-0.02826864
0.2788295
-0.9017192
-0.07835514
0.1628392
0.3927423
-0.05995385
-0.02128124
0.3122625
0.7222579
0.2347864
0.02005788
0.6502434
-0.05661795
-0.04008022
0.2965122
-0.9670674
-0.1907715
0.1401672
0.09348886
-0.0635284
-0.03387517
0.2802489
-0.8809074
-0.1314447
0.1849017
0.4153745
-0.09831765
-0.02702469
0.3131135
0.6987541
0.1437807
0.1968378
0.6725509
-0.08973223
-0.04122734
0.3038846
-0.9667321
-0.2501688
-0.05333474
-0.0003123782
-0.0903652
-0.03706586
0.2905734
-0.8923822
-0.251478
0.03879309
0.3727036
-0.08008121
-0.02499205
0.3131741
0.7318741
0.1747714
0.08861009
0.6526588
-0.07437089
-0.04192364
0.2979518
-0.9741669
-0.2022058
0.04624104
0.08929402
-0.07814932
-0.03513956
0.2814553
-0.8787823
-0.1711944
0.1022056
0.433576
