-0.07837175
0.124745
0.2825001
-0.1536448
0.9348296
-0.1377915
-0.2889645
-0.05756538
0.1136814
0.2469354
-0.397643
0.4939083
-0.3817398
0.6724651
-0.02104503
0.1183399
0.2574592
-0.3215826
0.4503238
-0.4337575
0.711089
0.0005761592
0.119691
0.2670998
-0.2978834
0.4361281
-0.4484413
0.7210813
-0.03726399
0.1267092
0.3011262
0.5737082
0.3236621
-0.1736955
0.7320734
-0.03760286
0.1045101
0.294792
-0.9327688
-0.1771173
0.2974386
-0.1005097
-0.04693621
0.1036217
0.2815176
-0.9224612
-0.068079
0.2988007
0.2348378
-0.04876763
0.122739
0.3123646
0.5789919
0.3590626
-0.05995872
0.7295528
-0.04514551
0.09875524
0.3033721
-0.9248388
-0.2185272
0.2908679
-0.110973
-0.05601865
0.09617284
0.288181
-0.9129882
-0.1150188
0.3424856
0.1895441
-0.0835475
0.1125817
0.3252569
0.5844658
0.2995942
0.135733
0.7417679
-0.07444986
0.09610006
0.3193151
-0.9299095
-0.3008744
0.1049024
-0.1836804
-0.07802911
0.09343809
0.3058261
-0.9357482
-0.2452636
0.2105932
0.140967
-0.06656301
0.1174475
0.3201721
0.5891202
0.319234
0.02389291
0.7419274
-0.06042428
0.09563518
0.3109706
-0.9392673
-0.2461607
0.2047028
-0.1236067
-0.06830382
0.09307614
0.2945384
-0.9287811
-0.1667412
0.2732553
0.1868012
