-0.09716193
0.02946034
0.0652231
-0.02318595
0.9091954
-0.2546525
-0.3286007
-0.08046884
0.007586181
0.03531176
-0.4968243
0.4409826
-0.479764
0.5731723
-0.04319018
0.01163024
0.04307708
-0.409495
0.4118001
-0.5467547
0.6031533
-0.02076457
0.01263916
0.05086476
-0.4065006
0.4107367
-0.5488492
0.604001
-0.05620196
0.02932519
0.08158781
0.5020818
0.2487247
-0.303324
0.7707428
-0.06129502
0.007067025
0.08091983
-0.926639
-0.05210934
0.3316685
-0.1691766
-0.07091887
0.00550133
0.06811441
-0.9422291
0.06287521
0.272159
0.1848799
-0.0678806
0.03051227
0.09309094
0.5185623
0.2997744
-0.1999045
0.7754139
-0.07024892
0.005711615
0.08992074
-0.9228783
-0.07719911
0.3446955
-0.1533655
-0.08240393
0.003613889
0.07580496
-0.922816
0.04395844
0.3417359
0.1723218
-0.1023851
0.03179801
0.1091595
0.4932666
0.2768683
0.01068703
0.8245713
-0.09699057
0.01384646
0.1077496
-0.9298211
-0.2033657
0.1874064
-0.2428042
-0.1023586
0.01038718
0.0953925
-0.9502834
-0.1132044
0.2533062
0.1413582
-0.08581273
0.0310424
0.1019428
0.527193
0.2707619
-0.1118826
0.7976453
-0.0852529
0.007730901
0.09776285
-0.9421228
-0.1188152
0.2648146
-0.167812
-0.09466753
0.005284309
0.08244359
-0.9386824
-0.01264888
0.2826401
0.1970536
