-0.08387508
0.08116531
0.2843843
-0.01285982
0.9671457
-0.08671625
-0.2386295
-0.06156151
0.06583595
0.2513421
-0.2997097
0.5098225
-0.482714
0.645943
-0.02496077
0.06172007
0.2633044
-0.2938859
0.5030251
-0.4874625
0.650367
-0.002085774
0.05933273
0.2697006
-0.3362227
0.5519761
-0.4508226
0.6156588
-0.04657143
0.0706633
0.3087754
0.6247927
0.1917889
-0.2276245
0.7218298
-0.05207242
0.04911792
0.3020318
-0.9642592
-0.03455885
0.2508679
-0.07794392
-0.05975647
0.05015653
0.2875857
-0.9448211
0.04667453
0.214921
0.2427831
-0.06075952
0.07021296
0.3178394
0.6391971
0.211725
-0.1175168
0.7299243
-0.06271475
0.04588088
0.3082542
-0.9681458
-0.08159379
0.2224185
-0.08103181
-0.07107466
0.04653502
0.29152
-0.9390196
-0.001190112
0.2302149
0.2554251
-0.09817921
0.06997472
0.3245017
0.6428636
0.1621782
0.06709867
0.7456021
-0.09384783
0.05263662
0.3177511
-0.9804591
-0.1504926
0.07426923
-0.1026453
-0.09669982
0.05304712
0.3037214
-0.9593588
-0.1169956
0.1279148
0.2226671
-0.08050317
0.06979915
0.3218939
0.6580896
0.1689596
-0.04231557
0.7325163
-0.08001222
0.04762375
0.3113353
-0.9824837
-0.09633502
0.1440298
-0.06856295
-0.08568963
0.04874468
0.2938457
-0.9499328
-0.04325476
0.1651351
0.2617006
