-0.09953208
0.08121258
0.3130279
-0.2461074
0.9613532
-0.09084159
-0.08354037
-0.07202873
0.07493398
0.291846
-0.08002853
0.2870147
-0.3645762
0.8822144
-0.05918512
0.06588101
0.3244886
0.2225272
0.1076097
-0.4391083
0.8637626
-0.06336928
0.05309916
0.3430731
0.450066
-0.05050302
-0.4579609
0.7649587
-0.06777774
0.08570302
0.3464261
0.6126635
0.2792555
0.04537369
0.7379709
-0.06023473
0.06585741
0.3375235
-0.9459081
-0.2955573
0.1076862
-0.07941883
-0.06435405
0.06531101
0.3215046
-0.9323564
-0.2550812
0.1537677
0.2049408
-0.08101587
0.07688046
0.3503565
0.614712
0.3103802
0.1510115
0.7092171
-0.06877527
0.05741853
0.3386753
-0.9293161
-0.3535061
0.08716476
-0.06170469
-0.07348399
0.0573023
0.3204313
-0.9016705
-0.3081302
0.1795892
0.244528
-0.1152616
0.05884445
0.346983
0.610222
0.2306621
0.3319089
0.6813667
-0.1007277
0.04790652
0.3408354
-0.8766557
-0.455182
-0.1420717
-0.06402989
-0.09888375
0.05053824
0.3267452
-0.8492676
-0.4790137
-0.03428185
0.2193519
-0.09900804
0.06699407
0.34948
0.6300804
0.2536108
0.2279472
0.6976535
-0.08481033
0.05028263
0.3384042
-0.9240005
-0.377358
-0.02359225
-0.05716176
-0.0857282
0.05165842
0.3199899
-0.8953696
-0.3673366
0.07248659
0.2410865
