-0.1536329
0.01816776
0.3380563
-0.1618469
0.9754189
-0.04322841
-0.1431599
-0.1235211
0.0145022
0.3075948
-0.2622961
0.4569841
-0.372903
0.7637471
-0.09155895
0.014054
0.3284902
-0.1346882
0.3773301
-0.4410976
0.8030654
-0.0755932
0.01030368
0.3457256
-0.04330399
0.3152897
-0.4811809
0.8168123
-0.1189195
0.01396811
0.367911
0.6563179
0.218546
-0.05275904
0.7202091
-0.1172312
-0.006167829
0.3580735
-0.9752582
-0.1626839
0.148847
-0.01581055
-0.1226705
-0.004108548
0.3425454
-0.940398
-0.1120148
0.1631556
0.2765587
-0.1330625
0.007906556
0.374127
0.6554932
0.2442216
0.0605087
0.7120556
-0.1266761
-0.01388067
0.3619697
-0.966957
-0.215303
0.1298712
-0.0420971
-0.1327269
-0.01262143
0.3442507
-0.9257848
-0.1597801
0.1944206
0.2821233
-0.1696799
-0.003518343
0.3739193
0.6472048
0.1692125
0.2421503
0.7027491
-0.1595178
-0.01807776
0.366764
-0.9581327
-0.2731745
-0.04585667
-0.07248929
-0.1599223
-0.01639524
0.3526537
-0.9251235
-0.271438
0.06185143
0.2581519
-0.1524682
0.001432091
0.3746887
0.6712354
0.1895093
0.1336403
0.704038
-0.1443048
-0.01764041
0.3625219
-0.9732475
-0.2246814
0.04418001
-0.01886604
-0.1475146
-0.01501119
0.344545
-0.9262338
-0.1980024
0.1172278
0.2985693
