-0.1819358
0.1227916
0.2698864
-0.2704167
0.9413079
-0.1677609
-0.1125636
-0.15904
0.1125596
0.2524552
-0.06799997
0.1726119
-0.3500483
0.9181761
-0.1511597
0.1084533
0.2888691
0.1318223
0.03674063
-0.3767655
0.9161445
-0.1549007
0.1004141
0.3103789
0.3100931
-0.09114846
-0.3816463
0.8659563
-0.1530886
0.1510507
0.3137985
0.02592622
0.1886508
0.2134706
0.9582114
-0.1410434
0.14784
0.3400548
0.2297561
0.2077428
0.1688524
0.9357051
-0.1333764
0.1408649
0.3524735
0.3394631
0.2122617
0.1401713
0.9055727
-0.1635345
0.1277307
0.3130914
0.4484191
0.2827834
0.1895572
0.8264514
-0.1494753
0.1070295
0.311439
-0.9125406
-0.311734
0.0856204
-0.2505209
-0.1516549
0.09963542
0.2938441
-0.9454899
-0.2757176
0.1732619
-0.003018516
-0.2055673
0.1114799
0.3186462
0.1309314
0.006770506
0.4444229
0.8861713
-0.200742
0.1037595
0.3410133
0.301191
0.03804656
0.4297843
0.8503658
-0.1956647
0.09631008
0.352309
0.3659273
0.04968449
0.4201673
0.8289078
-0.1812387
0.1164269
0.3137199
0.4650982
0.238762
0.2635878
0.8106774
-0.1664302
0.09852818
0.311351
-0.9132167
-0.3450592
0.0005032587
-0.2167236
-0.1661037
0.09370583
0.2932751
-0.9366435
-0.3286339
0.1064388
0.05804811
