-0.1383373
0.1104793
0.2979597
-0.1674253
0.9481465
-0.1358656
-0.2335115
-0.1136953
0.1029406
0.263685
-0.4112355
0.4477107
-0.3636671
0.7058235
-0.07838263
0.1125782
0.2753909
-0.3797345
0.4144715
-0.3792897
0.734952
-0.05691541
0.1184207
0.2835318
-0.4010012
0.4369232
-0.3689407
0.7156667
-0.09960958
0.1131834
0.3211206
0.5867925
0.2929132
-0.1232157
0.744778
-0.09837018
0.09117097
0.3142201
-0.9464864
-0.1936202
0.2367468
-0.1030808
-0.1060173
0.09024978
0.2998412
-0.935786
-0.1073904
0.2455643
0.2290634
-0.1124627
0.1082458
0.3305399
0.5957667
0.3215625
-0.01295886
0.7358612
-0.1072082
0.08446288
0.320943
-0.9396239
-0.2303531
0.2261072
-0.113666
-0.1160014
0.08228856
0.3044891
-0.9251506
-0.1427407
0.2850891
0.206024
-0.1477634
0.09635288
0.3391688
0.5952428
0.2581619
0.1815436
0.7389725
-0.1378705
0.08052272
0.3332639
-0.9384329
-0.3018305
0.04493529
-0.1619349
-0.1400823
0.07901549
0.3193432
-0.9355106
-0.2657711
0.155435
0.1732794
-0.1308492
0.1018936
0.3358041
0.6109988
0.278604
0.06784662
0.7378734
-0.1234655
0.08069891
0.3258407
-0.9516137
-0.2517425
0.1411477
-0.1055204
-0.1294168
0.07939762
0.3085055
-0.932364
-0.1902059
0.2147705
0.2199835
