-0.08132163
0.09009573
0.2848962
0.0338123
0.9570603
-0.1837533
-0.2216462
-0.07299193
0.06849617
0.269774
-0.09281015
0.1418689
-0.6107831
0.7734362
-0.06708168
0.06635785
0.307003
0.07141729
-0.01466631
-0.6250644
0.7771608
-0.07456392
0.06368226
0.3283716
0.3000857
-0.2374736
-0.5887841
0.7119608
-0.03630761
0.09735548
0.3220721
0.1123563
0.2329914
-0.1347296
0.9565245
-0.02480151
0.08615738
0.3472648
0.2515453
0.2174699
-0.1664794
0.9282869
-0.01998888
0.07629144
0.3596305
0.3447204
0.2020703
-0.1869472
0.8974332
-0.06055766
0.08501911
0.3208407
0.5772223
0.157939
-0.1436276
0.7881883
-0.06357199
0.05918342
0.3157913
-0.9639425
-0.03680053
0.1979202
-0.1740351
-0.07091063
0.05592275
0.2983376
-0.9764553
0.01759039
0.1904593
0.09975509
-0.1009144
0.09629121
0.3339278
0.2346102
0.006445339
0.1255723
0.9639233
-0.0989792
0.08273447
0.353325
0.4266233
-0.0005708127
0.1138924
0.8972295
-0.09759271
0.07119
0.3612479
0.5254195
-0.005673583
0.1048153
0.8443435
-0.07950616
0.08636454
0.3241424
0.5834426
0.1458518
-0.06374343
0.7964037
-0.0795095
0.06252971
0.3181542
-0.9740424
-0.06868275
0.1411236
-0.1631203
-0.0847825
0.05912307
0.3001455
-0.9851681
-0.03331919
0.1503228
0.07574181
