-0.03963432
0.06513613
0.4222718
-0.09460599
0.9681472
0.216896
-0.08183494
-0.008052353
0.07197464
0.3932927
-0.03547326
0.5492321
-0.311527
0.7746204
0.02443588
0.05903202
0.4091303
0.02355305
0.5300391
-0.3512264
0.7714556
0.04368624
0.049752
0.4193494
-0.001012256
0.5384282
-0.3349236
0.7732531
-0.006472406
0.03978321
0.4488109
0.7839759
0.1946472
-0.02215161
0.5890701
-0.005240604
0.02485222
0.4325095
-0.9649323
-0.1661956
0.09082232
0.1817584
-0.009673536
0.03316155
0.4189176
-0.8717272
-0.1261287
0.1034003
0.4620517
-0.02235097
0.03399676
0.4516612
0.7786501
0.1765198
0.0902178
0.5953197
-0.01662716
0.01799899
0.4332049
-0.9657704
-0.2016992
0.04625507
0.1564148
-0.02084965
0.02687091
0.4172887
-0.8574874
-0.1726361
0.1003832
0.4741682
-0.06192935
0.03205723
0.4449698
0.772076
0.04364713
0.2336175
0.5894205
-0.05336728
0.0195986
0.4331838
-0.9717991
-0.1771812
-0.1216863
0.09698365
-0.05225367
0.02643484
0.4208217
-0.8747722
-0.2101454
-0.03813618
0.4349233
-0.04348844
0.03225636
0.4482876
0.8007712
0.09723716
0.1388877
0.5744744
-0.03654109
0.01875547
0.4302436
-0.9655887
-0.1771997
-0.03849148
0.1864325
-0.03777637
0.02909374
0.4150025
-0.8496977
-0.1785513
0.0147671
0.4958985
