0.06765824
0.09726137
0.2733594
0.1987268
0.9372745
0.01856945
-0.285796
0.07052507
0.07711744
0.2471019
0.005397304
0.4225149
-0.7017589
0.5735735
0.08058462
0.05573046
0.2754635
0.1682889
0.1904163
-0.7953931
0.5502458
0.07468377
0.04664952
0.2954084
-0.3268431
0.07877093
0.8162624
-0.4697706
0.09785385
0.06878921
0.2932968
0.680826
0.09169392
-0.4010228
0.6060107
0.08262774
0.05188322
0.2854927
-0.9369829
0.1509457
0.3150356
-0.005564645
0.07458496
0.05667716
0.2721621
-0.8973473
0.2455934
0.215471
0.2966887
0.0843761
0.07344413
0.303244
0.709518
0.08382732
-0.2986934
0.6327239
0.07110005
0.05414563
0.2913786
-0.9587348
0.1251564
0.253601
0.02915777
0.06304727
0.05961385
0.2748831
-0.9205034
0.1874829
0.2011273
0.2776174
0.05144944
0.08969739
0.3134735
0.705048
0.02225509
-0.1253263
0.6976428
0.04743209
0.07254392
0.3047575
-0.993231
0.0460062
0.08879466
-0.05908616
0.04535635
0.07462466
0.2907131
-0.9621297
0.07090577
0.05641786
0.2570914
0.06675534
0.08154786
0.3092726
0.7159869
0.02756673
-0.228998
0.6589103
0.05662398
0.06237507
0.2966641
-0.9794878
0.1140331
0.1660963
-0.003469462
0.05169202
0.06659061
0.2792646
-0.937429
0.1586051
0.1109829
0.2894033
