-0.06287794
0.05514884
0.1834878
0.06690189
0.9084004
-0.3253324
-0.2539522
-0.04976638
0.02749681
0.1693964
-0.3248727
0.2280198
-0.6372135
0.6606238
-0.0310336
0.03379241
0.2000407
-0.1270953
-0.01077065
-0.6626611
0.7379777
-0.03370309
0.03826261
0.2212633
0.1405415
-0.3097175
-0.5970117
0.7265674
-0.0255164
0.05589074
0.20736
0.4633203
0.1271038
-0.3055913
0.8220662
-0.03218364
0.03386155
0.2097474
-0.9338828
0.009920774
0.246281
-0.2590567
-0.03942893
0.02916721
0.1957659
-0.9810601
0.070254
0.1754937
0.04227693
-0.0392229
0.0599857
0.2159102
0.4753435
0.1786109
-0.2056266
0.836579
-0.04285217
0.0349825
0.2164064
-0.9411868
-0.02377323
0.2444644
-0.2320332
-0.05162439
0.02960241
0.2002474
-0.9738151
0.038124
0.2220002
0.03076618
-0.075726
0.06592718
0.2234429
0.4546294
0.1883005
-0.01098424
0.8704794
-0.07147665
0.04796422
0.2243986
-0.9380658
-0.1853835
0.1095258
-0.2714216
-0.07406764
0.04314113
0.211043
-0.9790193
-0.1513856
0.1326277
0.03183636
-0.05842156
0.06286371
0.2207028
0.4802334
0.154767
-0.117287
0.8553753
-0.05885121
0.03928369
0.2200187
-0.9547227
-0.07524687
0.1630179
-0.2372081
-0.06442326
0.03354704
0.2030428
-0.9867485
-0.03344577
0.1551136
0.03389259
