-0.1419616
0.1101907
0.2493077
-0.1671898
0.9543207
-0.1920535
-0.1563174
-0.1234466
0.09522069
0.232367
-0.1096184
0.1474403
-0.4366082
0.8806921
-0.1156511
0.09510756
0.2692824
0.05100996
0.01250521
-0.4516417
0.8906522
-0.1194075
0.09141749
0.29194
0.2155957
-0.1283552
-0.4460327
0.8591265
-0.1048159
0.13091
0.2891272
0.1314973
0.2406489
0.06529532
0.9594442
-0.09143846
0.1193492
0.312337
0.374812
0.2128523
-0.003429898
0.9023293
-0.08575228
0.1070124
0.3214728
0.5086384
0.1897891
-0.04433658
0.8386306
-0.121832
0.1124184
0.2888175
0.5108193
0.2488357
0.06156143
0.8205819
-0.1132286
0.08808446
0.2853427
-0.9384855
-0.2223962
0.1288448
-0.2306162
-0.1174873
0.08153749
0.267786
-0.9661131
-0.1804106
0.1826869
0.02651532
-0.1641771
0.105785
0.2987108
0.1891656
0.03909795
0.3355119
0.9220193
-0.1584245
0.09584838
0.3202893
0.3274538
0.04892035
0.3192649
0.8879475
-0.153697
0.08679056
0.3305455
0.4506699
0.05701154
0.2980509
0.8395308
-0.1407411
0.1052806
0.290471
0.5325318
0.2180536
0.1372599
0.8062397
-0.1303697
0.08368689
0.2856508
-0.9433544
-0.2601097
0.04928442
-0.1999913
-0.131853
0.07886702
0.2674134
-0.9629399
-0.2387729
0.1123917
0.05570003
