-0.1014742
0.07669497
0.3006738
0.04085454
0.9511524
-0.2085369
-0.2239472
-0.09393908
0.0543943
0.2870494
-0.1060728
0.1219933
-0.6162643
0.7707688
-0.08897505
0.05394945
0.3243573
0.0663828
-0.04428633
-0.6251746
0.7763947
-0.09758075
0.05225688
0.3452042
0.3103405
-0.2815709
-0.5733122
0.7040737
-0.05656616
0.08475637
0.3371993
0.1112468
0.224817
-0.149277
0.9564507
-0.04550628
0.07365352
0.3628411
0.2401315
0.2109392
-0.1771872
0.930831
-0.0408119
0.06411183
0.3756454
0.3234462
0.197739
-0.1944955
0.9046842
-0.08099555
0.07318866
0.3358565
0.5733857
0.1496652
-0.1547434
0.7904959
-0.0845378
0.04762167
0.3310432
-0.9657138
-0.02775599
0.195663
-0.1683524
-0.09175813
0.04459912
0.3135049
-0.9774795
0.02453614
0.1828755
0.1024129
-0.1205565
0.08427477
0.3490914
0.2466489
0.01523977
0.1165072
0.9619554
-0.118158
0.0696314
0.3675135
0.4867234
0.01264538
0.1006173
0.8676501
-0.1164327
0.05690491
0.3733645
0.6168312
0.009455026
0.0870246
0.7822127
-0.09971438
0.07492974
0.3394483
0.5743012
0.1412752
-0.07291642
0.8030584
-0.1000758
0.05130422
0.3339429
-0.9745787
-0.06195686
0.1418494
-0.161977
-0.1053466
0.04794046
0.3159454
-0.985921
-0.02740882
0.1474418
0.07395554
