0.04387919
0.1164969
0.2526152
0.1662303
0.9117555
-0.1790071
-0.3301907
0.05356918
0.08686042
0.2243649
0.3246365
-0.5189798
0.630613
-0.4770728
0.08673481
0.07406288
0.2388729
-0.2478527
0.4032184
-0.704236
0.5291841
0.1043751
0.06705076
0.253573
-0.1942651
0.321999
-0.7417695
0.555298
0.08030762
0.09982252
0.2737654
0.5350288
0.1181817
-0.4204524
0.7231854
0.06719521
0.0803929
0.2737359
-0.914381
0.1433267
0.3455126
-0.1548743
0.05753659
0.08101633
0.2607166
-0.9228122
0.2505913
0.2342295
0.1753802
0.06915425
0.1067199
0.2839963
0.5581601
0.1541481
-0.3183533
0.7505644
0.05768372
0.0827347
0.2820174
-0.9180121
0.1077372
0.3411874
-0.1709899
0.04597849
0.08242184
0.2674735
-0.9184192
0.2215381
0.2839038
0.1637858
0.03611274
0.1206902
0.2952586
0.5601768
0.1478552
-0.1349731
0.8038179
0.03376183
0.1015595
0.2933518
-0.9507167
0.008334001
0.2177351
-0.2205894
0.02754712
0.0993838
0.2807007
-0.9655541
0.08513977
0.2177627
0.1141749
0.05192496
0.1140585
0.2907429
0.5668464
0.1279127
-0.2396667
0.7777426
0.04364423
0.09071675
0.2873335
-0.9429994
0.07528525
0.2667371
-0.1842163
0.03433371
0.08919895
0.2716193
-0.9476494
0.1633872
0.2278638
0.1527852
