0.01067842
0.1285936
0.2566758
0.1195271
0.9292535
-0.1848109
-0.2967258
0.02495242
0.100103
0.2283095
-0.3300028
0.497651
-0.6092789
0.5217481
0.05831254
0.09026495
0.2443374
-0.240972
0.3791453
-0.6827936
0.5761721
0.0754129
0.08475071
0.2601421
-0.1753314
0.2907525
-0.7214369
0.6035319
0.04818344
0.115982
0.2802207
0.5262037
0.1357928
-0.3607991
0.7579539
0.03769182
0.09546342
0.2801065
-0.9261475
0.1072976
0.3203097
-0.1677496
0.02842378
0.09522682
0.2667667
-0.9354674
0.2077804
0.2332243
0.1653321
0.03584702
0.1213211
0.2900459
0.5445896
0.1743194
-0.2564689
0.779268
0.0276596
0.09646544
0.2881494
-0.9276036
0.06631858
0.3158027
-0.1882076
0.01649742
0.09493244
0.2732629
-0.931818
0.1743753
0.2813286
0.1488717
0.0005064746
0.13154
0.2994089
0.5449439
0.1623135
-0.07135656
0.8195114
0.0004910971
0.1124097
0.2978104
-0.9530989
-0.03193014
0.1880083
-0.2350233
-0.005041195
0.1095468
0.2849875
-0.971927
0.03877649
0.2095499
0.09971543
0.01731845
0.1266235
0.2958775
0.554438
0.1436805
-0.1770751
0.8003743
0.01206549
0.1027957
0.2925918
-0.9508179
0.03418041
0.2376709
-0.1956773
0.003540541
0.1003675
0.2765335
-0.9582919
0.1150012
0.2205955
0.1406736
