-0.03552317
0.1161907
0.2915424
-0.04178907
0.982757
-0.07899853
-0.161869
-0.01742898
0.0997355
0.269487
-0.05069472
0.2989128
-0.5423064
0.783572
-0.006591161
0.08797899
0.3024619
0.1821571
0.09473285
-0.6069692
0.7677454
-0.01314603
0.07866415
0.3219951
0.4016634
-0.12422
-0.6100264
0.6716425
-0.001809274
0.1079526
0.3205886
0.6582199
0.1609629
-0.1564926
0.7185733
-0.004958785
0.08705032
0.3117073
-0.9826711
-0.06531535
0.1689043
-0.03953256
-0.01042565
0.08841646
0.2959613
-0.964824
-0.02116433
0.1500234
0.2148484
-0.01731104
0.1049752
0.3263627
0.6781501
0.184206
-0.04933636
0.7097511
-0.01653731
0.08280468
0.3139782
-0.9827431
-0.1248288
0.1363041
-0.0074255
-0.0222122
0.08526516
0.2958229
-0.9511639
-0.08402993
0.1486863
0.2571353
-0.05525497
0.1029623
0.3281344
0.6568891
0.125069
0.139033
0.7304276
-0.0479752
0.08719507
0.320947
-0.9669914
-0.2415739
-0.06168998
-0.05257456
-0.04710782
0.08918697
0.3065224
-0.9417393
-0.250664
-0.02129652
0.2232514
-0.03745429
0.1033357
0.3278458
0.6861336
0.1296418
0.02934037
0.7152293
-0.03356419
0.08291778
0.3155909
-0.9874857
-0.1536488
0.03086776
-0.0176409
-0.03535977
0.0854103
0.2970487
-0.9572293
-0.1403042
0.04909231
0.2482273
