-0.1106769
0.08642063
0.29643
0.03369818
0.9492002
-0.2283733
-0.2138438
-0.1025891
0.06285518
0.2839773
-0.1047682
0.1195978
-0.6171121
0.7706443
-0.09727328
0.06259805
0.3213914
0.05261574
-0.0359688
-0.6257863
0.7773862
-0.1045846
0.06126171
0.3431529
0.2579379
-0.2401621
-0.5894449
0.7268734
-0.06625027
0.09752923
0.3326775
0.08423152
0.2283329
-0.1394206
0.9598599
-0.05491596
0.08750296
0.3579967
0.2472805
0.2159649
-0.1747042
0.9282726
-0.0502353
0.07783797
0.3702809
0.3413542
0.2031169
-0.1941193
0.8969608
-0.09069213
0.08487695
0.3328931
0.5439239
0.1387652
-0.1379469
0.8160036
-0.09362879
0.05878949
0.3300547
-0.9584828
-0.0179448
0.187263
-0.2142924
-0.1005967
0.05420685
0.3127506
-0.9812197
0.03407899
0.1787981
0.06385774
-0.1305287
0.09537894
0.3449976
0.2067911
0.01941909
0.1328792
0.9691252
-0.1280489
0.08214074
0.365037
0.4421848
0.006613977
0.1145303
0.8895571
-0.1263874
0.0701822
0.3733386
0.4992605
0.002945736
0.1084253
0.8596361
-0.1096357
0.08660203
0.3360083
0.5422532
0.1307157
-0.05568544
0.8281147
-0.1096923
0.0626601
0.332469
-0.9679024
-0.04133369
0.1394993
-0.2049308
-0.1149326
0.0577057
0.3148087
-0.9883896
-0.007095533
0.1499732
0.02331849
