-0.08472262
0.09308279
0.2831836
0.0377937
0.9416243
-0.2341941
-0.2388901
-0.07755373
0.06979281
0.2709399
-0.1309379
0.1241714
-0.6163655
0.7665053
-0.07258405
0.0706104
0.3078856
0.0699661
-0.07277431
-0.6227851
0.7758527
-0.0807095
0.06977463
0.3298728
0.2258916
-0.2254104
-0.5927294
0.7394829
-0.03914312
0.1005232
0.3168797
0.1574202
0.2444833
-0.1763392
0.9403996
-0.02912082
0.08550781
0.3406649
0.3398251
0.1941479
-0.2232496
0.8927402
-0.02643443
0.07328528
0.3517601
0.4124345
0.1706212
-0.2403077
0.8619968
-0.06366965
0.09164831
0.3180108
0.5484694
0.1384677
-0.1605144
0.808853
-0.06789991
0.06603682
0.3149856
-0.9579011
0.007261889
0.2081267
-0.1976262
-0.0757281
0.06201261
0.2978251
-0.976826
0.06067942
0.1967879
0.05833931
-0.1023381
0.1003689
0.3317078
0.2791812
0.02270085
0.1087484
0.9537905
-0.09964897
0.08413309
0.3497604
0.5042589
0.01289147
0.08969276
0.8587852
-0.09799908
0.07079446
0.3560033
0.5858276
0.00859258
0.08047097
0.806385
-0.0823072
0.09372088
0.3219709
0.551066
0.1327143
-0.07847969
0.820094
-0.08320655
0.07007772
0.317884
-0.9706868
-0.03605766
0.1504582
-0.1839278
-0.0888369
0.0659878
0.300155
-0.9866927
0.0002535593
0.1552513
0.04831765
