-0.08425942
0.09388769
0.2824689
0.04025573
0.9407599
-0.2274613
-0.248217
-0.07710051
0.07140213
0.269587
-0.145666
0.1292913
-0.6141753
0.7647575
-0.06950821
0.07318175
0.3065693
0.01415891
-0.03327638
-0.623356
0.7811015
-0.07595994
0.0730958
0.3285655
0.2329735
-0.2542207
-0.5822517
0.7362597
-0.03775354
0.1017117
0.316159
0.1239225
0.246924
-0.1700326
0.945918
-0.02672424
0.088826
0.3409951
0.286522
0.2023161
-0.2122423
0.9121001
-0.02330424
0.07772627
0.3530777
0.3822641
0.1713879
-0.2350435
0.8770719
-0.06187643
0.09176993
0.3167277
0.5499865
0.1676252
-0.1729122
0.7996988
-0.06542841
0.06625378
0.3131419
-0.9592768
-0.03525296
0.2155612
-0.1791051
-0.07329214
0.06280255
0.2959886
-0.9751808
0.02232094
0.1997634
0.09283739
-0.1009122
0.1031122
0.3311404
0.2445647
0.03707977
0.1062954
0.9630756
-0.09804752
0.08870107
0.3496214
0.4797644
0.01631484
0.08207075
0.8733981
-0.09660262
0.07634479
0.3563539
0.5574739
0.008199174
0.07180575
0.8270427
-0.08032259
0.09352958
0.3209614
0.5576446
0.1660041
-0.09312615
0.8079621
-0.0807106
0.06999752
0.3161044
-0.9696028
-0.07841988
0.1639774
-0.1638054
-0.08670533
0.0664658
0.2983733
-0.9824302
-0.03876383
0.1669607
0.07384183
