-0.1783161
0.1085621
0.3024756
-0.2605188
0.9306417
-0.1871924
-0.1760543
-0.1492366
0.1023451
0.2745592
-0.3553145
0.3625299
-0.3464763
0.7888459
-0.1222336
0.109664
0.2990249
-0.1270074
0.2404909
-0.4284197
0.8616785
-0.1130311
0.1077661
0.3202304
0.0830706
0.1168687
-0.4727069
0.8694764
-0.1432161
0.1210496
0.3296418
0.5196497
0.3159999
-0.007742206
0.7937558
-0.1360486
0.1001041
0.3249524
-0.9257552
-0.2926272
0.1785317
-0.159603
-0.1416932
0.09705228
0.3100431
-0.9321167
-0.2216236
0.2244205
0.17798
-0.1553345
0.1135352
0.3380569
0.5211496
0.3557217
0.0981776
0.7695625
-0.1440129
0.09204412
0.3309603
-0.9143626
-0.3256263
0.1820637
-0.1573576
-0.1509767
0.08789632
0.3141549
-0.9129407
-0.2428446
0.2794549
0.1716705
-0.1880209
0.09443504
0.3434726
0.5238425
0.313603
0.2848577
0.7389847
-0.174378
0.08154488
0.3392866
-0.8915487
-0.4109138
0.01382334
-0.1899994
-0.1757112
0.0791744
0.3254447
-0.899618
-0.376193
0.1700188
0.1423369
-0.172555
0.1032926
0.341849
0.5416782
0.3147301
0.1778286
0.7588852
-0.1597434
0.08450484
0.334254
-0.9191872
-0.3539801
0.09473718
-0.1442838
-0.1639564
0.08176926
0.3167408
-0.9106725
-0.2976114
0.2107458
0.1941372
