-0.1968472
0.07487395
0.3115314
-0.3055993
0.9267283
-0.1893017
-0.1093099
-0.1739944
0.0647372
0.2950533
-0.04972412
0.1443265
-0.3149161
0.9367632
-0.1676396
0.06011304
0.3319762
0.1484269
0.03331262
-0.3369939
0.9291366
-0.1713631
0.05095208
0.3531376
0.3435029
-0.08228098
-0.3413798
0.8710313
-0.1711991
0.1086049
0.3544404
-0.05460932
0.1883
0.2613213
0.9451308
-0.1602331
0.1110384
0.3814181
0.1204084
0.2074989
0.2251239
0.9443333
-0.1526759
0.1073961
0.3952264
0.255094
0.2156006
0.1914563
0.9229236
-0.1792286
0.08290589
0.3545947
0.4212286
0.3009662
0.2197668
0.8268545
-0.1632634
0.06351551
0.3536854
-0.8907836
-0.3599937
0.06948527
-0.2684789
-0.1644093
0.05567712
0.3362454
-0.9300692
-0.3256501
0.1696629
-0.01174163
-0.2216989
0.0635938
0.360462
0.07634576
-0.04257842
0.4872077
0.8689
-0.2190635
0.05802625
0.3834552
0.2291814
0.05199186
0.487352
0.8409881
-0.2135943
0.0527274
0.395395
0.3278045
0.1092058
0.4776012
0.8077843
-0.1954885
0.07006943
0.355218
0.4467449
0.2701128
0.2892358
0.8023719
-0.1785131
0.05313131
0.3532704
-0.8833934
-0.3977548
-0.01327245
-0.2474492
-0.1771171
0.04745495
0.3355147
-0.9169839
-0.3837421
0.1054949
0.02744913
