-0.2957768
0.01219162
0.3326775
-0.4879916
0.8525297
-0.1832558
0.03840185
-0.2613726
0.03027141
0.3118387
-0.390339
0.1778322
-0.1377589
0.8927675
-0.2454981
0.05267608
0.338476
-0.2880926
0.1628999
-0.157405
0.9304246
-0.2363151
0.06357121
0.3573783
-0.2461466
0.1563435
-0.1647136
0.9422516
-0.2799934
0.03543463
0.3729366
0.4007573
0.3352587
0.3294317
0.7864287
-0.2611842
0.02242687
0.3724149
-0.8295053
-0.4897476
-0.008348633
-0.2683257
-0.2602983
0.01742369
0.3572349
-0.8688194
-0.4592026
0.1685649
0.07662793
-0.2884963
0.02087742
0.3768556
0.3828973
0.3474558
0.4297849
0.7402359
-0.2645361
0.01073956
0.3759102
-0.7821705
-0.5623476
-0.07354008
-0.2580046
-0.2606483
0.005971968
0.3582048
-0.822674
-0.556554
0.1131387
0.02558849
-0.3065147
-0.01374555
0.3694574
0.376266
0.2777248
0.5939876
0.6545774
-0.2872266
-0.01703432
0.3719972
-0.7275136
-0.5830482
-0.2571834
-0.2542349
-0.2807752
-0.01740554
0.3592584
-0.7737684
-0.632224
-0.03941126
-0.004716843
-0.298217
0.002388865
0.3743703
0.3989983
0.2986813
0.5030227
0.7060864
-0.2748684
-0.005456686
0.3739457
-0.7780538
-0.5608338
-0.1560147
-0.2361299
-0.2688981
-0.007916242
0.3566151
-0.8130129
-0.5809359
0.03177515
0.0226702
