0.01265428
0.1082734
0.2463559
0.1359007
0.9479597
-0.05962545
-0.2816885
0.019869
0.0860275
0.2211973
-0.09009899
0.4124618
-0.6639744
0.6171674
0.03560092
0.06945822
0.2499994
0.1026415
0.1948999
-0.7578084
0.6141703
0.03246756
0.06102884
0.270645
0.3028668
-0.06449518
-0.779233
0.5448927
0.04787375
0.08751985
0.2690392
0.621388
0.1423572
-0.355997
0.6832844
0.03615394
0.06780663
0.2639711
-0.9411897
0.09251042
0.3171406
-0.07089245
0.02711863
0.07001102
0.2504643
-0.9254688
0.1844741
0.2446086
0.2228083
0.03370342
0.0910497
0.2785613
0.6545122
0.1393959
-0.2527724
0.6987767
0.02399414
0.06876844
0.2695939
-0.9620159
0.06099455
0.2631994
-0.03913088
0.01484475
0.07145238
0.2530479
-0.9375243
0.1311895
0.2272552
0.2284575
-0.00155071
0.1026891
0.2875985
0.6545346
0.08932066
-0.07231233
0.7472464
-0.002657817
0.08459982
0.2810327
-0.9891225
-0.03114857
0.1008639
-0.1024354
-0.005546447
0.08525288
0.2669466
-0.9721586
0.001167051
0.09674772
0.2134154
0.01497179
0.0968343
0.2841056
0.6645493
0.08835663
-0.178519
0.7202072
0.008268113
0.0751968
0.2742772
-0.9817389
0.04196332
0.1746756
-0.06258082
0.002299803
0.07702857
0.2567917
-0.9556167
0.09270976
0.1432531
0.2401669
