-0.1302653
0.05814677
0.06099483
0.04258105
0.8615905
-0.4676743
-0.19269
-0.1197789
0.03121337
0.06182472
-0.2888145
-0.04811075
-0.5919613
0.7509018
-0.1161119
0.04955873
0.09474094
-0.1407857
-0.2012699
-0.5570342
0.7933365
-0.1238299
0.05898955
0.1145679
0.04075317
-0.3677579
-0.4820316
0.7941907
-0.08763222
0.08935669
0.08606903
-0.17386
0.1878083
-0.1463746
0.9555497
-0.07677221
0.09391296
0.1132045
0.01321561
0.1420003
-0.1775802
0.9737179
-0.07291515
0.09138876
0.1289625
0.1302402
0.1099096
-0.193733
0.9661392
-0.109152
0.07784522
0.09360999
0.2692945
0.1579471
-0.1363519
0.9401816
-0.1079559
0.05421102
0.106089
0.8396285
0.04849082
-0.20008
0.5026337
-0.1142739
0.03988886
0.0951263
-0.9531633
0.007163703
0.1956885
-0.2305092
-0.1513186
0.09015673
0.09871103
-0.1059184
0.08455556
0.1681141
0.9764063
-0.1479416
0.09351429
0.1224452
0.0340617
0.07297873
0.1585903
0.9840544
-0.1456362
0.09087545
0.1362123
0.2081138
0.0561508
0.1422319
0.9660776
-0.1288454
0.07862145
0.09619105
0.2792658
0.1596844
-0.05407243
0.9452977
-0.1252839
0.0562259
0.1064472
0.8536544
0.09110781
-0.1454305
0.4917557
-0.1292254
0.04189774
0.09475119
-0.9562316
-0.05032637
0.1606043
-0.2393632
