-0.1144036
0.09134138
0.3024749
0.0411545
0.960326
-0.1913188
-0.1986892
-0.09169774
0.06670552
0.2774255
-0.2893066
0.421977
-0.5866027
0.6278012
-0.06088869
0.06086302
0.2992547
-0.1926972
0.3380408
-0.642803
0.6598489
-0.04612659
0.05631071
0.3171124
-0.0996127
0.2540363
-0.6830945
0.6774399
-0.07762621
0.08695972
0.3349141
0.4705505
0.1428493
-0.2216259
0.842056
-0.08197583
0.06415269
0.3370684
-0.9292729
0.01001441
0.2376297
-0.2826373
-0.08916683
0.05950433
0.3234492
-0.9734413
0.0901374
0.194682
0.07991423
-0.09270272
0.08906198
0.3424168
0.4891314
0.1775047
-0.1166376
0.8459541
-0.09362213
0.06304282
0.3425584
-0.9379542
-0.03391613
0.2144738
-0.2703567
-0.1014706
0.05698824
0.3266221
-0.9732572
0.04004646
0.2202951
0.05134828
-0.1314094
0.09151396
0.3443389
0.492477
0.1607687
0.06368762
0.8529735
-0.1266491
0.07295841
0.3445488
-0.9444649
-0.1267814
0.08304265
-0.2915758
-0.129105
0.06809375
0.3313248
-0.9859146
-0.08638342
0.1384962
0.03645645
-0.1131561
0.09029096
0.3447346
0.4999627
0.1431608
-0.0390358
0.85324
-0.1119146
0.06610453
0.3435377
-0.9547218
-0.05898308
0.1373923
-0.2571979
-0.1169342
0.06063569
0.326735
-0.9843577
-0.007066186
0.1574052
0.07882638
