-0.1646886
0.1009016
0.3017903
-0.254497
0.9346424
-0.1999028
-0.1473556
-0.1434695
0.0880926
0.2849454
-0.08820417
0.1618709
-0.3667411
0.9118766
-0.1356861
0.08566633
0.321769
0.1066059
0.02739073
-0.3893632
0.9144841
-0.1396337
0.07875091
0.3437751
0.2929883
-0.1068782
-0.390102
0.866346
-0.1338604
0.1324254
0.3420334
-0.0297718
0.1984513
0.2009359
0.9588302
-0.1223676
0.133478
0.3690282
0.1127022
0.2001285
0.1712392
0.9580835
-0.1154321
0.1294986
0.3830656
0.2528923
0.1925476
0.137496
0.9381183
-0.1448573
0.1078615
0.3429599
0.448045
0.2874408
0.1499408
0.8331574
-0.1318813
0.08634508
0.3413503
-0.9126089
-0.3018121
0.1067876
-0.2542653
-0.1348394
0.07882038
0.3239686
-0.9470623
-0.2599208
0.1883231
0.00697535
-0.1884319
0.09468204
0.3523179
0.06507519
-0.01724448
0.4374587
0.896715
-0.1853458
0.09016895
0.3756638
0.2028184
0.07867358
0.4356984
0.8734084
-0.1796538
0.085419
0.3878036
0.3132665
0.1501032
0.4238985
0.8364468
-0.162108
0.09729293
0.3447881
0.4712955
0.2636611
0.2211102
0.8120799
-0.1476323
0.07797623
0.3420736
-0.9070241
-0.3388201
0.03027811
-0.2481763
-0.1478045
0.07155395
0.3243667
-0.9401926
-0.3165017
0.1253605
0.01222063
