-0.12728
0.05431655
0.3043669
-0.214007
0.9705259
-0.06001218
-0.09316181
-0.1012449
0.04796582
0.2828184
-0.06119112
0.3000067
-0.3862318
0.8701015
-0.08790056
0.03722984
0.3150209
0.2244845
0.1319057
-0.4628143
0.8473551
-0.09157358
0.0240238
0.3334215
0.4501735
-0.02549307
-0.4858086
0.7487884
-0.09518946
0.05435771
0.3364923
0.6591265
0.243275
0.01076523
0.7115151
-0.09032287
0.03478295
0.3258879
-0.9652376
-0.2353123
0.1117191
-0.02152509
-0.09484044
0.03630507
0.3100293
-0.9356107
-0.1951476
0.1430945
0.2570488
-0.1091637
0.04596075
0.3402293
0.6676441
0.2662312
0.1171202
0.6853139
-0.0998292
0.02683187
0.3265529
-0.9512894
-0.2971626
0.08161148
0.009084124
-0.1048019
0.02953875
0.3084733
-0.9050299
-0.2582443
0.1516149
0.3020658
-0.1442971
0.03120834
0.3372751
0.6522818
0.1890259
0.3005409
0.6696812
-0.1314295
0.01942554
0.3298485
-0.9100025
-0.3921638
-0.1333034
-0.01825229
-0.130022
0.02306724
0.3159034
-0.8704129
-0.4144014
-0.03961199
0.262838
-0.1276433
0.03767443
0.3392264
0.6810541
0.2109066
0.1928845
0.6741509
-0.115964
0.02119428
0.3261383
-0.9456704
-0.3236676
-0.02681394
0.01509289
-0.1172098
0.02508467
0.3079448
-0.9006574
-0.317302
0.04516757
0.2934208
