-0.3223923
0.03957087
0.3106765
-0.519906
0.8336809
-0.1859839
0.00916488
-0.2911012
0.05925441
0.2866829
-0.430839
0.1770449
-0.09774373
0.8794766
-0.2761734
0.08597639
0.3098345
-0.3806719
0.1648229
-0.1045695
0.9038737
-0.2670973
0.1020015
0.3246147
-0.4307812
0.1770231
-0.09775034
0.8795086
-0.3056136
0.06421819
0.3469603
0.4334428
0.3918912
0.3113351
0.7494125
-0.2871349
0.05215091
0.3429253
-0.8236189
-0.5328348
0.0439036
-0.1892395
-0.2883001
0.04799384
0.3271015
-0.841181
-0.4937494
0.196231
0.1005961
-0.312082
0.04961246
0.3513046
0.4151488
0.4223571
0.4055444
0.6962756
-0.288812
0.04070154
0.3456187
-0.7739167
-0.6071554
0.002588113
-0.1800237
-0.2885795
0.03646117
0.327206
-0.790998
-0.5774382
0.1841666
0.08348668
-0.3281655
0.01434392
0.3465099
0.4289699
0.3620818
0.5668914
0.6029227
-0.3089144
0.01284021
0.344547
-0.7128373
-0.6599337
-0.1832834
-0.1508564
-0.3058708
0.01362401
0.3305432
-0.721519
-0.6848955
0.03565118
0.09517064
-0.3204934
0.03099164
0.3497416
0.4407633
0.3872929
0.4749936
0.6558301
-0.2973629
0.0249103
0.344144
-0.7624129
-0.6222765
-0.08198341
-0.1574084
-0.2951858
0.02322653
0.3258038
-0.7723612
-0.6179081
0.1108665
0.09672926
