-0.1676344
0.07839522
0.3123416
-0.3630461
0.9092385
-0.1271179
-0.159135
-0.1469067
0.07206059
0.2900758
-0.04057876
0.2659296
-0.2782031
0.9220835
-0.1344308
0.06230977
0.3232386
0.2411021
0.1158571
-0.345971
0.8993059
-0.1369926
0.04821825
0.3413868
0.4648302
-0.0244699
-0.3748835
0.801746
-0.137784
0.110067
0.3544748
-0.008684158
0.2310433
0.3131982
0.9211137
-0.1228955
0.1112621
0.3795009
0.1856809
0.3052614
0.2559535
0.8982349
-0.1118886
0.1070687
0.390645
0.317111
0.3448667
0.2081678
0.8585882
-0.1439969
0.0875631
0.3574555
0.3507422
0.3514867
0.2790811
0.821919
-0.1233235
0.07117596
0.3589912
-0.8123313
-0.4560885
0.02970931
-0.362241
-0.1210061
0.06110764
0.3432808
-0.8841607
-0.4270593
0.1633715
-0.09586478
-0.1838227
0.06221512
0.3641859
0.1048261
0.02095331
0.5097241
0.8536708
-0.1772519
0.05739224
0.386994
0.2530061
0.1478069
0.4989577
0.815587
-0.1685909
0.05313364
0.3977118
0.3748181
0.2518863
0.4730568
0.7564933
-0.1598983
0.0718368
0.3586623
0.4091419
0.3020341
0.330604
0.7950342
-0.1402698
0.05666327
0.3581417
-0.8381524
-0.4521683
-0.04006779
-0.3023889
-0.1373742
0.05012572
0.341397
-0.8908383
-0.4387631
0.117355
0.01103599
