-0.05067051
0.04255134
0.2818061
-0.1189193
0.9648132
-0.03245974
-0.2322501
-0.03632068
0.02963275
0.2567666
-0.02253436
0.3667328
-0.4814352
0.7957509
-0.02221019
0.01406074
0.2867583
0.2179542
0.1698602
-0.5723574
0.772043
-0.02621758
0.00133127
0.3054561
0.4076604
-0.01500005
-0.6024985
0.685991
-0.01191479
0.03663954
0.3024919
0.6900634
0.3030053
-0.1608516
0.6372811
-0.01459706
0.01681721
0.2904171
-0.9478563
-0.1536252
0.2781527
0.02447108
-0.0238845
0.01940861
0.277066
-0.908859
-0.06723603
0.2841371
0.2978604
-0.02588261
0.03047687
0.3107331
0.7106369
0.2957512
-0.05267293
0.6362013
-0.02470014
0.01065844
0.2947614
-0.9537427
-0.211698
0.200934
0.07200313
-0.03350597
0.01486242
0.2783359
-0.9040613
-0.1482629
0.2272884
0.3301988
-0.06290625
0.02268344
0.3175651
0.7300734
0.198244
0.1273067
0.6414711
-0.0547182
0.008142292
0.3062721
-0.9521356
-0.3006188
-0.05179663
-0.01958142
-0.05489422
0.01160729
0.2925266
-0.897557
-0.3009256
-0.001012902
0.3222333
-0.04545485
0.02603585
0.3149192
0.7354187
0.2275352
0.0201327
0.6379513
-0.04077782
0.007435769
0.2985461
-0.9674515
-0.2417436
0.0673869
0.03250638
-0.04476466
0.01178485
0.2811562
-0.9070753
-0.205273
0.09803157
0.3542135
