-0.08128192
0.08638132
0.3044855
-0.2285652
0.9618011
-0.1030355
-0.1099107
-0.05550729
0.07739288
0.283283
-0.0771341
0.2882112
-0.3890531
0.8715632
-0.04278521
0.06881458
0.3163949
0.1918029
0.09359816
-0.4571293
0.863414
-0.04750813
0.05772299
0.3357555
0.4215674
-0.09644625
-0.47341
0.7673735
-0.04863824
0.09066308
0.335806
0.6205934
0.26961
0.008163317
0.7362797
-0.04275062
0.07018524
0.3268353
-0.9530248
-0.2641206
0.1254878
-0.07897409
-0.04738921
0.06992418
0.3111012
-0.9352636
-0.2156387
0.1633054
0.2282835
-0.0620848
0.0821659
0.340825
0.6252897
0.295641
0.1150025
0.7130103
-0.0513164
0.06177565
0.3289669
-0.9377512
-0.3302057
0.08964491
-0.05958816
-0.05595133
0.06187546
0.3106766
-0.9110066
-0.2867595
0.1658774
0.2456027
-0.09687728
0.06555295
0.3394035
0.626892
0.2178199
0.2980327
0.686103
-0.08312019
0.05354193
0.3327701
-0.8908036
-0.4270941
-0.1380958
-0.07063438
-0.08101372
0.05593124
0.3186371
-0.8664559
-0.4513907
-0.04649935
0.2081787
-0.0803775
0.07304472
0.3409072
0.6425053
0.2403482
0.1926933
0.7016332
-0.06732327
0.05533177
0.3294643
-0.9319039
-0.3569891
-0.02400117
-0.0594808
-0.06793822
0.05667704
0.3109859
-0.9056931
-0.349496
0.0543939
0.2336963
