-0.09870339
0.07908711
0.2962418
0.0695911
0.9417092
-0.2402209
-0.225022
-0.0934834
0.05384719
0.284758
-0.09326597
0.1101198
-0.6512331
0.7450306
-0.08871379
0.0535275
0.3223132
0.04324031
-0.03878213
-0.6578811
0.7508786
-0.09561343
0.05312142
0.3442859
0.2256574
-0.2383121
-0.6236607
0.7094599
-0.05281032
0.08888814
0.3316135
0.06075671
0.2380973
-0.1754902
0.9533213
-0.04134136
0.07943484
0.3569693
0.2364724
0.2157122
-0.2151543
0.9226363
-0.03711261
0.06982282
0.3693736
0.3397799
0.1967027
-0.2362966
0.8888316
-0.0777056
0.07810789
0.3331196
0.5147221
0.136191
-0.1693856
0.8293502
-0.08205573
0.0526157
0.3320983
-0.9497855
0.01981589
0.214599
-0.2268527
-0.0900981
0.04794392
0.3153403
-0.9753768
0.07963909
0.1989586
0.0520875
-0.1161114
0.09127963
0.3442988
0.1983021
0.06257889
0.08867039
0.9741138
-0.1127414
0.07794508
0.3638576
0.4734989
0.02484968
0.05462992
0.8787473
-0.1113664
0.06558669
0.3717884
0.4899452
0.02229906
0.05224009
0.8699009
-0.09691285
0.08118683
0.3363519
0.5134825
0.1198845
-0.08668749
0.8452507
-0.09840173
0.05778807
0.334318
-0.9649728
-0.006233635
0.1547928
-0.2117262
-0.1042745
0.05276287
0.3168828
-0.9870096
0.03038191
0.1571187
0.01424037
