-0.1242325
0.1069601
0.2974383
-0.133018
0.94691
-0.176361
-0.2335903
-0.09879985
0.09346414
0.2657614
-0.3894371
0.444432
-0.4259479
0.6851184
-0.06346336
0.09839839
0.2800759
-0.321061
0.4009254
-0.4670894
0.7197265
-0.04263755
0.1004217
0.2914845
-0.3131097
0.3957475
-0.4714791
0.7232246
-0.08524463
0.1103532
0.3217472
0.5404322
0.2725588
-0.1406183
0.7834994
-0.08464701
0.08783734
0.3179142
-0.9425262
-0.1455894
0.2558332
-0.1581058
-0.09262869
0.08552343
0.3038978
-0.9478269
-0.05508021
0.260298
0.1756002
-0.09842341
0.1070659
0.3313577
0.5478647
0.3090433
-0.03144345
0.7767548
-0.09349449
0.08243805
0.3250732
-0.9353722
-0.2014104
0.2369121
-0.1684799
-0.1022551
0.07862258
0.3089823
-0.937438
-0.1092801
0.2894359
0.1596715
-0.1348202
0.0975458
0.3394734
0.5577486
0.2628693
0.157504
0.7713681
-0.1255201
0.08111113
0.3351965
-0.9350677
-0.2842396
0.07249896
-0.1989982
-0.1280978
0.07832444
0.3214667
-0.946553
-0.2409944
0.1739682
0.1252767
-0.1174201
0.1019545
0.3365672
0.5659339
0.2690338
0.04872248
0.7777956
-0.110532
0.07975149
0.3294377
-0.9488003
-0.2262558
0.153657
-0.1580375
-0.1164475
0.07663429
0.3123096
-0.9475595
-0.1625449
0.2198512
0.1654561
