-0.08325324
0.08635882
0.2873785
0.008690089
0.9606815
-0.1980366
-0.1944148
-0.06966132
0.06390887
0.2716112
-0.1152425
0.2047004
-0.6028693
0.7624733
-0.06083017
0.06064659
0.3076509
0.07182064
-0.006053439
-0.6298503
0.7733652
-0.06794948
0.05818546
0.3292761
0.2732917
-0.2401199
-0.6002607
0.7122789
-0.04863881
0.0827893
0.3152534
0.5771978
0.1382573
-0.2203173
0.7740723
-0.05399751
0.06042224
0.3115135
-0.9644864
-0.005799005
0.2125444
-0.1567079
-0.06055164
0.0586527
0.2964098
-0.9746761
0.05105641
0.1754546
0.1289006
-0.0638435
0.08307421
0.3228979
0.5878494
0.165635
-0.1129308
0.7837377
-0.06529395
0.05842802
0.3165479
-0.9741294
-0.0668939
0.1740886
-0.1276334
-0.07181999
0.05632076
0.2985037
-0.977881
-0.02377805
0.1720251
0.1165798
-0.1013135
0.08432379
0.3266652
0.5691378
0.1485008
0.07854078
0.8048983
-0.09580216
0.06690037
0.323125
-0.9674081
-0.1970578
0.02380294
-0.1572361
-0.09659475
0.06518084
0.3086035
-0.9751329
-0.1865643
0.05845061
0.1043699
-0.08345351
0.08322662
0.3256323
0.5932883
0.1362621
-0.029651
0.7928194
-0.08194663
0.06042361
0.3187701
-0.9816908
-0.09900505
0.09945284
-0.1288036
-0.08566669
0.05824012
0.3003109
-0.9852613
-0.07398295
0.109929
0.1081778
