-0.1247454
0.05639809
0.05272359
0.0126563
0.8568031
-0.4719536
-0.2073356
-0.1120337
0.03001255
0.05187729
-0.3220709
-0.01407908
-0.5735312
0.7530831
-0.1049689
0.04874364
0.08403102
-0.1771856
-0.1587819
-0.5467727
0.802766
-0.1104016
0.05836889
0.1044423
0.01082952
-0.3259226
-0.4804435
0.8141446
-0.08207131
0.08860588
0.07561934
-0.165227
0.2115677
-0.1271371
0.9548693
-0.07068765
0.09150177
0.102212
0.07791635
0.1477301
-0.1720529
0.9708258
-0.06710745
0.08693281
0.1174667
0.1963631
0.1120637
-0.190108
0.9553755
-0.1030189
0.07656372
0.08440232
0.2699476
0.1798695
-0.122174
0.9380026
-0.1012408
0.05325684
0.09623593
-0.845513
-0.04016855
0.2140734
-0.4875109
-0.1083374
0.03930208
0.08518207
-0.9478737
0.02235761
0.2183233
-0.2310207
-0.1450342
0.08678547
0.09222829
-0.07993758
0.1001431
0.1896521
0.9734545
-0.14043
0.08796394
0.1159841
0.1296869
0.09362283
0.1684635
0.9726439
-0.1370051
0.08216202
0.1285129
0.36749
0.07997487
0.1340859
0.9168294
-0.1224975
0.07674879
0.08793107
0.2797207
0.1833622
-0.04019906
0.9415512
-0.1179934
0.05461806
0.09757811
-0.8572587
-0.1055987
0.1560353
-0.4791759
-0.1222247
0.04054058
0.08569083
-0.9547541
-0.05997981
0.1781455
-0.2304588
