-0.08423124
0.09210873
0.2865781
0.03070829
0.9486459
-0.2184497
-0.2267326
-0.07533263
0.06978047
0.2729828
-0.1317197
0.1347633
-0.6076384
0.7715339
-0.06782734
0.07071218
0.3099918
0.018553
-0.02477344
-0.6178148
0.7857143
-0.07344307
0.07036659
0.3324204
0.2003828
-0.2175006
-0.5897302
0.7515042
-0.0392483
0.1007668
0.3221689
0.1271475
0.2333246
-0.1497127
0.9523546
-0.02885741
0.08759964
0.3467331
0.3186103
0.1939711
-0.1947809
0.9071511
-0.0258694
0.0757063
0.357887
0.435594
0.1632479
-0.2199247
0.8574621
-0.06327421
0.08963561
0.3219505
0.5582943
0.155887
-0.1480387
0.801306
-0.06610294
0.06381279
0.317951
-0.9624258
-0.04066919
0.193316
-0.1863109
-0.07320224
0.06000012
0.3004907
-0.979576
0.0106967
0.182733
0.08321803
-0.103271
0.1007994
0.3352602
0.2156711
0.01494908
0.131286
0.9674847
-0.1010234
0.08786356
0.3550599
0.4210853
0.004242776
0.116501
0.899498
-0.09951535
0.07652497
0.3634045
0.4990811
-0.0009837316
0.1085479
0.8597293
-0.08199485
0.09088671
0.3254617
0.5645218
0.1505473
-0.06770355
0.808744
-0.08172917
0.06706464
0.320403
-0.9713582
-0.07841852
0.1407031
-0.1746898
-0.08688805
0.06312865
0.3024662
-0.9861265
-0.04418866
0.1480242
0.06075121
