-0.07114022
0.001653075
0.2823333
-0.06138532
0.9815505
0.05773841
-0.1716301
-0.04532043
0.0008859336
0.2480438
-0.2464672
0.512379
-0.3747181
0.7323306
-0.009402501
8.425117E-05
0.2615254
-0.249425
0.51351
-0.3726494
0.7315922
0.01272019
0.002685905
0.266307
-0.4550921
0.5746078
-0.206598
0.6481006
-0.03565244
-0.01413906
0.3084379
0.7202356
0.2001093
-0.1363639
0.6500937
-0.03856858
-0.0324128
0.2958715
-0.9753393
-0.08856627
0.1850122
0.08148505
-0.04475147
-0.0268454
0.2817388
-0.9066994
-0.02386218
0.1724174
0.3841864
-0.05044802
-0.01891881
0.3148339
0.7228208
0.2137505
-0.02061265
0.6568226
-0.04947972
-0.03797799
0.299693
-0.9718413
-0.135305
0.1641891
0.1012871
-0.05672107
-0.03131759
0.2836589
-0.8872963
-0.07421786
0.1941788
0.4116936
-0.0889291
-0.02124375
0.3172717
0.6900925
0.1359345
0.1591928
0.6927855
-0.08185807
-0.03624451
0.3084695
-0.9771399
-0.2113622
-0.02093497
-0.009241009
-0.08302964
-0.03241313
0.295119
-0.90482
-0.2030631
0.06022858
0.3693763
-0.07065023
-0.02090168
0.3165444
0.7282923
0.1577264
0.04937794
0.6650372
-0.0671187
-0.03834698
0.3018661
-0.9814582
-0.150807
0.07444847
0.09194875
-0.07136497
-0.03144306
0.2854885
-0.8868482
-0.1144616
0.1170651
0.4320819
