0.00412958
0.1212249
0.3421122
-0.04943032
0.9794618
-0.004082276
-0.1954344
0.01626557
0.1065511
0.3189987
0.0673352
0.274705
-0.5412831
0.7918433
0.02457869
0.09021658
0.3523358
0.1849851
0.1378255
-0.5842965
0.7780632
0.02128122
0.07965124
0.3730442
0.3056479
-0.01647243
-0.6081027
0.7324746
0.04775693
0.116606
0.3812792
0.3050395
0.2559018
-0.04547342
0.9161864
0.05840731
0.09494761
0.3973479
0.5721272
0.2140015
-0.1273624
0.7814426
0.06032727
0.07876575
0.3995807
0.7168224
0.174876
-0.1745507
0.6520094
0.02705625
0.1053496
0.3803625
0.6115294
0.2102116
-0.02875058
0.7622443
0.02978041
0.07953238
0.372281
-0.9630824
-0.1322339
0.1657818
-0.1658396
0.02343811
0.07595134
0.3545356
-0.9705638
-0.08020222
0.1992489
0.1089656
-0.01779774
0.1087571
0.3920976
0.2836416
-0.03360605
0.1892673
0.9394658
-0.01618038
0.09289861
0.4111532
0.4388033
-0.03397828
0.1825525
0.8791882
-0.01448298
0.08045852
0.4191808
0.5364754
-0.03396545
0.1750284
0.8248671
0.006045758
0.1034808
0.3814701
0.6463789
0.1564135
0.0332982
0.74607
0.01027198
0.07977021
0.3716935
-0.9764709
-0.1366066
0.0798572
-0.1465135
0.006983352
0.07769156
0.3533362
-0.9745418
-0.1054771
0.1200672
0.1572473
