-0.1056073
0.06671536
0.2995898
-0.2518833
0.9555766
-0.07097372
-0.135613
-0.07558329
0.07075751
0.2680609
-0.3722725
0.3982708
-0.2815523
0.789634
-0.043123
0.08495641
0.2832021
-0.3841823
0.4065646
-0.2765318
0.7814342
-0.02268958
0.094441
0.2902494
-0.4624048
0.4599321
-0.2399986
0.7190585
-0.07079522
0.07061785
0.3295068
0.620693
0.2976616
0.01514912
0.7251954
-0.06492297
0.05122477
0.3199376
-0.948815
-0.2728213
0.1552085
-0.03505819
-0.070904
0.05190212
0.3045486
-0.9204989
-0.2150701
0.1993432
0.2582421
-0.08342221
0.06153888
0.3356932
0.618503
0.3199836
0.1264231
0.7064572
-0.07253724
0.04178393
0.323695
-0.933327
-0.3343591
0.1212292
-0.04907327
-0.07857791
0.04188782
0.3059106
-0.8994004
-0.2768243
0.2121777
0.2634919
-0.1176539
0.04332906
0.3352576
0.6307375
0.2389271
0.3031643
0.673183
-0.1042868
0.03103945
0.3279629
-0.9135329
-0.3909347
-0.07833669
-0.08056857
-0.1042635
0.03269973
0.3139203
-0.8819214
-0.3939542
0.05773848
0.252351
-0.1012409
0.05172765
0.3360688
0.642588
0.2745689
0.1976452
0.6874803
-0.08872378
0.03460312
0.323851
-0.9345798
-0.3520337
0.03288721
-0.03938716
-0.09202453
0.03617561
0.3059117
-0.8914712
-0.3197243
0.1402151
0.2887825
