-0.1725594
0.08017498
0.3091728
-0.3016523
0.9204206
-0.177761
-0.1738761
-0.1521798
0.06922981
0.2897784
-0.08411766
0.2007719
-0.3250672
0.9202968
-0.141816
0.06553313
0.3256356
0.1210698
0.06791883
-0.3586683
0.9230852
-0.1440828
0.05716234
0.3471976
0.3147053
-0.06607553
-0.3704188
0.8714267
-0.1402895
0.1128685
0.3475051
-0.01219044
0.2580296
0.2379017
0.9363093
-0.1250444
0.1131471
0.3721144
0.1834252
0.2817693
0.1806379
0.9243004
-0.1154664
0.1084978
0.3842307
0.2580253
0.2863183
0.1558994
0.9094725
-0.1489032
0.08891386
0.3496385
0.4176254
0.360295
0.179072
0.8146839
-0.1328774
0.06869814
0.3478906
-0.8728591
-0.3656496
0.1339506
-0.2940661
-0.1360042
0.05933762
0.3316148
-0.9195756
-0.3073158
0.2433654
-0.02666552
-0.1908262
0.07081974
0.361623
0.09648978
0.03729942
0.4673574
0.8779952
-0.1841953
0.06597304
0.3843643
0.2622268
0.1433837
0.4520055
0.8404577
-0.176481
0.06102219
0.3956373
0.3368012
0.1895963
0.4381615
0.8115619
-0.1658595
0.07646
0.3529207
0.4489978
0.3146698
0.2497472
0.7981293
-0.1489062
0.05832219
0.3503615
-0.8741022
-0.3935958
0.03480734
-0.2825176
-0.1486836
0.05078691
0.3333051
-0.9184468
-0.363888
0.15478
-0.009177144
