-0.1557216
0.1145469
0.2992618
-0.1748967
0.9423527
-0.1732185
-0.2266673
-0.134356
0.09978288
0.2752209
-0.2143648
0.3418996
-0.443472
0.8003031
-0.1133438
0.09793693
0.3054955
0.007771576
0.1598293
-0.513338
0.8431361
-0.1130966
0.09223133
0.326932
0.2935
-0.09649569
-0.5352002
0.7861979
-0.1194208
0.1193025
0.3210779
0.6032701
0.2708266
-0.130872
0.7386411
-0.118117
0.09611183
0.3138457
-0.9450005
-0.2111847
0.2004135
-0.1490285
-0.1242208
0.09458178
0.2993249
-0.9395698
-0.125849
0.1959178
0.2509723
-0.1319714
0.1143571
0.3309531
0.6081223
0.3012142
-0.0200913
0.7342027
-0.124693
0.08967367
0.320626
-0.9307774
-0.3087224
0.130158
-0.1462972
-0.1294925
0.08733088
0.3030055
-0.9257914
-0.2485103
0.1676523
0.2303164
-0.1662968
0.102101
0.3390997
0.6219069
0.2570604
0.1704078
0.7198007
-0.1550052
0.08705765
0.3320304
-0.906887
-0.3960027
-0.05022285
-0.1349653
-0.1543639
0.08717424
0.3177781
-0.8970565
-0.3991256
0.02035784
0.1886108
-0.1499633
0.1078252
0.3361205
0.6249467
0.2620386
0.06303051
0.7326696
-0.1401173
0.08598202
0.3256524
-0.9311156
-0.3327136
0.03675902
-0.1448253
-0.1416916
0.08454579
0.30768
-0.9219766
-0.3073522
0.08643627
0.2191407
