-0.1239942
0.1065389
0.2983469
-0.1305253
0.9488122
-0.161188
-0.2381954
-0.09921845
0.09397244
0.2658843
-0.387757
0.4533018
-0.4180751
0.6851097
-0.06376518
0.0989812
0.2797476
-0.3226015
0.4047325
-0.4570335
0.7233535
-0.04291284
0.1012215
0.290966
-0.3139881
0.3981975
-0.4617312
0.7277737
-0.08518587
0.1084817
0.3218989
0.565264
0.2677209
-0.1499018
0.7657229
-0.08519427
0.08614045
0.3167754
-0.9489641
-0.1499183
0.2461779
-0.1280162
-0.09294054
0.08477759
0.3024918
-0.945645
-0.06313065
0.2438
0.2057467
-0.09823261
0.105127
0.3315085
0.572364
0.3048878
-0.04009124
0.760155
-0.09410554
0.08062434
0.3239013
-0.9408514
-0.1968218
0.2366349
-0.1416463
-0.1030185
0.07778794
0.3076609
-0.934677
-0.106381
0.2850966
0.1837989
-0.1343753
0.09590614
0.3399008
0.5808589
0.2572228
0.1495779
0.7576714
-0.1254482
0.07947659
0.3346807
-0.9410301
-0.281924
0.06902055
-0.173832
-0.1281007
0.07746235
0.3208357
-0.9437836
-0.2407469
0.1663073
0.1538034
-0.1171096
0.1001726
0.3367988
0.5897455
0.2648036
0.04012255
0.7618855
-0.1108409
0.07811564
0.3284354
-0.9538846
-0.2221956
0.1525859
-0.1321016
-0.1168934
0.07598063
0.311204
-0.9441178
-0.1593653
0.2149302
0.1924822
