-0.08291607
0.0881221
0.2798628
-0.02161059
0.9532712
-0.1684729
-0.249848
-0.06239856
0.07244009
0.2481508
-0.433388
0.4179957
-0.461657
0.6514041
-0.02595768
0.08000869
0.257754
-0.4633968
0.4231833
-0.4396069
0.6425925
-0.003475302
0.08615369
0.2614955
-0.5339953
0.4332102
-0.3828078
0.6169572
-0.03879963
0.09693801
0.3133853
0.1785781
0.2000716
-0.1015314
0.9580045
-0.02877568
0.08588275
0.3381122
0.1785777
0.2000716
-0.1015314
0.9580046
-0.02334806
0.07834458
0.35022
0.3466643
0.2453973
-0.1217311
0.8970985
-0.05756689
0.08458978
0.3186529
0.495412
0.2160255
-0.09549429
0.8359311
-0.05689123
0.05875528
0.3177558
-0.9374421
-0.06907777
0.2301029
-0.2519589
-0.06531623
0.05246708
0.3018278
-0.9683113
0.001723414
0.2484145
0.02570234
-0.1008953
0.09297508
0.3323222
0.1375127
0.01506028
0.1861428
0.9727355
-0.09719127
0.08376378
0.3540587
0.3380919
0.08670109
0.1828998
0.919089
-0.09234154
0.07399583
0.363068
0.5140483
0.1441104
0.1693775
0.828431
-0.07711156
0.08504087
0.3240417
0.4798066
0.1884428
-0.011642
0.8568194
-0.07334387
0.06076646
0.3235702
-0.938477
-0.1166763
0.1450178
-0.2908908
-0.07833408
0.0537698
0.3074066
-0.9805567
-0.05896094
0.1826086
0.04106501
