-0.1277748
0.1092821
0.298197
-0.1192353
0.9533451
-0.14498
-0.2364253
-0.1029206
0.09713352
0.2652935
-0.3781029
0.4645849
-0.4193987
0.6821319
-0.0671591
0.1013023
0.2789337
-0.317643
0.4135023
-0.4562205
0.7210976
-0.04611152
0.1031653
0.2900657
-0.3069209
0.4043044
-0.4621513
0.7271546
-0.08904622
0.109275
0.3220472
0.5785891
0.258033
-0.1554587
0.7579488
-0.0896197
0.08687043
0.3164427
-0.9521393
-0.1401256
0.2423489
-0.1227297
-0.0972642
0.08575034
0.3020543
-0.9470085
-0.05549337
0.2371136
0.2094578
-0.1024245
0.1061673
0.3314235
0.5892626
0.2896714
-0.04595929
0.7528266
-0.0990581
0.08147529
0.3232238
-0.9465577
-0.1807313
0.2309481
-0.1342673
-0.1078458
0.07910842
0.3068218
-0.9369863
-0.09268336
0.276219
0.1927945
-0.1387175
0.09775829
0.3394994
0.5938469
0.2395153
0.1442598
0.7544319
-0.1303882
0.08115807
0.3339829
-0.9498281
-0.2593601
0.06648052
-0.1616769
-0.1330475
0.07954043
0.3200533
-0.9484504
-0.2205429
0.1587843
0.1630655
-0.1214277
0.1016195
0.3364545
0.6062095
0.2489976
0.03353669
0.7545764
-0.1158927
0.07945365
0.3275058
-0.960276
-0.2032074
0.1482536
-0.1208209
-0.121866
0.07783806
0.3101411
-0.9469829
-0.1435296
0.2060907
0.2003728
