-0.08328685
0.09339756
0.2825934
0.04481087
0.9378298
-0.2462997
-0.2404241
-0.07515676
0.07024497
0.2703709
-0.1659294
0.1333022
-0.6183162
0.75656
-0.066447
0.07269916
0.3070564
0.002067947
-0.02604865
-0.6293896
0.7766505
-0.07267541
0.07264432
0.328925
0.2497505
-0.2585697
-0.5828659
0.7287207
-0.03743076
0.1013308
0.3156958
0.1476121
0.2481874
-0.1859574
0.9391664
-0.02746803
0.08650327
0.3393525
0.3457104
0.1936962
-0.2365709
0.8871304
-0.02523252
0.07404265
0.3500616
0.438778
0.1628764
-0.2577451
0.8452885
-0.06195474
0.09252727
0.3175305
0.5359181
0.1398825
-0.1674271
0.8155936
-0.06627721
0.06677821
0.3153301
-0.9532949
0.008788996
0.2131777
-0.2137918
-0.07424497
0.06236231
0.2984231
-0.9760813
0.06615309
0.1995177
0.05551597
-0.100845
0.1034677
0.3309428
0.2399085
0.02248643
0.108626
0.9644369
-0.09832604
0.0894928
0.3506553
0.4261629
0.01774813
0.09577963
0.8993868
-0.09666348
0.07778156
0.3590815
0.5034587
0.0148597
0.08861673
0.8593345
-0.08039449
0.09489805
0.3216136
0.5350294
0.1389746
-0.08533552
0.8289436
-0.08137409
0.07111639
0.3184469
-0.9652681
-0.03329375
0.1612421
-0.2028548
-0.08738077
0.06641972
0.301043
-0.9854519
0.006718771
0.1662699
0.03455115
