0.0004898112
0.07523486
0.3855661
-0.10276
0.969259
0.2074942
-0.08320811
0.0228838
0.07306057
0.3590721
0.222571
0.4327236
-0.4136453
0.7694869
0.03588472
0.04382607
0.3790033
0.3629979
0.3376682
-0.4913914
0.7160637
0.03419442
0.02387634
0.3895753
0.554491
0.1638362
-0.5753925
0.5784643
0.03435865
0.05062294
0.4163582
0.7242339
0.1770542
-0.006358057
0.6664058
0.03612322
0.03129077
0.4034027
-0.9841632
-0.126493
0.1239131
0.008245645
0.03137441
0.03405041
0.3878448
-0.9456795
-0.08841127
0.1529592
0.2729052
0.01660859
0.04453388
0.4140182
0.8003079
0.1477616
0.07726201
0.5759379
0.02149433
0.03001803
0.394915
-0.9607729
-0.1818588
0.02171809
0.2082577
0.01828136
0.04045212
0.379193
-0.8670505
-0.1654945
0.05509353
0.4666903
-0.02265701
0.04234815
0.4088495
0.7751978
0.01225138
0.2282771
0.588904
-0.01386537
0.02887273
0.39713
-0.9720152
-0.1571404
-0.1674889
0.04940509
-0.01106753
0.03481138
0.3847582
-0.8844627
-0.2080416
-0.09719619
0.4061987
-0.004006802
0.04243085
0.4116141
0.8059832
0.07259607
0.1330514
0.5722048
0.002694133
0.02917975
0.3936085
-0.965201
-0.1615918
-0.05939661
0.1968428
0.002539794
0.03967983
0.378154
-0.8684399
-0.1697735
-0.0207964
0.4653566
