-0.1146152
0.08783799
0.2948695
0.3225915
0.9005955
-0.237103
-0.1692474
-0.114961
0.05836654
0.2856632
-0.09987549
0.08882156
-0.8191546
0.5577827
-0.1106524
0.06023079
0.3232817
-0.002532086
-0.1015931
-0.8163557
0.5685383
-0.1165131
0.06582272
0.3452363
0.1041514
-0.304681
-0.7703228
0.5503861
-0.07266234
0.08683825
0.3403055
-0.06703489
0.1464995
-0.3727109
0.913855
-0.0639129
0.0858776
0.3702331
0.009224045
0.1196633
-0.3836903
0.9156296
-0.0606557
0.08350003
0.387172
0.05892774
0.1020256
-0.3894608
0.9134761
-0.09848483
0.08700109
0.3391657
0.3862582
-0.007206971
-0.3179415
0.8658325
-0.1118345
0.06725961
0.345318
-0.8765898
0.2919967
0.2340695
-0.3025553
-0.1208861
0.06345248
0.3297465
-0.9182122
0.3677982
0.1356928
0.05655482
-0.131604
0.1065381
0.332022
0.4165763
-0.003399131
-0.1484199
0.896897
-0.136418
0.08888155
0.3360465
-0.9229922
0.1295027
0.1135951
-0.3441087
-0.1399494
0.08368236
0.3233582
-0.9835207
0.1658121
0.07140936
0.009701631
-0.1163616
0.09628713
0.3354108
0.4445972
-0.02718027
-0.2446408
0.8612465
-0.1271964
0.07566687
0.3373935
-0.9226989
0.2303054
0.1641845
-0.261973
-0.1337928
0.07122749
0.3205483
-0.9559962
0.2732798
0.1015818
0.03272055
