-0.1474578
0.1183245
0.296932
-0.2324453
0.9304063
-0.1636824
-0.231347
-0.1220055
0.1120448
0.2641492
-0.410992
0.4182124
-0.3352043
0.737443
-0.08872831
0.1227632
0.2796429
-0.3123576
0.3681397
-0.3854589
0.786338
-0.06957455
0.1273081
0.2929268
-0.27496
0.3482488
-0.4021806
0.8008562
-0.1089881
0.1273361
0.3197464
0.5441376
0.3386649
-0.07301561
0.7641264
-0.1045559
0.1056365
0.3138797
-0.9264309
-0.2523056
0.2439485
-0.1362233
-0.1123438
0.1032158
0.29986
-0.9250126
-0.156942
0.2786913
0.2050664
-0.1206447
0.1210608
0.3295958
0.5464306
0.3761974
0.03700352
0.7473418
-0.1118014
0.09832558
0.3211082
-0.9137562
-0.299087
0.2341497
-0.1441197
-0.1206091
0.09429842
0.3050788
-0.9093029
-0.2024338
0.3184078
0.1755146
-0.1541526
0.1045309
0.3387952
0.5559884
0.3194452
0.2281151
0.7326631
-0.1418499
0.09005734
0.3334445
-0.9052109
-0.3733985
0.05010485
-0.1966124
-0.1439016
0.08710325
0.3196934
-0.9172854
-0.3314396
0.185682
0.1194051
-0.137988
0.1123471
0.3354011
0.5636966
0.3354467
0.1183079
0.7454697
-0.127298
0.09220102
0.3265575
-0.9232454
-0.3254754
0.1468138
-0.1418788
-0.1331608
0.08893755
0.3094671
-0.9175859
-0.2576149
0.2460947
0.1763752
