-0.1054168
0.04699332
0.25531
-0.1661753
0.9454651
-0.2355611
-0.1516327
-0.08648856
0.02951896
0.241162
-0.1096055
0.1261843
-0.4486155
0.8779569
-0.08163686
0.02948266
0.2782749
0.09019795
-0.04414934
-0.4586158
0.8829421
-0.08855358
0.02546448
0.3002951
0.2518575
-0.1836814
-0.442839
0.840668
-0.07047775
0.07443443
0.2940966
0.008772748
0.2092431
0.08808444
0.9738488
-0.05877133
0.07217568
0.3209907
0.1395451
0.1808887
0.05953965
0.9717312
-0.05301406
0.06712908
0.3352955
0.2258637
0.1606438
0.03984273
0.9599957
-0.08581194
0.05409181
0.2961448
0.4364591
0.2516887
0.07160787
0.8608302
-0.0764202
0.03025323
0.296712
-0.9196028
-0.2149709
0.1349393
-0.2998494
-0.08045204
0.0213984
0.2802219
-0.9659703
-0.1665454
0.1955217
-0.03058198
-0.1312741
0.04856378
0.3049351
0.05009687
-0.01364759
0.3595622
0.9316755
-0.1291977
0.04388422
0.328627
0.2088443
0.03966897
0.3563358
0.9098545
-0.1254232
0.03809446
0.3413513
0.2879769
0.06451062
0.3503825
0.8888981
-0.1050828
0.04702833
0.298502
0.4476212
0.2162049
0.1518551
0.8543014
-0.09361756
0.02523571
0.2985106
-0.9144357
-0.2607123
0.04026511
-0.3069449
-0.09396526
0.01718336
0.2816866
-0.9644015
-0.2362464
0.1175719
-0.01715638
