-0.01046923
0.1060439
0.2778533
-0.01769111
0.9569874
-0.1724234
-0.2326633
0.0005263053
0.08401215
0.2604386
-0.09034529
0.2115767
-0.5819013
0.780041
0.009994576
0.07951295
0.2965447
0.06339893
0.02650386
-0.6094717
0.7898242
0.004943132
0.07639247
0.3189105
0.2296115
-0.1806629
-0.5980818
0.7462826
0.03468781
0.1156887
0.3133215
0.1334028
0.249042
-0.09145238
0.9548918
0.04517511
0.1012567
0.3353738
0.4343355
0.184178
-0.1703863
0.865101
0.04676821
0.08706507
0.3428246
0.5891985
0.1349514
-0.2090805
0.7687123
0.01318798
0.1023837
0.3156227
0.5271213
0.2039211
-0.09764164
0.8191615
0.01283193
0.0770362
0.3128725
-0.9509327
-0.05021965
0.2285346
-0.2024278
0.004203631
0.07231337
0.2962411
-0.9687057
0.0120487
0.2433316
0.04747425
-0.02985733
0.1114845
0.3296362
0.1290536
0.005055405
0.1884189
0.9735594
-0.02669759
0.1036367
0.352321
0.2570359
0.08510134
0.1924878
0.9432067
-0.02191368
0.09600973
0.3634284
0.3927343
0.1608745
0.1891483
0.8854954
-0.00648994
0.1018321
0.3192666
0.5438735
0.178874
-0.02144476
0.8196011
-0.003847233
0.07762685
0.3152046
-0.9596623
-0.1097825
0.1422496
-0.2162434
-0.009023994
0.07246429
0.2977988
-0.9817778
-0.0659513
0.1694654
0.0551741
