-0.03687882
0.03197953
0.1274701
0.04739968
0.8264605
-0.5440311
-0.136918
-0.02148606
0.006342471
0.1326184
-0.351514
-0.09052084
-0.5948793
0.7171907
-0.01820888
0.02913892
0.1621509
-0.1759138
-0.259957
-0.5416219
0.7798221
-0.02681591
0.04091936
0.1803025
-0.001830138
-0.4023132
-0.4597282
0.7917013
0.0009656642
0.07412922
0.1462955
-0.4039365
0.1207317
-0.08721882
0.9025808
0.008945981
0.09166986
0.1679691
-0.2104028
0.09841146
-0.1092648
0.9664922
0.01241082
0.09659255
0.1829415
-0.08571263
0.07607596
-0.1193147
0.98622
-0.02145327
0.05779484
0.1574322
0.2114429
0.08538442
-0.09147877
0.9693468
-0.02133489
0.03683448
0.171431
0.8480009
0.004324985
-0.1224143
0.5156457
-0.0255997
0.02199766
0.1599664
-0.959307
0.02792107
0.1148414
-0.2564408
-0.06396428
0.07091179
0.1552059
-0.3178815
0.05256669
0.2006464
0.9251643
-0.0636332
0.08063769
0.1758327
-0.005233033
0.05013555
0.1954844
0.9794105
-0.06195424
0.0788027
0.1893923
0.1971816
0.04233675
0.181776
0.9624368
-0.04017827
0.05874127
0.1585933
0.1836548
0.119451
-0.01642848
0.9755678
-0.03653111
0.03961155
0.1718222
0.8337076
0.07874075
-0.09631722
0.5380099
-0.03870051
0.02389848
0.1613541
-0.9438496
-0.05277199
0.1112454
-0.3065737
