0.08343104
0.01238176
0.227106
0.0973905
0.9146127
-0.2571026
-0.2964745
0.08611082
-0.01452982
0.2157863
-0.1545959
0.157462
-0.6773223
0.7018123
0.09485981
-0.01243633
0.2520803
-0.02136681
-0.07116156
-0.6818478
0.7277109
0.08870183
-0.0085814
0.2739128
0.127528
-0.3177902
-0.6307013
0.6963921
0.134606
0.02283472
0.2547629
-0.04529125
0.2946348
-0.192853
0.9348512
0.1483431
0.0169692
0.2785307
0.216568
0.2255428
-0.2672164
0.9114956
0.1512935
0.007183254
0.2901725
0.4228498
0.1483205
-0.3146994
0.8367577
0.1106523
0.01324475
0.2640564
0.411762
0.1685883
-0.2189004
0.8683967
0.1061619
-0.01120555
0.2687674
-0.9086111
0.04621162
0.2763724
-0.3096915
0.09595777
-0.01796955
0.2543401
-0.9589263
0.130938
0.2513618
-0.0115298
0.07206357
0.03481966
0.2761762
-0.03295537
0.07443328
0.08987894
0.9926205
0.0762262
0.03411925
0.2989851
0.1280657
0.1142276
0.07555152
0.9822643
0.07986388
0.02897143
0.310972
0.3137559
0.1380317
0.05365697
0.9378836
0.0918814
0.01775971
0.2693124
0.4215234
0.1540859
-0.1412223
0.8824012
0.09058155
-0.006015152
0.2722757
-0.9271441
-0.03215861
0.1972619
-0.3169504
0.08372049
-0.01367432
0.2568615
-0.9819583
0.02910247
0.186816
-0.003296857
