0.06445269
0.1039585
0.2757728
0.04028883
0.9347175
-0.150948
-0.3192095
0.06904441
0.08061481
0.2571505
-0.1109291
0.2738399
-0.6317973
0.7166162
0.08340641
0.07395226
0.2914811
0.01068411
0.1008007
-0.668919
0.7363915
0.08230555
0.0710367
0.3143948
0.1608818
-0.1204121
-0.6715832
0.7131577
0.1159052
0.1066293
0.3037115
0.1278369
0.3225801
-0.1661303
0.9230388
0.1300328
0.0926553
0.3250648
0.3245982
0.2751288
-0.2327315
0.8745149
0.1338825
0.08007923
0.3342319
0.4937457
0.2164617
-0.2858312
0.79225
0.09410039
0.09660381
0.3099037
0.5129222
0.2481564
-0.1938564
0.7985919
0.09107713
0.06980094
0.3089053
-0.9127139
-0.0391757
0.3195373
-0.2516236
0.0796129
0.06444359
0.2948139
-0.9421303
0.06875826
0.3230381
0.05752513
0.05472705
0.1122706
0.3303621
0.1168548
0.08128815
0.1096128
0.9837288
0.06057502
0.1048069
0.352897
0.2610337
0.1456872
0.101464
0.9488634
0.06587374
0.09701413
0.3640485
0.3628183
0.1864712
0.09271769
0.9082922
0.07529579
0.09934908
0.3173802
0.518608
0.2160944
-0.1155753
0.8191407
0.07549706
0.07320732
0.3157353
-0.9233365
-0.09378017
0.2259666
-0.2959629
0.06771111
0.06602949
0.3006176
-0.9692786
-0.01254944
0.2435533
0.03199155
