-0.08297533
0.1202569
0.3028011
-0.03283193
0.9821523
-0.1085732
-0.1500359
-0.06831752
0.1015184
0.2843113
0.0007984794
0.1867994
-0.5587502
0.8080245
-0.06328341
0.09223673
0.3205834
0.1523427
0.03601495
-0.5853097
0.7955546
-0.06991173
0.08527452
0.3417065
0.3177125
-0.1393223
-0.5821071
0.7353908
-0.04419932
0.1251898
0.3465498
0.1987032
0.1839079
-0.04896375
0.961404
-0.0359141
0.1093051
0.3698922
0.4063352
0.1366429
-0.09524222
0.898415
-0.03389915
0.09587073
0.3790746
0.5339091
0.1009305
-0.1235824
0.8303502
-0.06529995
0.1118954
0.3430406
0.5855443
0.1545561
-0.02904392
0.7952401
-0.06318288
0.08604679
0.3370341
-0.9708717
-0.1018189
0.1203104
-0.1804621
-0.06771109
0.08235335
0.3187975
-0.9826313
-0.06420329
0.1399693
0.1035488
-0.1091826
0.117186
0.3510701
0.2129915
-0.04570344
0.2075303
0.953665
-0.1086954
0.104827
0.3723029
0.3356085
-0.04598339
0.2056128
0.9181372
-0.1076777
0.09466079
0.3827326
0.4318023
-0.04635231
0.2013058
0.8779945
-0.08542671
0.1103582
0.3431884
0.6001945
0.1209685
0.04565926
0.7893342
-0.08095888
0.08669907
0.3362595
-0.9770346
-0.124665
0.04529436
-0.1667647
-0.08272553
0.08373621
0.3177151
-0.9849129
-0.1075066
0.0758924
0.11238
