0.008649019
0.1698612
0.3212161
0.01875874
0.9819446
0.006628976
-0.1881195
0.01892412
0.1536519
0.2983162
0.08591014
0.2576011
-0.5931652
0.7579026
0.02368791
0.1370561
0.332095
0.2025155
0.09306381
-0.6362988
0.7385463
0.01735853
0.1278632
0.3527004
0.3184152
-0.08866722
-0.6521904
0.6822006
0.05072825
0.1631206
0.3631482
0.2212822
0.2062362
-0.08106701
0.9496995
0.0605268
0.1473918
0.3864194
0.3343913
0.1890978
-0.1068282
0.9170672
0.06433494
0.1355032
0.3969512
0.4649179
0.160795
-0.1373457
0.8597282
0.02832955
0.1516207
0.3591045
0.6378468
0.1631198
-0.07930989
0.7485008
0.02745959
0.1269173
0.3498865
-0.97831
-0.07050415
0.164246
-0.1046994
0.02110438
0.1256665
0.3316867
-0.9745345
-0.02831336
0.1736206
0.1390574
-0.01599814
0.1619172
0.3711175
0.2427808
-0.07296141
0.1310502
0.9584153
-0.01697677
0.1482893
0.3915806
0.3569478
-0.0403036
0.1430648
0.9222236
-0.0160923
0.1376912
0.4016405
0.4478786
-0.01539573
0.1503238
0.8812324
0.007420218
0.1524216
0.3603489
0.660313
0.1060676
-0.01346863
0.7433404
0.00852935
0.1295054
0.3500219
-0.9894937
-0.07446657
0.07683261
-0.09722976
0.005441933
0.1289377
0.331248
-0.9813997
-0.05245859
0.09077016
0.1608219
