0.1303039
-0.001523763
0.2270368
0.1219665
0.9139943
-0.176234
-0.3444999
0.129042
-0.02677518
0.2114775
-0.1137905
0.2371102
-0.7000304
0.6639187
0.1392112
-0.03088289
0.2469307
0.01604905
-0.01756654
-0.7266555
0.6865898
0.1338018
-0.02925113
0.2691742
0.1479581
-0.2775106
-0.691254
0.6505877
0.1848318
0.001013517
0.251939
-0.03400113
0.3612796
-0.1955641
0.9110849
0.2024184
-0.005341232
0.2733719
0.167593
0.3211859
-0.2699379
0.8921243
0.2093015
-0.01374739
0.2847803
0.266056
0.292061
-0.303297
0.8671364
0.1620141
-0.007978767
0.2622679
0.4358508
0.2359746
-0.2595089
0.8288578
0.1570629
-0.03303871
0.2658831
-0.8883367
0.03034712
0.3582856
-0.2856016
0.1443112
-0.03855708
0.2530925
-0.9299053
0.1467527
0.3368453
0.01658522
0.1253572
0.01614249
0.2799918
-0.01065327
0.1338589
0.04776795
0.9897912
0.1320498
0.01343888
0.302466
0.2005854
0.1527214
0.01792302
0.9675332
0.1363114
0.006837785
0.3142599
0.3090609
0.1559575
0.0009275095
0.9381673
0.1434056
-0.001840085
0.2699877
0.4415733
0.1977234
-0.1837434
0.8556617
0.1409788
-0.02616912
0.2723635
-0.9121036
-0.0221685
0.2661209
-0.3110553
0.1316959
-0.03323695
0.2581187
-0.9644343
0.06624164
0.2557482
0.008444666
