-0.1744284
0.1352147
0.2013332
-0.2128382
0.9481417
-0.2317287
-0.04504475
-0.1502699
0.1206732
0.1898774
-0.04235014
0.0703779
-0.397213
0.9140434
-0.1502716
0.1178795
0.2275651
0.1457476
-0.06732631
-0.4001936
0.9022583
-0.1587347
0.1113921
0.2485357
0.3144694
-0.1927946
-0.3832671
0.8467855
-0.1512436
0.1653181
0.2474735
-0.0199458
0.1163534
0.1677828
0.9787303
-0.1441771
0.1640716
0.2761616
0.149428
0.1124556
0.1464667
0.9713767
-0.1398014
0.1587147
0.2910402
0.2506178
0.1077122
0.1312634
0.9530786
-0.1637629
0.1430226
0.2465427
0.4045737
0.1916866
0.1863691
0.874553
-0.150901
0.1205251
0.2499267
-0.902819
-0.2476513
0.00842563
-0.351448
-0.149741
0.1109092
0.2335275
-0.9661029
-0.2309002
0.08937813
-0.07308835
-0.2074308
0.1302733
0.2462026
0.04035309
-0.06627348
0.4215919
0.9034598
-0.2079215
0.1250364
0.2703945
0.1857742
-0.03219792
0.4252658
0.8852121
-0.2059543
0.1191993
0.2839156
0.2464821
-0.01782796
0.4238405
0.8713713
-0.1822219
0.1330956
0.2448777
0.4121213
0.1512763
0.2645147
0.8586639
-0.1682934
0.1134702
0.2474232
-0.8995729
-0.2878166
-0.07796452
-0.3191424
-0.1643178
0.1063638
0.2307617
-0.9545643
-0.2966729
0.01973044
-0.02007668
