0.05912101
0.1127647
0.2844084
0.1057927
0.9379919
-0.1419453
-0.298045
0.06307081
0.08893871
0.2659204
-0.1126825
0.2732547
-0.6730699
0.6779464
0.07684053
0.08182254
0.3003154
0.008616781
0.08889657
-0.7108653
0.6976345
0.07504003
0.07962477
0.3231614
0.161233
-0.1504724
-0.7070453
0.6718996
0.106997
0.1079865
0.3144305
0.2245342
0.2624361
-0.2515074
0.9041326
0.1141817
0.08885604
0.3345082
0.4472046
0.1866491
-0.3108963
0.8176268
0.1121488
0.07484606
0.3402981
0.6885019
0.06699249
-0.3588058
0.6266862
0.08249828
0.1012636
0.3180404
0.5901426
0.147981
-0.2464871
0.7543722
0.07363684
0.07686898
0.3132623
-0.9463006
0.06869095
0.2843414
-0.1376477
0.0632138
0.07597643
0.2970517
-0.9479108
0.1424787
0.258332
0.1201234
0.04605086
0.1217748
0.3364955
0.1945034
0.005328256
0.03733625
0.9801766
0.04756933
0.1118739
0.3583186
0.2447821
0.05744692
0.04689337
0.9667381
0.05098787
0.1033542
0.3684015
0.4756873
0.1956607
0.06275855
0.8552777
0.06464124
0.1063502
0.3239731
0.5942538
0.1281421
-0.1669853
0.7762461
0.05962307
0.08238202
0.3182597
-0.9654421
0.008462865
0.2013902
-0.1652025
0.05229521
0.08007967
0.3011478
-0.9728286
0.06573007
0.1853649
0.1221642
