0.01994344
0.1037486
0.2746879
-0.00547244
0.9445333
-0.1829622
-0.2726751
0.0281349
0.0805597
0.2575292
-0.1073765
0.2258114
-0.5969256
0.7623381
0.03956735
0.07673526
0.2931902
0.02345511
0.04202041
-0.6237391
0.7801498
0.0361568
0.07496816
0.3159209
0.1766007
-0.178148
-0.6135232
0.7487755
0.06795647
0.1119374
0.3060363
0.1435953
0.2865932
-0.1255949
0.9388667
0.07904815
0.0964261
0.326958
0.4455928
0.1942912
-0.2194615
0.8458928
0.08012709
0.08208853
0.334428
0.5625858
0.1459578
-0.2529933
0.7734261
0.04763477
0.1019876
0.3127818
0.4575552
0.2323342
-0.1161137
0.8504009
0.0482995
0.07604831
0.3141409
-0.9175555
-0.06300098
0.2572726
-0.2965363
0.03905995
0.06833953
0.2993914
-0.9612132
0.01837697
0.2747427
-0.01574955
0.004972491
0.1129946
0.327904
0.06783386
0.05497336
0.1761277
0.9804875
0.01004111
0.1071606
0.3505753
0.2723547
0.1365128
0.162752
0.9384556
0.01555543
0.09939873
0.3614114
0.3830487
0.175848
0.1504036
0.8942763
0.0279461
0.1022344
0.3180215
0.4736976
0.2071736
-0.04192813
0.8549455
0.03158861
0.07713771
0.3180986
-0.9228899
-0.1338716
0.1652076
-0.3210281
0.02627866
0.06849021
0.302515
-0.9773946
-0.07802445
0.1951426
-0.02305507
