-0.01498547
0.1174475
0.2677389
-0.05111933
0.962046
-0.1251116
-0.2370682
-0.003401892
0.09867775
0.2468289
-0.0719499
0.2518829
-0.547006
0.7950866
0.007361588
0.0912576
0.281722
0.1016538
0.06529281
-0.5882238
0.7996225
0.002613356
0.08546847
0.3033274
0.2849924
-0.1452525
-0.5881331
0.7428193
0.03047105
0.127098
0.3036665
0.12411
0.256145
-0.03882423
0.9578514
0.04321156
0.1144187
0.3255786
0.3922148
0.2441605
-0.1089208
0.8801645
0.04792032
0.1013981
0.3334274
0.536357
0.2215834
-0.1490927
0.8006206
0.01130495
0.1121914
0.3059574
0.5206167
0.2588282
-0.06134007
0.8112975
0.01356144
0.08784589
0.3022801
-0.9470261
-0.112154
0.2435385
-0.1767826
0.004517043
0.08305699
0.2858056
-0.9606553
-0.05288283
0.2695372
0.0411661
-0.03351947
0.1169507
0.3208621
0.1586729
0.00633433
0.2116007
0.9643693
-0.02983433
0.1074812
0.3429689
0.3065972
0.07967737
0.2138587
0.9240748
-0.02502336
0.0988698
0.3535883
0.4155349
0.1308309
0.2101377
0.8752463
-0.009131003
0.1101723
0.3104276
0.5375066
0.2091391
0.01258685
0.8168165
-0.004481619
0.08648306
0.3061785
-0.9539493
-0.1514693
0.1412391
-0.2170011
-0.00952731
0.08109936
0.2889213
-0.9761059
-0.1054307
0.1816908
0.05558951
