0.07927523
0.1010308
0.2766443
0.08339348
0.9278331
-0.1407716
-0.3351934
0.08090383
0.07727748
0.2583788
-0.1023475
0.2768417
-0.6656339
0.6854306
0.09459842
0.06960791
0.2927477
0.0135252
0.09611145
-0.7035083
0.7040283
0.09305263
0.06701148
0.3156407
0.1577332
-0.1367822
-0.7032524
0.6795933
0.1314242
0.09928143
0.3035411
0.1340415
0.3264387
-0.2102589
0.9117357
0.1441355
0.08394489
0.3245656
0.3570853
0.2501213
-0.2877307
0.8527254
0.1459468
0.0706917
0.3333818
0.5250764
0.1722178
-0.3388277
0.7614668
0.1085889
0.09092289
0.3095782
0.5315249
0.2350308
-0.2415058
0.7771208
0.1027646
0.06472093
0.3079313
-0.9147987
-0.00213891
0.3419907
-0.214898
0.09048384
0.06104004
0.2938523
-0.9343627
0.1065652
0.3295169
0.08383803
0.07139075
0.1107489
0.3312754
0.1155749
0.08271862
0.06316168
0.9878314
0.07688241
0.1034137
0.3539606
0.2394563
0.1439849
0.0580748
0.9584135
0.08177625
0.09597838
0.3655157
0.3362987
0.1855614
0.05169831
0.9218446
0.09044632
0.09542167
0.3173828
0.5371073
0.2059401
-0.1639439
0.8013906
0.08798386
0.06963009
0.3149134
-0.9302643
-0.05857736
0.2528477
-0.2593167
0.0790948
0.06398267
0.2996847
-0.9647761
0.02751433
0.2534861
0.06476834
