-0.03318647
0.0249435
0.1226687
0.04515198
0.8187094
-0.5559455
-0.1363848
-0.01738258
-0.0002628565
0.1282195
-0.3692781
-0.09924572
-0.5884893
0.7123654
-0.01409581
0.02375838
0.1566981
-0.1920604
-0.2724292
-0.5297965
0.7798788
-0.02282179
0.03627443
0.1743171
-0.02067913
-0.4125233
-0.445305
0.7944183
0.004529008
0.06770891
0.1406038
-0.4074713
0.1205399
-0.08862687
0.9008788
0.01238115
0.08537954
0.162366
-0.2062762
0.08960053
-0.1081918
0.9683576
0.01558229
0.09040111
0.1775126
-0.09468158
0.06680447
-0.1156885
0.9865034
-0.01777533
0.05232847
0.1520742
0.1818773
0.08486482
-0.08556703
0.9759082
-0.01743151
0.0323548
0.1671108
0.8357628
0.0009410417
-0.1194925
0.5359302
-0.02162627
0.01699954
0.1563621
-0.9530672
0.03168622
0.1132872
-0.2789713
-0.06023603
0.06427854
0.1495944
-0.3200064
0.06013252
0.2001649
0.9240747
-0.05956104
0.07364678
0.1702024
0.02410946
0.05248936
0.1924472
0.9796059
-0.05766795
0.07072228
0.1835021
0.2547883
0.04074665
0.1740467
0.9503317
-0.03649833
0.05312061
0.1532279
0.1540383
0.1217394
-0.01264648
0.9804549
-0.03262454
0.03495264
0.16733
0.8217403
0.07973639
-0.09667557
0.5559126
-0.03471562
0.01883793
0.1575341
-0.9377109
-0.05286915
0.1127511
-0.3243307
