0.0001069163
0.065617
0.2113301
0.1337913
0.922574
-0.2930457
-0.2123235
0.006549519
0.03909087
0.202515
-0.1755266
0.08311751
-0.6862565
0.7009522
0.01329704
0.04524103
0.2390306
-0.04067305
-0.1031846
-0.6794354
0.7253042
0.006517807
0.05018783
0.2603118
0.1389249
-0.338367
-0.6153466
0.6982523
0.0457893
0.07772672
0.2465057
-0.0292859
0.205079
-0.2215617
0.9528879
0.05589031
0.07330716
0.2733122
0.146653
0.1632603
-0.2555068
0.9415707
0.05891922
0.06654054
0.2874681
0.2515457
0.1326482
-0.2723915
0.9192019
0.02015861
0.06817198
0.2499908
0.4447879
0.09010128
-0.2019853
0.8678983
0.01372759
0.04310924
0.253655
-0.9211749
0.08796823
0.2135944
-0.3131706
0.005327537
0.03588042
0.238017
-0.9710064
0.1469878
0.1848536
-0.03701803
-0.0182706
0.08977634
0.2553109
0.02325809
0.02131292
0.06441502
0.9974245
-0.01714079
0.08765918
0.278631
0.09076286
0.02097147
0.06272797
0.9936738
-0.0166315
0.08205655
0.290504
0.3988739
-0.01347284
0.04817437
0.9156404
0.0009981063
0.07320988
0.2520374
0.4395428
0.07427268
-0.1187741
0.8872308
-0.00221398
0.04935172
0.2546727
-0.9360398
0.0428555
0.1422899
-0.3189773
-0.007799272
0.04102594
0.23858
-0.9854789
0.07906709
0.1318066
-0.07215891
