-0.123539
0.09612808
0.2337786
0.007263307
0.9750198
-0.2021917
-0.09166395
-0.1094535
0.07393318
0.2216328
-0.01764476
0.04493661
-0.5824133
0.8114581
-0.1127021
0.07162553
0.2592115
0.1490088
-0.1082709
-0.5770013
0.7957031
-0.1245967
0.06829882
0.2787444
0.3455862
-0.2910543
-0.5285982
0.7186387
-0.09046276
0.10655
0.2796744
0.1697966
0.114848
-0.08180916
0.9753391
-0.08551966
0.09258959
0.3051816
0.3537495
0.09732998
-0.1022607
0.9246248
-0.08405466
0.08078831
0.3164271
0.4399078
0.08617527
-0.1114273
0.8869267
-0.1125548
0.09338769
0.2733367
0.5856311
0.06985448
-0.0303441
0.8069919
-0.1118231
0.0667398
0.26818
-0.9744695
-0.05712133
0.05084071
-0.2110965
-0.1135433
0.06202635
0.2496164
-0.9958108
-0.04391154
0.05207853
0.06099559
-0.1551905
0.101124
0.2774684
0.1722918
-0.08863539
0.2048467
0.9594254
-0.1564807
0.09081352
0.3000317
0.2552642
-0.03996805
0.2173726
0.9412715
-0.1551989
0.08274633
0.3123234
0.3359097
0.004730087
0.2266658
0.9142019
-0.1316143
0.09269547
0.2711606
0.5955524
0.0618923
0.04877219
0.7994423
-0.1275981
0.06815389
0.2651596
-0.9749278
-0.09895789
-0.01038309
-0.1990357
-0.1269962
0.06400573
0.2466482
-0.9929916
-0.1001985
0.006172003
0.06236908
