-0.04633725
0.08979893
0.2233453
0.01674277
0.9378578
-0.293158
-0.1849345
-0.03377228
0.06461746
0.2129245
-0.1613845
0.09499891
-0.6038666
0.7747744
-0.02774021
0.06917381
0.2498063
-0.001010617
-0.07496958
-0.6031733
0.7940785
-0.0343565
0.07081318
0.2720094
0.1700739
-0.2516758
-0.5658578
0.766511
-0.004753056
0.1091606
0.2598174
0.0032929
0.1878078
-0.1087521
0.9761611
0.004543069
0.1040879
0.2874016
0.1814821
0.1344259
-0.1418379
0.9637822
0.008172082
0.09819925
0.3024002
0.1332989
0.1426693
-0.1346952
0.9714598
-0.02672193
0.09582716
0.2625246
0.4347706
0.1487301
-0.096026
0.8829682
-0.02642136
0.06997257
0.265687
-0.9292725
-0.04986397
0.1673762
-0.3255017
-0.03234416
0.0613265
0.249721
-0.9848523
0.0005277004
0.1699816
-0.03423456
-0.06965711
0.1072602
0.2693802
0.02345152
0.01018315
0.1862464
0.9821704
-0.06762838
0.1033912
0.2925209
0.2116878
0.05879211
0.1809901
0.9586315
-0.06465478
0.09717619
0.304729
0.2943
0.07486682
0.1752945
0.9365118
-0.04628917
0.09588012
0.264422
0.4427145
0.1418251
-0.01693811
0.8852134
-0.04322294
0.07158744
0.26626
-0.9341293
-0.09626148
0.1077628
-0.3263793
-0.04666583
0.06275719
0.2500008
-0.9886332
-0.06233787
0.1285909
-0.0467211
