-0.1264978
0.102433
0.3067777
-0.1059841
0.9838896
-0.1112349
-0.09140784
-0.1068243
0.08704036
0.2893106
0.01316483
0.1617149
-0.4919818
0.8553531
-0.1029512
0.077932
0.3257402
0.1740925
0.02317961
-0.5151008
0.8389432
-0.1099044
0.0697155
0.3462284
0.3531717
-0.1411819
-0.5119584
0.7702183
-0.09342666
0.1122595
0.354509
0.1858307
0.1499633
0.03952307
0.9702659
-0.08470102
0.09848571
0.3793859
0.3527227
0.1365491
0.00934245
0.9256639
-0.0807208
0.0866589
0.3901666
0.4696411
0.123205
-0.01350902
0.874114
-0.1117789
0.0956935
0.348188
0.5863414
0.1617454
0.06187212
0.7913369
-0.1050926
0.07102704
0.3416183
-0.9684292
-0.176355
0.05415935
-0.1676624
-0.1071472
0.06776935
0.3228694
-0.9770575
-0.1555328
0.09326498
0.1116686
-0.1568688
0.0947085
0.3521248
0.1954989
-0.08525704
0.2910219
0.9326403
-0.1571378
0.08286774
0.3734156
0.3141424
-0.07367707
0.2940083
0.8996918
-0.1559182
0.07320699
0.3841007
0.4118988
-0.06435106
0.2924992
0.8606059
-0.1313221
0.09110081
0.3465234
0.5958743
0.127452
0.1372175
0.7809361
-0.1224915
0.06882268
0.3396441
-0.9667105
-0.1992223
-0.02218701
-0.1590254
-0.1218499
0.06655097
0.3210124
-0.9714965
-0.1981977
0.0298812
0.1265675
