0.08765247
0.1668495
0.2293652
0.05988004
0.9398337
-0.1819101
-0.2829058
0.09213477
0.1417381
0.2135611
-0.0892735
0.2121655
-0.656469
0.7183764
0.1004901
0.1369993
0.2498258
0.05961409
-0.004521846
-0.6826125
0.728331
0.09429364
0.13583
0.2722437
0.2057652
-0.2230747
-0.6605688
0.686693
0.137385
0.174313
0.2602392
0.01714973
0.2862473
-0.1496728
0.9462381
0.1513066
0.165794
0.2829937
0.2756605
0.2787891
-0.2196178
0.8933398
0.1566646
0.1552765
0.2933168
0.3709964
0.2642503
-0.2446533
0.8559662
0.1153158
0.162651
0.2671285
0.4627927
0.2167854
-0.1825585
0.8399402
0.1124482
0.1372455
0.2687682
-0.9158194
0.00347286
0.2970003
-0.2702844
0.1014884
0.1309635
0.2543468
-0.9510521
0.08736159
0.2962103
-0.01128577
0.07353163
0.1801412
0.2817164
0.05520672
0.03272879
0.1085502
0.9920171
0.07723933
0.1755559
0.3046531
0.198701
0.1326532
0.1064472
0.9651892
0.08255184
0.1690074
0.3156751
0.3692422
0.23181
0.09567278
0.8948581
0.09538886
0.1657851
0.2726659
0.4757541
0.175522
-0.1063638
0.8552992
0.09489302
0.1410583
0.2731138
-0.9322764
-0.04184073
0.2047378
-0.2952837
0.08752728
0.1337861
0.2575598
-0.9764599
0.02306043
0.2144123
-0.004653205
