0.1495133
0.08290654
0.2349839
0.1080436
0.916141
-0.159288
-0.3516244
0.1481862
0.05835295
0.2187958
-0.1045737
0.2448702
-0.6884998
0.6745895
0.1584757
0.05328476
0.2542759
0.02694549
-0.001871704
-0.7186571
0.6948398
0.1532913
0.053886
0.2768211
0.1569674
-0.2497274
-0.6913933
0.6595248
0.2036675
0.08368343
0.2596009
0.02510286
0.3562328
-0.2009553
0.912187
0.2203299
0.07451534
0.2809712
0.2109281
0.3163515
-0.2686279
0.8850256
0.2266858
0.06506714
0.2919429
0.3013723
0.2878473
-0.2996161
0.8582243
0.1812519
0.07464811
0.2691368
0.4648017
0.2457015
-0.256748
0.810969
0.1761673
0.04884619
0.271356
-0.8903446
0.0139217
0.3641396
-0.2729382
0.1633153
0.04377937
0.2585815
-0.9266866
0.1388476
0.3464116
0.04441098
0.1446976
0.09813714
0.2888446
0.01278137
0.1278521
0.05717239
0.9900616
0.1512681
0.09482226
0.3114822
0.1963667
0.1498321
0.03250146
0.96847
0.1556134
0.08845037
0.3234708
0.2959412
0.1556233
0.01739189
0.9422833
0.1628135
0.08037615
0.277405
0.4701141
0.2057099
-0.1804237
0.8391207
0.1604231
0.05527902
0.2785659
-0.9127471
-0.03650656
0.2689563
-0.3053235
0.1510857
0.04840392
0.2643038
-0.9628002
0.05659606
0.2631247
0.02404605
