-0.1274299
0.03453666
0.2423699
-0.1503313
0.9459176
-0.257817
-0.1271647
-0.1072049
0.01633316
0.229116
-0.119377
0.1086347
-0.4623731
0.8718709
-0.1030401
0.01688349
0.2661757
0.09624095
-0.04816142
-0.4700026
0.8760798
-0.1107621
0.01230234
0.2874203
0.3080888
-0.2038024
-0.443539
0.8165899
-0.0945863
0.06377989
0.282222
-0.02642268
0.185149
0.08290938
0.9788502
-0.08389392
0.06243986
0.3093678
0.1513749
0.1804817
0.04870965
0.9706387
-0.07802498
0.05722004
0.3235679
0.2167652
0.1760327
0.03530177
0.9595724
-0.1106269
0.04243129
0.2836714
0.4362308
0.2160696
0.07395487
0.870372
-0.101621
0.01864141
0.2846638
-0.9263889
-0.2138579
0.09779938
-0.2941153
-0.1043323
0.01052159
0.2676572
-0.9723924
-0.1762537
0.1529004
-0.003025573
-0.1549311
0.03753597
0.2895814
0.06802705
-0.00369622
0.3491551
0.9345851
-0.1523986
0.03196967
0.3124667
0.2445666
0.03241669
0.3420689
0.9067112
-0.1489507
0.02559268
0.3245927
0.2915396
0.04056663
0.3377961
0.8940094
-0.129411
0.03578049
0.2850438
0.4401537
0.1985114
0.1532381
0.8621926
-0.1184947
0.01440373
0.2853599
-0.9218617
-0.2529981
0.03121836
-0.2918705
-0.1186275
0.006872326
0.268254
-0.9669619
-0.233269
0.1023957
-0.009242124
