0.03160371
0.1729439
0.3339171
0.1146812
0.9688625
0.07909679
-0.2046887
0.05283008
0.1621246
0.3017259
-0.1572249
0.5408789
-0.5115037
0.6489179
0.08291363
0.148722
0.316177
-0.1149495
0.5102243
-0.5446116
0.655634
0.1006204
0.1395679
0.3264482
-0.1074384
0.5046017
-0.5502442
0.6565558
0.06185434
0.1461146
0.3575549
0.706673
0.1076309
-0.2777773
0.6417701
0.05238364
0.1288293
0.348075
-0.9674659
0.07329661
0.2421444
0.00187643
0.04622145
0.1327689
0.3348784
-0.9199025
0.148063
0.1814637
0.3145277
0.04763639
0.1487125
0.3657467
0.7242426
0.1182607
-0.1669361
0.6584979
0.04093023
0.1277825
0.3531274
-0.9775031
0.02371618
0.2080491
-0.02531672
0.03426296
0.1312705
0.3377351
-0.9193534
0.09767876
0.1885927
0.3311815
0.01057384
0.1580181
0.3701173
0.711592
0.02777543
2.594724E-05
0.7020438
0.01050838
0.1415276
0.3617176
-0.9955094
3.400159E-05
0.0394101
-0.08606878
0.009324707
0.143122
0.3487838
-0.9590201
0.01564606
0.05337794
0.2778243
0.0279761
0.153822
0.368737
0.7369057
0.05495263
-0.1025099
0.6659144
0.02359688
0.1344219
0.3555289
-0.9916548
0.03389131
0.1225802
-0.0211233
0.01977957
0.1379891
0.3394992
-0.9317179
0.07594899
0.1088798
0.3380513
