-0.01512402
-0.06531729
0.287033
-0.03903512
0.9568268
-0.2182832
-0.1879128
-3.281981E-05
-0.08825883
0.2708972
-0.1076774
0.2116597
-0.5761116
0.7821133
0.006087604
-0.09213829
0.3035504
0.1387456
-0.04880788
-0.6064272
0.7814177
-0.003195041
-0.09568571
0.3222442
0.3337707
-0.2648282
-0.5708522
0.7018483
0.01949858
-0.06293814
0.3145065
0.54702
0.1641686
-0.1795393
0.800989
0.01601114
-0.08380249
0.3125042
-0.951511
0.001798734
0.2395141
-0.19302
0.008864924
-0.08674791
0.2991654
-0.9695418
0.06360965
0.2284326
0.06132805
0.004274387
-0.06444505
0.3221831
0.5625679
0.1937073
-0.07380734
0.800342
0.005331137
-0.08799919
0.3174966
-0.9620824
-0.1091656
0.1727796
-0.1806311
-0.0005379729
-0.09182432
0.3011937
-0.9772284
-0.06126871
0.1859029
0.08192091
-0.0331584
-0.06664237
0.3286214
0.4769687
0.1425169
0.1414102
0.8556828
-0.02540517
-0.08260305
0.3294324
-0.9141555
-0.2706033
-0.04782905
-0.2980033
-0.02347688
-0.08669925
0.3170609
-0.9589059
-0.2829195
0.00613927
0.02045275
-0.01557914
-0.06588894
0.3260323
0.5514535
0.1418553
0.01821302
0.8218543
-0.0116778
-0.08749267
0.3218367
-0.9682439
-0.1435831
0.06649268
-0.1935626
-0.01371655
-0.09144659
0.3050523
-0.9859631
-0.1237828
0.08865103
0.06852471
