-0.108437
0.1406673
0.2990643
-0.03447287
0.992824
-0.02583652
-0.1115558
-0.07832447
0.1326964
0.2722513
-0.2419576
0.4308599
-0.4565075
0.7398764
-0.04798228
0.1307003
0.2913435
-0.2099745
0.4193088
-0.4744859
0.7449524
-0.02920329
0.1293858
0.3032669
-0.258458
0.4366063
-0.4468783
0.7368
-0.07740773
0.1288435
0.3324735
0.6390994
0.1263451
-0.1096157
0.7507153
-0.07931315
0.1083726
0.325635
-0.9821121
-0.04414936
0.1441719
-0.112789
-0.08359388
0.1081356
0.3110812
-0.9704479
0.001244519
0.1352839
0.1998191
-0.0933365
0.127636
0.3383492
0.6312722
0.1398352
0.004488088
0.7628378
-0.09073438
0.104005
0.3304419
-0.9781403
-0.09969939
0.09588362
-0.1552675
-0.09432264
0.1024517
0.3137761
-0.9681288
-0.05775019
0.1308899
0.2055712
-0.1316925
0.1250328
0.3350212
0.5990629
0.06163468
0.182448
0.7771986
-0.1250894
0.1078749
0.3318439
-0.9597723
-0.1378881
-0.08408862
-0.2296805
-0.1233759
0.1059895
0.3191282
-0.9775305
-0.1549988
-0.008633904
0.142601
-0.1137967
0.1264348
0.3376353
0.6333129
0.08624441
0.07649253
0.7652618
-0.1092665
0.1047101
0.3298845
-0.9828742
-0.1050526
0.008720222
-0.1511504
-0.1099663
0.103645
0.3131316
-0.9712667
-0.0937672
0.05307153
0.2122076
