-0.03307295
0.1946914
0.2742949
0.03928252
0.9642918
-0.102478
-0.2410321
-0.01262169
0.1785219
0.2420247
-0.3512425
0.4754013
-0.4988026
0.6338915
0.02168149
0.1775506
0.2526002
-0.3569731
0.4798496
-0.4944756
0.6307206
0.04331476
0.1773322
0.2577929
-0.4062468
0.5173833
-0.4545693
0.6005372
0.01093931
0.1949019
0.3090535
0.1839883
0.2180891
-0.1397329
0.9481879
0.01882189
0.1808331
0.330025
0.3712854
0.1682435
-0.1845457
0.8943065
0.02148002
0.170555
0.3400636
0.3269503
0.1806118
-0.1745266
0.9110562
-0.011192
0.1848916
0.3106392
0.5853471
0.1603922
-0.1441697
0.7815742
-0.01491648
0.1605927
0.3061622
-0.9526886
0.002577456
0.2333587
-0.1947347
-0.02302826
0.1576615
0.2909039
-0.9623005
0.07808742
0.2353446
0.1117722
-0.04866679
0.1922188
0.322128
0.3829803
0.09020007
0.08145525
0.9157266
-0.04418434
0.1738962
0.3314754
0.7446455
0.07850788
0.01842397
0.6625709
-0.04306049
0.1615927
0.3269807
-0.9019211
-0.06259222
0.02464432
-0.42663
-0.0298507
0.1878743
0.3164364
0.5498186
0.1369511
-0.05842087
0.821907
-0.02998404
0.1641847
0.3137481
-0.950068
-0.03610736
0.1532983
-0.2693822
-0.03524006
0.1593049
0.2986394
-0.978839
0.02888642
0.1751936
0.1017207
