-0.02345059
0.07345402
0.3540792
-0.2465498
0.9471146
0.1936841
-0.06836344
0.006614854
0.09003282
0.3300296
-0.1178289
0.4657839
-0.1967233
0.8546705
0.03641224
0.08934742
0.3497435
-0.07441909
0.4578993
-0.220087
0.8581094
0.05466253
0.08810604
0.362239
-0.09878509
0.4623248
-0.2070496
0.8565208
0.01216678
0.05915123
0.3843408
0.7333812
0.2637651
0.1035961
0.6179385
0.01904446
0.04439807
0.3703265
-0.952424
-0.2881595
0.07535498
0.06460833
0.0147748
0.04835069
0.3562749
-0.8895165
-0.2506694
0.1419111
0.354664
-0.002726729
0.05010909
0.3837584
0.7721289
0.2496721
0.1934898
0.5514005
0.007455554
0.03779539
0.3656885
-0.9341885
-0.3250487
0.01900833
0.145856
0.002929457
0.0452432
0.3508435
-0.8233472
-0.2960851
0.1225659
0.4684131
-0.03766987
0.03614852
0.374583
0.763885
0.1155775
0.3429793
0.5343097
-0.02578626
0.02741015
0.3639838
-0.9327779
-0.303095
-0.1690707
0.09733478
-0.02505723
0.03400314
0.3528519
-0.8286989
-0.3454381
-0.03292448
0.4391431
-0.02096481
0.04270583
0.3793034
0.7901757
0.1933149
0.2496098
0.5253063
-0.009218176
0.03281903
0.3620665
-0.9284493
-0.3265654
-0.07290129
0.1613144
-0.01114362
0.0415926
0.3477356
-0.8108549
-0.3288848
0.03314441
0.4829602
