-0.06160211
-0.07430007
0.2441285
0.9356627
-0.2449069
0.02115417
0.2531965
-0.07588536
-0.0586009
0.2178885
-0.3532552
0.3678814
0.5644409
0.6490613
-0.06596857
-0.02993363
0.2351369
-0.1604622
0.4864086
0.4580367
0.7265404
-0.05112183
-0.01702124
0.2450436
0.007665812
0.5594517
0.3460952
0.7531091
-0.08261018
-0.03706461
0.2890653
-0.1372511
0.2890253
0.924238
0.2083527
-0.08657289
-0.01947409
0.3123733
-0.1411733
0.2973689
0.9211491
0.2076688
-0.08879431
-0.009262681
0.3251625
-0.1437169
0.3171191
0.9140061
0.2082641
-0.0587604
-0.04351258
0.2952671
0.02856726
0.3630107
0.914223
0.1777741
-0.05213054
-0.01989564
0.3195064
0.03574885
0.4192868
0.8902652
0.1742086
-0.04790305
-0.005204052
0.3315493
0.04164647
0.4651177
0.8676328
0.1707176
-0.02504323
-0.06194161
0.2672479
-0.18945
-0.7458117
-0.6386306
0.00496238
-0.02280046
-0.04769844
0.2561874
-0.1848716
-0.979631
0.02433758
0.07452017
-0.02572126
-0.05151133
0.2438388
-0.1471055
-0.9140418
0.3653857
0.09685542
-0.03879883
-0.05147651
0.2704669
-0.1749145
-0.7876793
-0.5845683
-0.08512503
-0.03270536
-0.03554451
0.2528165
-0.2176005
-0.9743864
0.05637563
0.006558582
-0.03475515
-0.04109558
0.2368089
-0.2000173
-0.8932368
0.3987699
0.05571029
