-0.0766829
0.09492129
0.2815383
-0.1801483
0.9524827
-0.117282
-0.2157969
-0.05023486
0.08728296
0.2509985
-0.3341966
0.4437673
-0.3783109
0.7404486
-0.01795568
0.09234798
0.2663569
-0.2920824
0.414694
-0.4016761
0.7624783
0.001490041
0.09477323
0.2775331
-0.2796669
0.4059311
-0.4081594
0.7683829
-0.03782508
0.117757
0.3187229
-0.04586354
0.2124697
0.1521469
0.96416
-0.02532769
0.1184895
0.3428399
0.1373454
0.2763873
0.1057523
0.9452845
-0.01660244
0.1137068
0.3540719
0.311118
0.3213507
0.05558679
0.8926642
-0.05054996
0.0980252
0.323009
0.4071406
0.2933474
0.09647717
0.859579
-0.03875169
0.0765169
0.3245119
-0.878506
-0.2916908
0.1214347
-0.3583257
-0.04084855
0.06657851
0.3103903
-0.9458761
-0.2442798
0.1981588
-0.07986905
-0.09292062
0.08770889
0.3335308
0.143503
0.0669194
0.3365157
0.9282704
-0.08527692
0.07958835
0.3529657
0.4011743
0.1648133
0.3040571
0.8482011
-0.07738189
0.07075796
0.3595717
0.564056
0.2269935
0.2659304
0.7480614
-0.06997372
0.0896163
0.3262916
0.4477305
0.2464634
0.1565875
0.8451471
-0.05834809
0.06949428
0.3261359
-0.899657
-0.2839203
0.05123124
-0.327692
-0.05880156
0.06146902
0.3111008
-0.9570127
-0.2523995
0.1403982
-0.02663998
