-0.003170135
0.07986566
0.3287479
0.1466678
0.9460117
-0.1432238
-0.2510723
-0.002565898
0.05616355
0.3147297
-0.01274859
0.1492281
-0.7129864
0.6849956
-0.0003350574
0.04964292
0.349556
0.1176483
-0.0005048169
-0.7282912
0.6750931
-0.007300848
0.04660162
0.3703279
0.2528421
-0.1617485
-0.7123657
0.6343844
0.04267
0.07592213
0.3645069
0.117265
0.2356151
-0.2397158
0.9344896
0.05205571
0.0638105
0.3883368
0.2616895
0.2046305
-0.2719719
0.903148
0.05518548
0.0539192
0.4003602
0.3311843
0.1872057
-0.2856659
0.8795829
0.01657262
0.07039502
0.3628531
0.6031855
0.1021244
-0.2431388
0.7527426
0.008324355
0.04654211
0.3578182
-0.9577156
0.0409101
0.2208114
-0.17986
0.000914005
0.0440107
0.3418142
-0.9737693
0.09846921
0.1782778
0.1014606
-0.01833945
0.09039846
0.3775239
0.1934505
0.03265909
0.007397261
0.9805384
-0.0175497
0.07982567
0.3968962
0.3455963
-0.01023998
-0.006449815
0.9383053
-0.01799418
0.07097524
0.4065476
0.3872221
-0.0222191
-0.01029552
0.9216613
-0.001664171
0.07584465
0.3663546
0.6173754
0.08074415
-0.1659858
0.764707
-0.00709495
0.05375162
0.3598939
-0.974174
0.03060302
0.1612341
-0.1550872
-0.0126327
0.05138117
0.3431794
-0.9844882
0.06675061
0.1403084
0.08149213
