0.1202836
0.1033672
0.3196341
0.06864258
0.9305419
0.2052003
-0.2954196
0.1353973
0.1041901
0.2821394
-0.1091565
0.6697906
-0.395153
0.619128
0.1667868
0.08855551
0.2867219
-0.05177835
0.6291648
-0.4555165
0.6276746
0.1855885
0.07809085
0.2904392
-0.09647362
0.6612674
-0.4088714
0.621484
0.1546659
0.0733186
0.3300709
0.767179
0.2096719
-0.3004811
0.5264838
0.1439381
0.05973917
0.3179926
-0.9225541
0.04952359
0.3446243
0.1663595
0.1362609
0.06837267
0.3091925
-0.7784507
0.1879717
0.2828757
0.527885
0.1409917
0.07204962
0.3402997
0.7986262
0.192853
-0.1957968
0.5354132
0.1324528
0.05792716
0.3241221
-0.9349297
0.01731384
0.2860782
0.2092035
0.1240899
0.06819251
0.3130251
-0.8094654
0.1104839
0.2700327
0.5095503
0.1055086
0.07767394
0.3544117
0.7754999
0.08671849
-0.033556
0.6244628
0.1045727
0.06338227
0.3430742
-0.9935881
-0.02313674
0.1079329
0.02445034
0.1016577
0.06833428
0.3320296
-0.8752197
0.02694454
0.1300873
0.4651256
0.122586
0.07458019
0.3483019
0.8020324
0.1311091
-0.1354933
0.5667416
0.1168905
0.06052339
0.3320372
-0.9666615
0.007818692
0.195084
0.1656708
0.1112791
0.06988364
0.3197451
-0.8155183
0.08547344
0.1796955
0.5434462
