-0.02828042
0.07904437
0.3473022
-0.09828433
0.9800608
0.1457165
-0.09267039
0.002697676
0.08196908
0.3200726
-0.08387487
0.4997494
-0.3515659
0.7871576
0.03161601
0.07253253
0.3389504
-0.02031552
0.4566004
-0.3922787
0.7982612
0.04824911
0.06527078
0.3519347
-0.02103438
0.4571256
-0.3918332
0.7981607
0.004087455
0.05917519
0.3751928
0.7593416
0.1832408
-0.04153768
0.622975
0.004297759
0.04236516
0.3612869
-0.9817125
-0.1255609
0.1320317
0.0551622
-0.0003837083
0.04678351
0.3475844
-0.9141088
-0.07592425
0.151841
0.3682187
-0.01204883
0.05448273
0.3800982
0.7482827
0.1606077
0.07176767
0.6396309
-0.007206622
0.03555506
0.3646413
-0.9850821
-0.1596663
0.06229337
0.01547491
-0.01064644
0.03944832
0.3482546
-0.9194788
-0.1286788
0.1197998
0.3516369
-0.05030301
0.05007043
0.3749648
0.720633
0.04665208
0.2323215
0.6515662
-0.04213281
0.03573835
0.3663465
-0.9770321
-0.1615853
-0.1280062
-0.05397094
-0.03994374
0.03813678
0.3535822
-0.9429188
-0.1936466
-0.05180543
0.2659348
-0.03228623
0.05178976
0.3780723
0.7558033
0.09651743
0.1325425
0.6339387
-0.02559524
0.03529349
0.3633371
-0.985453
-0.1608494
-0.03249663
0.04420471
-0.02604726
0.04063958
0.3473604
-0.9087352
-0.1621176
0.02530629
0.3837682
