0.02282104
0.09715223
0.3360085
0.08076477
0.9799494
0.07636768
-0.1653607
0.04698733
0.08697683
0.3051902
-0.1310062
0.5254109
-0.5018207
0.6745049
0.07536171
0.07312968
0.3219308
-0.06282174
0.4737825
-0.5516492
0.6835693
0.09111664
0.06326839
0.3342292
-0.04838004
0.4623026
-0.5614524
0.6846218
0.05159132
0.07269791
0.3606665
0.747079
0.08512393
-0.2346105
0.6161047
0.04365459
0.05646276
0.3486594
-0.98203
0.04882017
0.1730688
0.05727837
0.03942249
0.06160629
0.3350044
-0.9218047
0.1017853
0.1155356
0.3557632
0.03683977
0.07424229
0.3669953
0.763099
0.1073748
-0.1213465
0.6256402
0.03201614
0.05522686
0.3517092
-0.9862596
-0.001452567
0.158393
0.04692115
0.02688533
0.06085652
0.3363309
-0.904311
0.0555336
0.145897
0.3973055
-0.0006936642
0.08097354
0.3686202
0.7486096
0.003127087
0.04654531
0.6613679
0.0008437187
0.06571364
0.3584788
-0.9991608
-0.02492061
-0.02495132
-0.02083532
0.001224023
0.06909716
0.3458971
-0.9357516
-0.03227221
-0.00793781
0.3510906
0.01702975
0.07812825
0.3684383
0.7737417
0.04418224
-0.05421331
0.629629
0.01490895
0.06025666
0.3529193
-0.9970509
0.0002961016
0.06712534
0.03719711
0.01279177
0.06573841
0.3372506
-0.9088873
0.0257646
0.05993807
0.4119073
