-0.07921384
-0.01939207
0.1994887
0.3216065
0.9237797
-0.1927704
-0.07771742
-0.0774053
-0.04799798
0.1896787
0.01591343
0.04256377
-0.8147947
0.5779661
-0.08377188
-0.04771718
0.2233909
0.1577188
-0.2027558
-0.793984
0.551003
-0.09668334
-0.04313016
0.2399326
-0.2728445
0.4066658
0.7214653
-0.4895577
-0.04134414
-0.01713148
0.2479501
-0.1661601
0.1968937
-0.3399022
0.9044834
-0.02817122
-0.0132252
0.273006
-0.1223263
0.1981366
-0.3506535
0.9070945
-0.02121336
-0.0122813
0.2872635
-0.08729301
0.1986627
-0.3586832
0.9078873
-0.06359408
-0.004254073
0.2521148
-0.05285046
0.009926349
-0.2605959
0.9639492
-0.06210556
-0.001166254
0.2838573
-0.0528556
0.009906062
-0.2605946
0.9639496
-0.06128125
0.0005447567
0.3014446
-0.05285585
0.009906087
-0.2605946
0.9639496
-0.1032424
-0.00108707
0.2336802
0.3789797
-0.07200827
-0.09498115
0.9176971
-0.107284
-0.01681712
0.2380423
-0.9259475
0.12356
0.01527411
-0.3565404
-0.1080149
-0.02262059
0.2261973
-0.991808
0.1224453
-0.02455567
-0.02685464
-0.08807449
-0.00989905
0.2402996
0.4148838
-0.08591008
-0.1900036
0.8856577
-0.09691101
-0.03003699
0.2432797
-0.9237185
0.1888012
0.06880771
-0.3261348
-0.09997168
-0.03713238
0.2279627
-0.9795418
0.1996992
0.003729752
-0.0245832
