0.04923391
0.1030049
0.3255093
-0.003434867
0.9495737
0.2286588
-0.2145068
0.07119511
0.1085172
0.29165
-0.09356995
0.6135684
-0.3444341
0.7043747
0.1027939
0.09583613
0.3012016
-0.0147153
0.5802459
-0.4086718
0.7043335
0.1216994
0.08702835
0.3076795
-0.08818016
0.6115042
-0.348978
0.7046285
0.08315693
0.07558253
0.3395976
0.8181686
0.2034329
-0.1976275
0.5001587
0.07608912
0.06294137
0.3237004
-0.9474524
-0.03771263
0.2426504
0.2050187
0.06978943
0.07191265
0.3140244
-0.7930909
0.06832737
0.21015
0.5676049
0.06866139
0.07273
0.347205
0.8332368
0.1948252
-0.08489136
0.510444
0.06466626
0.05965936
0.3279757
-0.9471048
-0.07003261
0.208252
0.2339212
0.05729022
0.07009906
0.316376
-0.8075641
0.004575023
0.225037
0.54514
0.03103451
0.07360232
0.3540012
0.8084176
0.07633994
0.07461582
0.5788487
0.03371476
0.06137806
0.3410998
-0.9902338
-0.08965039
0.018941
0.1050764
0.03212523
0.06785643
0.3302762
-0.8582729
-0.07574277
0.0720977
0.5024268
0.04893172
0.07311094
0.3510766
0.842793
0.1296427
-0.02615385
0.5217363
0.04763736
0.06114379
0.3321558
-0.965391
-0.06906639
0.1171576
0.2225402
0.04309465
0.07163161
0.3199973
-0.8077496
-0.0203722
0.1391007
0.5725178
