-0.08010924
0.1086631
0.3136529
-0.03329973
0.9917482
0.001848769
-0.1237878
-0.05244995
0.09992003
0.2879881
-0.1484333
0.427408
-0.472479
0.7563422
-0.02791131
0.09120059
0.3119984
-0.01527784
0.3315421
-0.5397172
0.7736613
-0.01822582
0.08293676
0.3301037
0.1010922
0.2394849
-0.5843414
0.7687474
-0.04782384
0.0949063
0.3455945
0.656262
0.1531571
-0.1129036
0.7301478
-0.04961926
0.07492763
0.3376522
-0.9815623
-0.06231246
0.1622081
-0.07963236
-0.05451461
0.07550013
0.3232685
-0.9618581
-0.01136338
0.1570578
0.2236801
-0.0637816
0.09327191
0.3498658
0.6820703
0.1703863
-0.005299633
0.7111405
-0.06198684
0.07167268
0.3385096
-0.9836419
-0.1074128
0.1331002
-0.05652978
-0.06717862
0.07309574
0.3220817
-0.9434941
-0.05553227
0.1707619
0.2785238
-0.1018156
0.09117976
0.3473732
0.6644243
0.09900624
0.1702885
0.72093
-0.09536881
0.07606643
0.3406428
-0.9814097
-0.1697746
-0.04051882
-0.07981122
-0.09532081
0.07755989
0.3275385
-0.9507968
-0.172436
0.03185103
0.2554147
-0.08411156
0.0921312
0.3491886
0.695572
0.1158825
0.06469747
0.7060914
-0.08012549
0.07274866
0.3375598
-0.9912086
-0.1206973
0.04049791
-0.03602365
-0.08231452
0.07516575
0.3208892
-0.9448507
-0.09971716
0.08437494
0.3003239
