-0.0403308
-0.006829768
0.2362596
-0.07708551
0.9637322
-0.1300035
-0.2199484
-0.01651342
-0.02270317
0.2078647
-0.2733385
0.4491092
-0.483316
0.6999947
0.01328014
-0.02605647
0.2270927
-0.1713256
0.3738111
-0.5420595
0.7328603
0.02767255
-0.03030348
0.2432962
-0.04797195
0.2763112
-0.5964116
0.7520931
0.002717081
-0.0007122755
0.2711456
0.2503386
0.2617993
-0.05612959
0.9303984
0.01031013
-0.01987916
0.2830626
0.7388684
0.1739329
-0.1985061
0.6200131
0.007305063
-0.03354186
0.2777999
-0.9072915
-0.09070544
0.2505702
-0.3252836
-0.01316404
-0.001386464
0.2816499
0.2705223
0.2625563
0.04548069
0.9251019
-0.00110298
-0.02295199
0.2942751
0.7294707
0.2291953
-0.1087811
0.6352234
-0.0008508944
-0.03901964
0.2880378
-0.9012942
-0.1712891
0.188502
-0.3504223
-0.05446035
-0.01003459
0.2857512
0.2484995
0.1697529
0.2131525
0.9295149
-0.04431904
-0.02328414
0.2973578
0.6962119
0.2447313
0.09159646
0.6685849
-0.03945203
-0.0345481
0.2926777
-0.8851391
-0.256181
0.004017835
-0.3884378
-0.03463437
-0.004721224
0.2861686
0.2614969
0.206631
0.1117639
0.9361794
-0.02277598
-0.02440542
0.2996832
0.7099583
0.2283371
-0.01340526
0.6660644
-0.01957189
-0.03992382
0.2940131
-0.901908
-0.2051533
0.09790803
-0.3672711
