-0.1363076
0.05883822
0.1414511
-0.06097709
0.8970595
-0.4221296
-0.1156406
-0.1182692
0.03694713
0.1387121
-0.2444394
-0.0339759
-0.5150405
0.8208705
-0.1170941
0.05076608
0.1710779
-0.08375788
-0.1685119
-0.488044
0.8522919
-0.1246399
0.05614445
0.1909126
0.08854575
-0.3011132
-0.4359069
0.8434902
-0.1038853
0.09478152
0.1724013
-0.1476288
0.1471478
-0.01507932
0.9779192
-0.09591826
0.09933752
0.1985599
0.02352975
0.1361371
-0.03936297
0.989628
-0.09188609
0.09765106
0.2133986
0.09687123
0.1296525
-0.04946299
0.9855759
-0.1228674
0.07755011
0.1759357
0.3428475
0.1533194
-0.00142379
0.9267938
-0.1173983
0.05405924
0.1843158
-0.8640064
-0.1360544
0.09333536
-0.4756792
-0.1189721
0.04113775
0.1722794
-0.9663374
-0.1075195
0.1204124
-0.200331
-0.1642545
0.07903346
0.1809783
-0.06647128
0.0648229
0.2727407
0.9575971
-0.1613774
0.07956809
0.2033505
0.1387915
0.06367929
0.2579049
0.9540267
-0.1584616
0.07512239
0.2158038
0.2650891
0.06175371
0.2429859
0.9310597
-0.1416504
0.07350975
0.1771788
0.3490849
0.1610936
0.07747511
0.9198838
-0.1340903
0.05227321
0.1834822
-0.8767744
-0.1783033
0.04849106
-0.4439857
-0.1340265
0.04057804
0.1706106
-0.9678456
-0.1581099
0.09512584
-0.1709602
