-0.06630453
-0.07276857
0.2353834
0.917873
-0.2818575
-0.02168956
0.2785589
-0.08130035
-0.05659488
0.209667
-0.3226072
0.4140516
0.5399147
0.6580107
-0.06734359
-0.02863592
0.2251016
-0.1314278
0.5331532
0.4160491
0.7248294
-0.05045971
-0.01695946
0.2330407
0.03364018
0.6033012
0.2915173
0.7415617
-0.08006512
-0.03248429
0.2795088
-0.09722605
0.3247158
0.9098754
0.2392354
-0.08048692
-0.01373774
0.3013113
-0.09494366
0.3506539
0.9001667
0.2402655
-0.08039064
-0.002645314
0.3128625
-0.09149128
0.3808805
0.8878267
0.2415017
-0.05659479
-0.0420852
0.2855462
0.08373268
0.3577552
0.9044916
0.2165527
-0.04613451
-0.02015442
0.3094928
0.07782179
0.4099127
0.8854182
0.2048169
-0.04027177
-0.006411314
0.3216
0.07299419
0.4499865
0.8683962
0.1951212
-0.02748109
-0.06356484
0.2554423
-0.2382562
-0.7530841
-0.6132632
0.00255723
-0.02515826
-0.05006185
0.2435884
-0.2140978
-0.9687936
0.05268175
0.1132513
-0.02940297
-0.05408648
0.2316331
-0.1631073
-0.9002361
0.3755162
0.1481848
-0.04000936
-0.05147591
0.2590622
-0.2196423
-0.7974343
-0.5560279
-0.08178582
-0.03461659
-0.03727281
0.2404444
-0.2398427
-0.9635288
0.1065429
0.05231117
-0.0387099
-0.04372209
0.2250846
-0.2070002
-0.8747599
0.4238435
0.1109175
