-0.1103546
-0.05063844
0.1983891
-0.6916338
0.7055137
-0.07674054
-0.1341792
-0.09596451
-0.03036821
0.1726803
-0.2702203
0.3026688
0.1355661
0.9038775
-0.07712394
-0.01545668
0.1983932
-0.07563771
0.3230035
0.06986026
0.9407802
-0.0636269
-0.01456636
0.2156076
0.1275213
0.3291666
-0.0007884863
0.9356213
-0.102128
-0.01286215
0.2424393
0.03825611
0.2703655
0.6404934
0.7177793
-0.0881446
-0.004375339
0.2650602
0.08492602
0.3607067
0.6112508
0.6993217
-0.07825594
0.0006529689
0.2757547
0.1136215
0.4135374
0.5897279
0.684323
-0.09949681
-0.0303455
0.2495492
0.1113733
0.3439575
0.6748939
0.6432787
-0.07818808
-0.0194149
0.2716878
0.1631471
0.4367835
0.634824
0.6161183
-0.06470616
-0.01297504
0.2822174
0.1540565
0.4214575
0.6423028
0.6213593
-0.09229238
-0.07172105
0.232991
0.4091286
0.5388806
0.6015502
0.4246868
-0.07563561
-0.06665426
0.226227
-0.60742
-0.7814302
-0.1104019
-0.09066065
-0.07556545
-0.06695682
0.2130179
-0.6026707
-0.7685573
0.1827632
0.1127179
-0.09183579
-0.05446377
0.2341153
-0.4342395
-0.5672711
-0.5070012
-0.4822751
-0.06971601
-0.05303957
0.2223067
-0.6602735
-0.7369497
-0.03462711
-0.140517
-0.06946685
-0.05607343
0.2055364
-0.6678512
-0.6974846
0.2458676
0.08390043
