-0.1519475
-0.01963097
0.2750732
-0.2885999
0.9541139
-0.05725526
-0.05566579
-0.1197083
-0.01018339
0.2506614
-0.3325872
0.3154707
-0.2556432
0.8511818
-0.09541136
0.003165781
0.27327
-0.2689298
0.2757348
-0.2728406
0.8815925
-0.08102174
0.01068491
0.2885025
-0.2994726
0.2948814
-0.2648815
0.8678704
-0.1224628
-0.01538008
0.3096092
0.6252658
0.2660001
0.104775
0.7261604
-0.1142044
-0.03355181
0.3010859
-0.9499815
-0.2795844
0.09221094
-0.1042354
-0.1176763
-0.03453785
0.2862577
-0.9371936
-0.2389469
0.1654059
0.1929082
-0.1359219
-0.02462491
0.3134114
0.6158308
0.2801094
0.2152098
0.7042556
-0.1224606
-0.04233977
0.3032831
-0.9317334
-0.3488443
0.03684105
-0.09393184
-0.1250944
-0.04285538
0.2861765
-0.9089254
-0.3159137
0.1538559
0.2244583
-0.1670727
-0.0452933
0.3086317
0.5626329
0.2014763
0.4023686
0.6935063
-0.1524543
-0.05581363
0.3055425
-0.8814425
-0.4096424
-0.1702746
-0.162046
-0.1495292
-0.05540603
0.2928014
-0.88267
-0.442706
-0.01140098
0.1574015
-0.1524158
-0.03559381
0.3116201
0.6148087
0.2336082
0.2919464
0.6944096
-0.1375034
-0.05065748
0.3026367
-0.9233132
-0.3699057
-0.05391309
-0.08806799
-0.1374256
-0.04989752
0.2856944
-0.8981934
-0.3661666
0.07522075
0.231328
