0.01133689
-0.03060034
0.3033883
-0.175938
0.9201069
-0.2704887
-0.2220024
0.03682155
-0.04866982
0.2807131
-0.3426306
0.3390419
-0.45811
0.7468535
0.0593036
-0.04453573
0.3057578
-0.09094571
0.1500819
-0.5346357
0.8266614
0.06258743
-0.0462352
0.3267437
0.148686
-0.03780033
-0.5526353
0.8191813
0.04990942
-0.01530039
0.3270279
0.3915232
0.340993
-0.09309821
0.8495682
0.05572016
-0.03624856
0.3294718
-0.8620875
-0.2178644
0.2848584
-0.3580445
0.0489333
-0.04495469
0.3191305
-0.9353887
-0.1207817
0.3267441
-0.06081124
0.0367317
-0.01794398
0.337647
0.3844177
0.3727336
0.02004806
0.8443286
0.0477585
-0.04005688
0.338738
-0.8516392
-0.2989554
0.2312395
-0.3631318
0.04233396
-0.05096918
0.3262023
-0.9232293
-0.2151677
0.3076278
-0.08194978
0.001719604
-0.03146845
0.3475153
0.3683308
0.3426936
0.2144614
0.8371976
0.01520899
-0.04421031
0.3493738
-0.8040621
-0.4343423
0.03441822
-0.4045322
0.01640883
-0.05153278
0.3385447
-0.8951693
-0.4041564
0.1654137
-0.08926286
0.01830355
-0.02390277
0.3443542
0.3785007
0.3389682
0.1094261
0.8543207
0.03112921
-0.043273
0.3453943
-0.8510203
-0.3472008
0.1365088
-0.3695695
0.0289661
-0.05326986
0.3318702
-0.9274395
-0.2860739
0.2338592
-0.05768631
