-0.0783643
0.002200067
0.2406709
-0.3518175
0.9220988
-0.05547843
-0.1512626
-0.05376276
0.01435453
0.2098364
-0.3970264
0.3495098
-0.163335
0.8327873
-0.02849618
0.03160045
0.227924
-0.2992067
0.3310308
-0.2031975
0.8715531
-0.01356834
0.03835902
0.242489
-0.1662228
0.3005925
-0.2510504
0.9049795
-0.04684721
0.02800834
0.2844048
0.04639767
0.2454607
0.3228363
0.9128928
-0.03087719
0.02414992
0.3054954
0.382899
0.3235982
0.2102859
0.8393166
-0.02020524
0.01452959
0.310535
0.6170135
0.3542943
0.09807681
0.6958095
-0.06251188
0.01575974
0.2948879
0.06619206
0.1848619
0.4076728
0.8917666
-0.04607562
0.01145312
0.3210807
0.3573228
0.2814256
0.3257329
0.8288656
-0.03295873
0.002364814
0.3287653
0.5821176
0.341968
0.2257656
0.7023012
-0.09303024
-0.01840708
0.2903603
0.1127962
0.03112725
0.5130978
0.8503169
-0.08510154
-0.0243116
0.3109137
0.3700204
0.1764726
0.4784477
0.7765502
-0.07488228
-0.03062502
0.3175384
0.5724198
0.295265
0.4089355
0.646472
-0.07870837
-0.0006912351
0.2953947
0.08807173
0.1255743
0.4423939
0.8836074
-0.06495968
-0.006326646
0.3212688
0.3572013
0.2409767
0.3824717
0.817345
-0.05208796
-0.01477909
0.329715
0.5656238
0.3235819
0.3005624
0.6964387
