-0.0287826
0.08798748
0.3109425
0.0776017
0.9519648
-0.1758032
-0.2383995
-0.02187102
0.06411177
0.2958503
-0.07102692
0.2149571
-0.6642556
0.7123996
-0.0155802
0.0577715
0.3292807
0.1133529
0.002421183
-0.6957764
0.7092535
-0.02272802
0.05459934
0.3495383
0.2766179
-0.1953181
-0.6751227
0.6553951
0.006253239
0.07964277
0.335699
0.5878271
0.1205613
-0.2977937
0.7424576
-0.001976204
0.0599122
0.332206
-0.9565864
0.05122947
0.2513681
-0.1383188
-0.00911357
0.058889
0.3185669
-0.9674832
0.1095554
0.1997992
0.1097918
-0.007909072
0.08236742
0.3440073
0.604364
0.1571331
-0.1926786
0.7569203
-0.01300367
0.05950543
0.3379081
-0.9666615
-0.01273304
0.2225702
-0.1259602
-0.02066652
0.0576793
0.3217453
-0.9734052
0.03529888
0.2068498
0.09192146
-0.04419518
0.08843824
0.350672
0.5810642
0.1332012
-0.0008998459
0.802883
-0.04121104
0.07191211
0.3470712
-0.9737988
-0.1696806
0.03891396
-0.1463222
-0.04218859
0.07075804
0.3336727
-0.9779146
-0.1580752
0.04794931
0.1280473
-0.02685909
0.08555439
0.3480757
0.6080434
0.1270247
-0.1105219
0.7758434
-0.02874764
0.06411171
0.3413911
-0.9806133
-0.0509209
0.1389396
-0.1284545
-0.03343742
0.06221664
0.3245963
-0.9854959
-0.01898543
0.1314121
0.10568
