-0.1231842
0.1546149
0.283832
-0.07962882
0.9947906
-0.03771612
-0.05126772
-0.0890111
0.1493477
0.2607861
-0.2310794
0.3624441
-0.4340268
0.7917432
-0.06119256
0.1512344
0.2835665
-0.2305066
0.3589979
-0.4341813
0.793394
-0.04351439
0.1521796
0.2972444
-0.237888
0.4023638
-0.4314961
0.7715723
-0.09520229
0.1557552
0.3319809
0.2840578
0.05949618
0.03425852
0.956346
-0.09215081
0.1369749
0.3499832
0.5763096
0.03934445
0.005061883
0.8162681
-0.09169003
0.1228029
0.3513617
0.8230722
0.007282579
-0.03098269
0.5670443
-0.1116599
0.1430044
0.3241053
0.6326014
0.1325187
0.08238722
0.7585952
-0.10594
0.1225302
0.3153848
-0.9843572
-0.1641739
0.0288292
-0.05706926
-0.1074425
0.1229497
0.2975221
-0.9720463
-0.1537613
0.05975369
0.1670722
-0.1545929
0.1417384
0.3236218
0.3008318
-0.08300795
0.2773546
0.9086718
-0.1532562
0.1261953
0.3386983
0.525775
-0.08527906
0.2650948
0.8037493
-0.1514711
0.114687
0.3445988
0.5027107
-0.0853675
0.2672246
0.8176707
-0.1314848
0.139363
0.3205695
0.643305
0.07986266
0.1543243
0.7456304
-0.1236662
0.1210844
0.3118742
-0.9777274
-0.1928959
-0.07063968
-0.04301688
-0.1218459
0.1226104
0.2943923
-0.9620714
-0.2042103
-0.036359
0.1771861
