-0.05239341
0.06838042
0.3309498
-0.002194749
0.9823537
-0.0626281
-0.1762217
-0.02584777
0.05492604
0.3000321
-0.2768441
0.4880297
-0.4848611
0.6708905
0.007250286
0.05111289
0.3136622
-0.2683004
0.4823198
-0.4909707
0.6740403
0.02813127
0.04916793
0.3212586
-0.3275562
0.5210813
-0.4462842
0.6496243
-0.01893328
0.05680841
0.3600109
0.6313927
0.1357906
-0.1870438
0.7402155
-0.02362852
0.03648943
0.353839
-0.9727611
-0.005229632
0.2024944
-0.1127146
-0.02945214
0.03643537
0.339786
-0.9633276
0.05581668
0.1749223
0.1956699
-0.03391838
0.05717784
0.3673788
0.6377518
0.1596714
-0.07537148
0.7497312
-0.03464799
0.03351399
0.3591812
-0.9742028
-0.06636448
0.165025
-0.1388945
-0.04047651
0.03214553
0.3428608
-0.9662716
-0.008991804
0.1796267
0.1843169
-0.07163781
0.05730987
0.3701577
0.597413
0.104207
0.1121135
0.7871907
-0.06616616
0.03971851
0.3668036
-0.9581919
-0.1528266
-0.0233613
-0.2407627
-0.06575723
0.03725952
0.3540236
-0.980105
-0.1511201
0.03260933
0.1244736
-0.05388046
0.05736232
0.3692667
0.644669
0.1169113
-7.578014E-05
0.7554692
-0.05223743
0.03529638
0.3608239
-0.9827372
-0.077965
0.08560162
-0.1442969
-0.05540832
0.03394371
0.3441357
-0.9751644
-0.04465928
0.1127939
0.1853042
