-0.02361787
0.09087068
0.1782974
0.1599303
0.8871627
-0.3441702
-0.2625101
-0.01968911
0.06292894
0.1729224
-0.2361274
0.08703203
-0.7085199
0.6592942
-0.009102048
0.0708198
0.2056368
-0.1183434
-0.07122511
-0.7056852
0.6949319
-0.01147126
0.07702613
0.2262767
0.04130213
-0.2719215
-0.6596855
0.6994054
0.02510111
0.1028442
0.2069097
-0.08940473
0.2286739
-0.2608211
0.933642
0.03629859
0.1006764
0.232101
0.1045417
0.1735054
-0.3024193
0.9314019
0.03954331
0.09501129
0.246155
0.2150171
0.1371712
-0.3208295
0.9121515
0.001281008
0.0968644
0.2117779
0.3921005
0.1359242
-0.2688049
0.8692098
-0.00508992
0.0733777
0.2191262
-0.8652341
0.07472709
0.2927452
-0.4001077
-0.01527459
0.064502
0.2077343
-0.9446512
0.1582584
0.2581695
-0.1262412
-0.03419858
0.1182072
0.2204944
0.03780377
0.1180059
0.0003252332
0.992293
-0.03015957
0.1128757
0.2412535
0.2800994
0.0498222
-0.03111332
0.9581723
-0.02942195
0.1051082
0.2518205
0.3533729
0.02794607
-0.04057244
0.9341844
-0.01696026
0.1032622
0.2154502
0.3915094
0.1296593
-0.1871131
0.8915703
-0.02023932
0.08043692
0.2214513
-0.8822348
0.02077834
0.2242009
-0.4134782
-0.02774066
0.07051879
0.2093885
-0.965723
0.08549491
0.2059419
-0.1328823
