-0.01736525
-0.07697497
0.2976515
0.9710201
-0.05566176
0.08659513
0.215692
-0.04627961
-0.07171443
0.2693475
-0.5394074
0.05486161
0.7096352
0.4499419
-0.07127053
-0.05033977
0.284816
-0.5192761
0.09123226
0.7041218
0.4756485
-0.0854219
-0.03579158
0.2951244
-0.5008108
0.122578
0.6979651
0.4969988
-0.04478783
-0.04364318
0.3280263
-0.09808919
0.6796764
0.7158163
0.1265918
-0.04101264
-0.02110687
0.3202757
0.007279756
-0.9630093
-0.2144712
-0.1629793
-0.03607519
-0.01762396
0.3062322
-0.03945372
-0.9840121
0.06529288
-0.1609368
-0.02774284
-0.04402345
0.3331296
-0.07613938
0.6935265
0.7160573
0.02203918
-0.02788439
-0.01823348
0.3227841
0.03988162
-0.9728684
-0.216396
-0.07148
-0.02530341
-0.01399371
0.3058777
0.01528494
-0.9928765
0.07846951
-0.08834717
0.01164376
-0.05242026
0.3272042
0.04860894
0.6674811
0.7340389
-0.1152957
0.00900974
-0.03334072
0.3216431
-0.0148405
-0.9628406
-0.2541354
0.09018272
0.006919089
-0.02991083
0.3089327
0.006816552
-0.996213
0.05974417
0.06280024
-0.006675418
-0.04809076
0.3312959
-0.00557283
0.7022861
0.7113883
-0.02626635
-0.007701809
-0.02437484
0.3206447
0.006410292
-0.9802729
-0.1974557
0.005939535
-0.007784988
-0.02121255
0.3037599
0.005942821
-0.9931789
0.1162817
-0.006237169
