0.03064586
0.08166626
0.3308862
0.05890537
0.9666905
-0.01078834
-0.2488439
0.03489203
0.06340009
0.3099919
0.08156728
0.2598228
-0.6425582
0.7162108
0.03856148
0.04801047
0.3415959
0.1925471
0.08927721
-0.6849766
0.6969665
0.03228297
0.04028159
0.3612255
0.3008348
-0.09542201
-0.6973418
0.6435119
0.07668303
0.07321614
0.365209
0.2224508
0.279777
-0.1401003
0.9233702
0.08704066
0.05622891
0.3836168
0.4329962
0.2366886
-0.2025164
0.8458605
0.08889861
0.04264838
0.389547
0.626968
0.1756764
-0.2565352
0.71431
0.05240587
0.06444854
0.3648421
0.645982
0.1684737
-0.1598537
0.7271663
0.04775587
0.04089046
0.3566408
-0.9635267
-0.0188856
0.2345008
-0.12755
0.03960608
0.03961149
0.340896
-0.9611328
0.04627893
0.2328751
0.1408942
0.01224208
0.07626778
0.3812494
0.2876922
-0.02713071
0.07071643
0.9547232
0.01167338
0.06100142
0.3975611
0.5019502
-0.06331305
0.05892964
0.8605607
0.01092317
0.0487268
0.4032665
0.5790708
-0.07685492
0.05321852
0.8099001
0.03275044
0.06693196
0.3690327
0.6619502
0.1202221
-0.0903865
0.7343017
0.03062529
0.04489335
0.3598057
-0.9811642
-0.03729482
0.142415
-0.1250757
0.02565541
0.04358512
0.3430656
-0.9791741
0.001895522
0.1446697
0.1424264
