-0.1357673
0.1176488
0.2803693
-0.2001679
0.9654675
-0.09427746
-0.1375394
-0.1179962
0.1047522
0.2620189
0.04254673
0.1917336
-0.4168409
0.8875087
-0.1128134
0.09373116
0.2951093
0.2065382
0.05461466
-0.4494016
0.8674085
-0.1178782
0.08381113
0.314062
0.3646156
-0.08870205
-0.4607756
0.8042843
-0.1012709
0.1363461
0.3239422
0.0629617
0.2016745
0.1524405
0.9654663
-0.08903585
0.1319096
0.348063
0.2112933
0.2390099
0.1198929
0.9401357
-0.08121395
0.1254842
0.3592818
0.3440422
0.265604
0.08654898
0.8964367
-0.1154904
0.1150413
0.3200074
0.549731
0.2681917
0.1126214
0.7830616
-0.1056299
0.09350288
0.3142048
-0.9391677
-0.2614633
0.1102748
-0.1934956
-0.109132
0.0883823
0.297417
-0.9573826
-0.2254435
0.1756388
0.04177259
-0.1588126
0.1038758
0.3279788
0.2019963
-0.03471958
0.3631263
0.9089177
-0.1554817
0.093234
0.3480852
0.3351305
0.005924754
0.3616813
0.869965
-0.1514157
0.08470103
0.3580416
0.4210806
0.03394847
0.3566384
0.8332753
-0.1344727
0.1064025
0.3204928
0.5740201
0.21223
0.1833221
0.7693194
-0.1232763
0.08725503
0.3140446
-0.943649
-0.285426
0.007480189
-0.1673399
-0.1235112
0.0841428
0.296752
-0.9550282
-0.2743961
0.07799224
0.08090252
