-0.07381599
0.0774608
0.3193379
0.09366322
0.966966
-0.1495294
-0.1839701
-0.06869782
0.05435497
0.3054802
0.02252437
0.09915975
-0.6646621
0.7401921
-0.07017089
0.04860902
0.3404442
0.1486765
-0.04850154
-0.671661
0.7241647
-0.0793622
0.04558831
0.3601831
0.2895827
-0.2195767
-0.6472086
0.6701112
-0.03207525
0.07781005
0.3591682
0.1576214
0.2124865
-0.1814446
0.9471446
-0.02349714
0.06488329
0.382416
0.2880575
0.1914922
-0.208025
0.9149203
-0.02051229
0.05458874
0.3935716
0.3912169
0.1703169
-0.227281
0.8753769
-0.05709989
0.06991073
0.354836
0.6243513
0.1088084
-0.1598984
0.7568215
-0.06192373
0.04499042
0.3483444
-0.9656279
-0.005837979
0.1746662
-0.192407
-0.06788927
0.04170287
0.3319211
-0.9820404
0.04272471
0.1559191
0.09726509
-0.09638952
0.0846298
0.3655929
0.2238942
-0.03106846
0.0819135
0.970668
-0.0969475
0.07208169
0.3835858
0.4312769
-0.0523455
0.07745318
0.8973635
-0.09730694
0.06119061
0.3908301
0.5230958
-0.06192813
0.07386431
0.8468056
-0.07618128
0.07309985
0.3564928
0.6288445
0.0828719
-0.07987096
0.7689652
-0.07802454
0.04998589
0.3493574
-0.9774982
-0.02290606
0.1054444
-0.181257
-0.08165242
0.04663855
0.332421
-0.9918721
0.003883094
0.1023961
0.07543132
