-0.04007135
0.2033746
0.2747247
-0.0910731
0.9497011
-0.1290344
-0.2704138
-0.0329234
0.1835863
0.257137
0.005340702
0.2081952
-0.5349414
0.8188186
-0.02687933
0.1744936
0.2908202
0.138468
0.04894426
-0.565219
0.8117626
-0.03172543
0.1681674
0.3114749
0.2647988
-0.1115526
-0.5706394
0.7692907
0.00735914
0.2139972
0.3045291
0.16894
0.3459978
-0.03615887
0.9221916
0.0222458
0.199415
0.3205937
0.4729531
0.3181082
-0.1508404
0.8076941
0.0250091
0.1857617
0.3224995
0.7708058
0.2282429
-0.2689957
0.530476
-0.0107293
0.2012498
0.3099763
0.4961194
0.3161308
-0.0480145
0.8072308
-0.005805727
0.1773455
0.3073866
-0.9127836
-0.1852186
0.2588578
-0.2559551
-0.01401352
0.1703773
0.29347
-0.945931
-0.09974819
0.3079622
0.02059602
-0.05335164
0.2017617
0.3266119
0.1779024
0.07684781
0.2351145
0.9524528
-0.04730358
0.1931202
0.3460267
0.3239378
0.1114192
0.2201346
0.9133406
-0.04223794
0.1846149
0.3542725
0.5171189
0.1491094
0.1878312
0.8216289
-0.03015513
0.1980796
0.3164974
0.5023818
0.2699549
0.02975118
0.8208848
-0.02242512
0.1760209
0.3135413
-0.9171959
-0.2570822
0.1343947
-0.2731274
-0.02598871
0.1692349
0.2983068
-0.9590155
-0.2070624
0.1903032
0.03462768
