-0.0406103
0.2014754
0.2752684
-0.07324151
0.9512538
-0.1311625
-0.269348
-0.03364314
0.1814111
0.2581353
-0.001777179
0.205913
-0.5469073
0.8114734
-0.02752662
0.1727813
0.2919495
0.1291333
0.04667748
-0.5759827
0.8058472
-0.0323258
0.1669095
0.3127497
0.255659
-0.1162173
-0.5799913
0.7646844
0.006735074
0.2103058
0.3049694
0.1914646
0.3382959
-0.06007188
0.9193958
0.02024552
0.194259
0.3207414
0.5034441
0.2873839
-0.1773634
0.7952967
0.02136689
0.1804352
0.3221324
0.8032554
0.1682805
-0.2931096
0.4904582
-0.01206974
0.1983283
0.3100408
0.5156124
0.2997452
-0.06765425
0.7998247
-0.008601614
0.1740777
0.3069623
-0.9199494
-0.1576857
0.2637048
-0.2434917
-0.01718162
0.1676606
0.2929152
-0.9488837
-0.0740935
0.3056421
0.02670114
-0.05407169
0.2004771
0.326829
0.1915904
0.07646323
0.2173864
0.9540387
-0.04791178
0.1910961
0.3457347
0.3505313
0.122369
0.2029289
0.906076
-0.04263278
0.1822107
0.3533712
0.5348036
0.1671133
0.1737895
0.8098491
-0.03134132
0.1958824
0.3165436
0.518683
0.2574779
0.0118552
0.8151887
-0.0249525
0.1734692
0.3131117
-0.9276944
-0.2246635
0.1462784
-0.2598307
-0.0291714
0.1670674
0.2977911
-0.9645261
-0.1724518
0.195884
0.03974131
