-0.06200542
-0.005217403
0.2534824
0.009399191
0.9818008
-0.01934716
-0.1886917
-0.03743749
-0.01457676
0.223568
-0.2674191
0.4629769
-0.4692569
0.7028068
-0.005812472
-0.01779449
0.2401442
-0.2178501
0.4444054
-0.5000618
0.7106218
0.01344078
-0.02036205
0.251051
-0.2550792
0.4584812
-0.4771529
0.705021
-0.02799742
-0.02034712
0.2800162
0.6694512
0.1593262
-0.2015981
0.6969997
-0.03368465
-0.03994292
0.2719757
-0.968126
0.0004584011
0.2412306
-0.0673769
-0.04052695
-0.03832564
0.258656
-0.9368757
0.08096803
0.2158873
0.2628703
-0.04304218
-0.0199644
0.2877952
0.677827
0.1675771
-0.09002411
0.7101861
-0.04497363
-0.04237711
0.2771839
-0.9780083
-0.05621385
0.186553
-0.07441548
-0.05152602
-0.04098499
0.2614541
-0.934945
0.01727944
0.2000199
0.2925257
-0.08025632
-0.01818663
0.2936369
0.5844284
0.1158519
0.1053113
0.7961981
-0.07451708
-0.03619909
0.2911003
-0.9437737
-0.1651189
-0.02165453
-0.285584
-0.07408778
-0.03922135
0.2788376
-0.9771199
-0.1615524
0.04107485
0.1321004
-0.06269313
-0.0192523
0.2909688
0.6696111
0.123735
-0.01309127
0.7322153
-0.06191029
-0.03980964
0.2809477
-0.989381
-0.06956346
0.1048756
-0.07271428
-0.0658472
-0.03837246
0.2646617
-0.9480588
-0.02643454
0.1308758
0.2887168
