-0.007174206
0.2399377
0.3133904
0.06791487
0.9887289
-0.02780835
-0.130497
0.01978382
0.2255118
0.2858243
-0.2151076
0.4392762
-0.5333927
0.690114
0.0491606
0.2191468
0.3055101
-0.1915675
0.4131042
-0.548715
0.7011124
0.06705608
0.2150893
0.3182446
-0.2081492
0.4315499
-0.5380273
0.6935166
0.02528367
0.2297754
0.3555227
0.3576168
0.05933658
-0.1529723
0.9193416
0.0229513
0.2083026
0.3691826
0.6873196
-0.008302474
-0.1652422
0.7072609
0.01902922
0.1940923
0.3683944
0.7911707
-0.03849034
-0.1653459
0.5875613
0.006581521
0.2244716
0.3532474
0.6202716
0.09608344
-0.08274008
0.7740706
0.004755687
0.2010478
0.346319
-0.9819886
-0.02212803
0.1196099
-0.1445763
0.0005951707
0.1992765
0.3293113
-0.9829787
0.01225993
0.1167306
0.1413388
-0.03371109
0.2363492
0.3571097
0.3412489
-0.02322529
0.10618
0.9336679
-0.033368
0.2195187
0.3698665
0.6228517
-0.06955678
0.07824268
0.7753037
-0.03358657
0.2067893
0.371001
0.7358231
-0.08866231
0.06226932
0.6684504
-0.01379677
0.2273416
0.3528727
0.6251118
0.04460659
-0.0116469
0.7791726
-0.01338409
0.2057592
0.3455537
-0.9901497
-0.03399671
0.03139372
-0.1321445
-0.01447769
0.2044502
0.3283167
-0.9878085
-0.02454522
0.03462063
0.1497772
