-0.004516112
-0.03945619
0.3085946
-0.06688721
0.9296016
-0.2700638
-0.2417285
0.008406366
-0.06309743
0.2962028
-0.1470693
0.1700594
-0.5548913
0.8009658
0.01727243
-0.06246874
0.3300032
0.01883334
-0.004827398
-0.5714652
0.8203959
0.012978
-0.06356257
0.351287
0.1880887
-0.1841616
-0.5535138
0.7901454
0.04041295
-0.01154566
0.3372186
-0.1698797
0.3066787
0.008472266
0.9364921
0.05692393
-0.004821479
0.3591405
-0.05296314
0.3124555
-0.03076107
0.9479558
0.06627545
-0.004794061
0.3717576
0.05441464
0.3131792
-0.06612599
0.9458252
0.01994263
-0.03282684
0.3416441
0.4709611
0.2708315
-0.08935865
0.834782
0.02316979
-0.05813041
0.342099
-0.8992634
-0.1378073
0.2495171
-0.3317765
0.01546416
-0.06704688
0.3289149
-0.9558135
-0.05586729
0.2840484
-0.05114706
-0.02097744
-0.02587575
0.3580568
-0.01537725
0.1169571
0.245009
0.9623176
-0.01502981
-0.02670443
0.3795694
0.1714416
0.1413287
0.2188129
0.9501342
-0.01000104
-0.03202459
0.3905155
0.3603537
0.1600972
0.1827073
0.9006287
0.002102863
-0.03317678
0.3491834
0.4119129
0.2638358
0.01178652
0.8721122
0.009563042
-0.05537358
0.3511531
-0.8876565
-0.2171219
0.1609496
-0.372853
0.005751731
-0.06551832
0.337703
-0.9595224
-0.1613923
0.212948
-0.08900847
