0.001748563
0.0915122
0.3464158
-0.01851373
0.982554
0.141351
-0.119435
0.03046406
0.08973569
0.3175503
-0.09086838
0.5117862
-0.4127671
0.747958
0.05865
0.07782125
0.3359462
-0.01515154
0.4529988
-0.4645104
0.7607843
0.07399621
0.06874293
0.3493165
0.00551268
0.4360292
-0.477643
0.7626962
0.03284805
0.06772104
0.3730524
0.7525994
0.1447764
-0.1202958
0.6310015
0.02961192
0.05057245
0.3601459
-0.9848563
-0.04831129
0.1588176
0.05001091
0.02483623
0.05516535
0.3465594
-0.9200381
0.005733059
0.1489863
0.3623536
0.01668197
0.0655812
0.3786312
0.7523159
0.1328279
-0.008286205
0.64522
0.01736888
0.04604772
0.3634335
-0.9906071
-0.08455536
0.1050589
0.02259572
0.01310368
0.05036727
0.347343
-0.9220189
-0.04353686
0.1344311
0.3604359
-0.02203319
0.06699476
0.3767322
0.7171043
0.02564361
0.1546363
0.6791108
-0.01678722
0.05131263
0.3681856
-0.9897915
-0.09189552
-0.07716162
-0.07690477
-0.01555661
0.053184
0.3553478
-0.9535017
-0.1117329
-0.0183761
0.2793075
-0.003839994
0.0660522
0.3781461
0.7590387
0.06856634
0.05325592
0.6452308
-0.001018519
0.04861894
0.3633598
-0.9956164
-0.0819641
0.01294276
0.04315477
-0.002245039
0.05391473
0.347398
-0.91763
-0.07241765
0.04434882
0.3882578
