-0.06299252
0.008528799
0.2531874
0.02697283
0.9792335
-0.03990858
-0.1969303
-0.03907013
-0.002911806
0.2225696
-0.287958
0.4708508
-0.4833634
0.6795142
-0.006939365
-0.006005764
0.2380487
-0.2418407
0.4426186
-0.5136997
0.6940566
0.01247424
-0.008458316
0.2486261
-0.2634768
0.4560111
-0.4998072
0.6876239
-0.02854987
-0.006211698
0.2799087
0.6499243
0.1628963
-0.2190032
0.709296
-0.03465927
-0.02594429
0.2729692
-0.9628188
0.01203775
0.2572973
-0.08144409
-0.04192096
-0.02466014
0.2598056
-0.9371305
0.09671531
0.2279413
0.2459176
-0.04354896
-0.005105108
0.2880918
0.6569629
0.1682507
-0.1076767
0.7269782
-0.04595724
-0.02798903
0.2787923
-0.9745844
-0.04776957
0.1966262
-0.09613304
-0.05275119
-0.02729493
0.2630863
-0.9409536
0.02824107
0.2034269
0.2691213
-0.08071129
-0.001648843
0.2946181
0.5551735
0.125589
0.08904309
0.8173624
-0.07540083
-0.01952195
0.2930763
-0.9421848
-0.1618616
0.002863576
-0.2933947
-0.07561913
-0.02262744
0.2809434
-0.976357
-0.1466878
0.06616116
0.144334
-0.06309757
-0.003676057
0.2917111
0.6444393
0.1275999
-0.02947412
0.7533575
-0.06272028
-0.02487957
0.283109
-0.9855248
-0.06353538
0.1166929
-0.1052946
-0.06693582
-0.02451718
0.2668388
-0.9562532
-0.01643075
0.1378375
0.2575088
