-0.04409862
0.1487132
0.3016857
-0.1352654
0.9675474
-0.06051736
-0.204678
-0.03236329
0.1332524
0.2821771
0.06990609
0.2230649
-0.4831964
0.8437277
-0.02733128
0.1193659
0.3143353
0.2276716
0.07957435
-0.5221108
0.8180672
-0.03271991
0.1087639
0.3330814
0.3669779
-0.05969848
-0.5360357
0.7579111
-0.001181762
0.1628084
0.3398798
0.0500333
0.2892002
0.09404299
0.9513233
0.01534062
0.1584731
0.360973
0.2184961
0.3579063
0.04205362
0.9068594
0.02556074
0.1518252
0.3698299
0.3341258
0.3970729
0.003348684
0.8547993
-0.01814033
0.143613
0.3406482
0.5185536
0.2906193
0.04532141
0.8028628
-0.0107439
0.1213558
0.3363998
-0.9350364
-0.2176574
0.1860601
-0.2090786
-0.01680734
0.1154489
0.320663
-0.9560235
-0.1629124
0.2423471
0.02732102
-0.06356063
0.1386167
0.3526728
0.1609436
-0.01224412
0.2925259
0.942537
-0.05990479
0.1300567
0.3737477
0.2851141
0.07841323
0.298688
0.9073846
-0.05439565
0.1229194
0.3840721
0.3992438
0.1669572
0.2980047
0.8508366
-0.03876237
0.1370362
0.3433827
0.5551909
0.2167577
0.1082057
0.7956575
-0.03046146
0.1160052
0.3382009
-0.9492043
-0.2237448
0.07409456
-0.2084698
-0.03289784
0.1115175
0.3216304
-0.9682559
-0.1912095
0.1409075
0.07787604
