0.01027141
0.07701606
0.366857
-0.0226755
0.9756223
0.1162081
-0.1847774
0.03497066
0.07422704
0.3348051
-0.1243208
0.5417112
-0.4124952
0.7217625
0.06421617
0.06241882
0.3513583
-0.02241067
0.4617535
-0.4864306
0.7413951
0.07880256
0.05247039
0.3649756
0.04800721
0.4006729
-0.5309195
0.7451718
0.04399165
0.05563611
0.388975
0.7566828
0.1713002
-0.1726117
0.6068713
0.0389114
0.03913736
0.3759014
-0.9756295
-0.0420436
0.2009009
0.07757815
0.03312045
0.04452181
0.3630041
-0.9033111
0.02708714
0.178065
0.3893432
0.02948678
0.05355483
0.3961469
0.7652475
0.1861561
-0.05627132
0.6136577
0.02809578
0.03482404
0.3799539
-0.9782439
-0.09194829
0.1768072
0.05765085
0.0214159
0.04009527
0.3649989
-0.8945415
-0.02443563
0.2045259
0.3966959
-0.008594201
0.05298966
0.3989606
0.7531382
0.08370316
0.1115391
0.6429119
-0.004262919
0.03837758
0.3884217
-0.9931561
-0.114829
-0.008601309
-0.01952552
-0.005057233
0.04161668
0.3758513
-0.931025
-0.1095977
0.05231111
0.3441574
0.00942463
0.05326527
0.3985243
0.7740545
0.1252134
0.00905294
0.6205476
0.01063174
0.03597516
0.3825868
-0.9908425
-0.09524412
0.08185002
0.04960104
0.007050744
0.0413509
0.367097
-0.9046613
-0.05915224
0.1146793
0.4061253
