-0.0690444
-0.01064426
0.2204197
0.0367139
0.9632698
-0.2545158
-0.07736345
-0.04197343
-0.03478935
0.2068438
-0.2395824
0.2435809
-0.61849
0.707629
-0.02411137
-0.03398308
0.2371294
-0.09630511
0.1094669
-0.6532744
0.7429502
-0.02146574
-0.03433335
0.2586193
0.08462007
-0.06094107
-0.6593091
0.7446054
-0.03690189
0.0146015
0.263566
-0.2179161
0.08429657
-0.04877948
0.9710959
-0.03266197
0.01944077
0.2892714
0.1275398
0.05547513
-0.07299551
0.9875869
-0.03226753
0.0118033
0.3011222
0.5507469
0.003492519
-0.09171529
0.8296108
-0.05809074
0.01385614
0.270489
-0.06630079
0.0505381
0.0270654
0.9961514
-0.05537338
0.008004874
0.2989392
0.3884898
0.03216504
0.003162377
0.920886
-0.05459043
-0.006625026
0.3082701
0.6486679
0.01583945
-0.01337635
0.7607892
-0.0975338
-0.001803786
0.2599097
0.2290009
0.02077368
0.16816
0.9585663
-0.09271058
-0.01538354
0.2702379
0.8106636
0.1620848
0.117658
0.5501906
-0.08808173
-0.02566922
0.26276
-0.9236945
-0.193456
-0.08147363
-0.320508
-0.07965008
0.00877887
0.267964
0.009459691
0.02030897
0.07624646
0.9968373
-0.07698444
-0.001057714
0.2933807
0.4665632
0.05991719
0.05837889
0.880523
-0.07413859
-0.01652366
0.2990463
0.7511737
0.08168846
0.03549679
0.6540682
