-0.02114546
0.1438224
0.3588075
0.005026702
0.9788448
0.1010485
-0.1778392
-0.003211949
0.1315283
0.3315976
0.0719834
0.4554715
-0.5279639
0.7131748
0.01061123
0.1090618
0.3543829
0.2331586
0.2925535
-0.625984
0.6842467
0.009199809
0.09428182
0.3702123
0.3808601
0.1095329
-0.6849871
0.6113434
0.01297907
0.1224258
0.3831405
0.7236885
0.1839228
-0.1732482
0.642209
0.008036324
0.1042253
0.3718565
-0.971637
-0.03796316
0.2332904
0.00749394
0.001098067
0.1071788
0.3585035
-0.9333253
0.02874299
0.2244405
0.2787548
-0.002449374
0.1210634
0.3884945
0.7590976
0.1954268
-0.06587572
0.6174461
-0.003429085
0.1017852
0.3723455
-0.9793037
-0.1196771
0.1585936
0.03860049
-0.009560438
0.1061407
0.356687
-0.9149112
-0.06077919
0.1765108
0.3578929
-0.04090775
0.1224952
0.3908999
0.7542108
0.09207575
0.1005179
0.6423273
-0.03656846
0.1086905
0.3802432
-0.9892095
-0.1422578
-0.02088568
0.0281273
-0.03699615
0.1125731
0.3674135
-0.9364996
-0.1419139
0.01759429
0.3201866
-0.0229987
0.1216313
0.3902139
0.7777258
0.1229059
-0.00323442
0.6164628
-0.02197539
0.1045007
0.3740246
-0.9908628
-0.1012034
0.06951512
0.05582613
-0.0250785
0.1096745
0.3579766
-0.9247293
-0.07402979
0.0889319
0.3626105
