-0.0664025
-0.07516092
0.2410723
0.9313579
-0.2559647
0.01007595
0.2587529
-0.08062583
-0.05922623
0.2151049
-0.3413312
0.3784736
0.5575829
0.6552496
-0.06953897
-0.03086734
0.2321751
-0.1511323
0.4958877
0.4485239
0.7280665
-0.05414184
-0.01837474
0.2416996
0.0192901
0.569842
0.3316108
0.7516265
-0.08518044
-0.03702956
0.2859126
-0.1204645
0.300139
0.9198111
0.222154
-0.08773568
-0.01899314
0.3088482
-0.1235739
0.3164968
0.9139656
0.2218698
-0.08907269
-0.00837183
0.3212572
-0.1252902
0.3420765
0.9043366
0.222399
-0.0616795
-0.04424268
0.2918372
0.04383095
0.3681967
0.9090946
0.1898869
-0.05378414
-0.02082437
0.3157533
0.05064089
0.419517
0.88713
0.1855835
-0.04887667
-0.006349325
0.3276965
0.05671932
0.465323
0.8645536
0.1811203
-0.02922036
-0.06388283
0.2632405
-0.2063786
-0.7516678
-0.6264144
0.002915572
-0.02690242
-0.05004326
0.251757
-0.1973374
-0.9758189
0.04115856
0.08450674
-0.030231
-0.05411193
0.2395569
-0.1557784
-0.9074602
0.3741663
0.1106737
-0.04258311
-0.0530076
0.2665229
-0.1920995
-0.7933622
-0.5711743
-0.08622177
-0.03651371
-0.03778827
0.2483458
-0.2306644
-0.9700155
0.07464059
0.01711279
-0.03913373
-0.04371041
0.2324934
-0.2090086
-0.8867222
0.406515
0.06917249
