-0.09509347
0.06956461
0.2781332
-0.148232
0.9631885
-0.08175342
-0.208834
-0.07371284
0.05775428
0.2533737
-0.1433997
0.3725939
-0.4471203
0.8004335
-0.05204501
0.05119699
0.2803513
0.01376608
0.2698764
-0.5106834
0.8161984
-0.04570122
0.04330584
0.2996587
0.1888137
0.1424069
-0.5577978
0.7955698
-0.05512817
0.08834907
0.3161546
-0.04376783
0.2084043
0.1258297
0.9689267
-0.04421844
0.08452719
0.3381327
0.3621345
0.2217081
0.0296114
0.9048908
-0.03911109
0.07320064
0.344717
0.6527351
0.1878158
-0.06078037
0.731415
-0.07472498
0.08455184
0.3287053
-0.02325067
0.150048
0.2075994
0.9663579
-0.06440671
0.08186463
0.3565152
0.2542104
0.1831475
0.1574063
0.9365135
-0.05705018
0.07260317
0.3683009
0.4845542
0.1995379
0.1015154
0.8456278
-0.107859
0.05544081
0.3234144
0.4535482
0.1856305
0.2387026
0.8383654
-0.09590397
0.03996116
0.3262894
-0.8295208
-0.3285604
-0.1182045
-0.4358568
-0.09064151
0.03281438
0.3161159
-0.9130122
-0.3587412
-0.04572438
-0.1887402
-0.09394583
0.07333076
0.3315758
0.07963871
0.1219419
0.2250915
0.9633908
-0.084123
0.06494385
0.3570381
0.3549864
0.1661665
0.1796106
0.9022824
-0.07663339
0.05344981
0.3666251
0.56019
0.1925049
0.1308253
0.794993
