-0.04516178
0.08688772
0.3335623
0.05184928
0.980496
-0.02656971
-0.1877054
-0.03672636
0.06823885
0.3130274
0.09062494
0.2451341
-0.6285335
0.7325586
-0.03447439
0.05199319
0.3440779
0.2473747
0.09128615
-0.6683025
0.6955893
-0.04218997
0.04207224
0.3620227
0.3906393
-0.06625232
-0.6739269
0.6235657
-0.01242528
0.0705227
0.3599093
0.6869189
0.1423026
-0.2316148
0.6739785
-0.01971149
0.05043608
0.3513424
-0.9634274
0.01070191
0.2485355
-0.0996156
-0.02688334
0.05073208
0.3377901
-0.9536775
0.08181306
0.2202992
0.187814
-0.02729414
0.07190627
0.3659875
0.7121738
0.170632
-0.1234051
0.6696749
-0.0306562
0.0494408
0.3533385
-0.9764889
-0.06631548
0.1916844
-0.07299858
-0.03750687
0.04932401
0.3367484
-0.9666488
-0.01885648
0.1960361
0.1637207
-0.06512597
0.07497013
0.3691922
0.6975676
0.07834008
0.05647202
0.7099811
-0.06110877
0.05796883
0.3614055
-0.9776204
-0.1480499
-0.04883917
-0.1412595
-0.05976775
0.05735198
0.3479314
-0.9769471
-0.1603858
-0.03937293
0.13528
-0.04718458
0.07408091
0.3683625
0.7195585
0.1129898
-0.04885999
0.6834337
-0.0475144
0.05334193
0.3556467
-0.9907032
-0.07697615
0.08769275
-0.06994275
-0.05068256
0.05363911
0.3384187
-0.9780453
-0.0536372
0.09241512
0.1789127
