-0.05949724
0.09804672
0.2943052
-0.04404183
0.9726201
-0.1151106
-0.1970283
-0.03390169
0.08531839
0.2652257
-0.3327225
0.4282458
-0.4673768
0.6981835
-0.001046641
0.08774692
0.2800478
-0.336114
0.427761
-0.4651656
0.698333
0.01952011
0.0899322
0.2889312
-0.3707417
0.4223361
-0.4419236
0.6992041
-0.01895686
0.1077811
0.3328037
0.08758458
0.1791482
-0.02066953
0.9796978
-0.009924304
0.1016728
0.3573188
0.1559596
0.1672767
-0.03409048
0.9728993
-0.005242365
0.09754729
0.3705854
0.1071733
0.1695518
-0.02556343
0.979343
-0.03815738
0.0927459
0.333977
0.5315934
0.188805
-0.0390585
0.824764
-0.03600106
0.0688886
0.3312144
-0.9546224
-0.09534609
0.1678188
-0.2268085
-0.04173568
0.06376868
0.3153445
-0.9786953
-0.04260746
0.1942151
0.0511926
-0.08219212
0.09686646
0.3440024
0.1659321
-0.04035689
0.2119442
0.9622461
-0.08035639
0.08709884
0.3639857
0.3413116
0.04931361
0.2236142
0.9116311
-0.0758796
0.07802236
0.3723768
0.5203697
0.1419997
0.2241126
0.8116804
-0.05813634
0.091723
0.3377334
0.5113983
0.1486463
0.04237564
0.8453286
-0.05356624
0.06893912
0.3362818
-0.9465764
-0.1173265
0.08097083
-0.28926
-0.0561705
0.06276003
0.320779
-0.9872453
-0.07866865
0.1288437
0.05057146
