-0.006459135
-0.05726948
0.2933913
-0.2829585
0.9085317
-0.1955505
-0.2372019
0.01427566
-0.05509168
0.2605846
-0.5508647
0.2656336
-0.2035547
0.7645603
0.03553735
-0.02788121
0.2705646
-0.5449936
0.214862
-0.1760856
0.7910816
0.04714864
-0.01012027
0.2777705
-0.5420828
0.1951355
-0.1653915
0.8004462
0.03191897
-0.02734271
0.324564
0.06053504
0.3318377
0.1756716
0.9248561
0.05094871
-0.03272086
0.3438686
0.3348331
0.3804638
0.06842025
0.8593327
0.06196558
-0.04236567
0.3505144
0.4619099
0.3920878
0.01169012
0.7954683
0.02003475
-0.04651216
0.3263212
0.4456608
0.4278999
0.09870982
0.7800927
0.03133993
-0.0656711
0.3219549
-0.8800948
-0.3238637
0.270127
-0.2181215
0.02289511
-0.07251278
0.3085241
-0.8962846
-0.2101369
0.3819203
0.08156867
-0.01066869
-0.06764325
0.3367633
0.4637774
0.3841223
0.2813967
0.7471121
0.002552919
-0.07867691
0.3336031
-0.8590895
-0.4498317
0.07489353
-0.2323955
0.0001488401
-0.08249217
0.3216241
-0.8797508
-0.379881
0.2606573
0.117417
0.004004044
-0.05803922
0.332425
0.4870525
0.3877216
0.1688982
0.76415
0.01615476
-0.07520355
0.3265285
-0.8938238
-0.3629018
0.1796509
-0.1926314
0.01021975
-0.08051521
0.3116215
-0.9024591
-0.2759127
0.3084624
0.1195438
