-0.04795125
0.01964584
0.2112913
0.2152828
0.9480582
-0.04836556
-0.2291283
-0.04930229
-0.004482985
0.1931253
0.1017753
0.2300302
-0.764444
0.5935936
-0.05062055
-0.01926833
0.225377
0.2010908
0.0542516
-0.797616
0.5660636
-0.05884742
-0.02493119
0.2453364
0.2819541
-0.1034568
-0.7986304
0.5215248
-0.003968319
0.004922837
0.2495054
0.1256833
0.2656894
-0.2723303
0.9162146
0.005023431
-0.009472638
0.2719185
0.3413813
0.2010927
-0.3264472
0.8581684
0.005641695
-0.02188694
0.2818151
0.4869853
0.1465501
-0.3542627
0.7847716
-0.02325057
0.01065958
0.260163
0.2592438
0.1509797
-0.2155938
0.9292562
-0.0227578
-0.01166636
0.2819652
0.5537387
0.03014219
-0.2645603
0.7889695
-0.02879057
-0.02811316
0.2863516
0.7239618
-0.05929122
-0.2797087
0.6277954
-0.06491377
0.02577937
0.2607684
0.2494994
0.01517278
-0.06957783
0.965753
-0.06596391
0.01046762
0.2756434
0.6292633
-0.01839903
-0.07031755
0.7737859
-0.06775515
-0.002814114
0.2755835
0.8104235
-0.03745468
-0.06390214
0.5811433
-0.04532949
0.01692307
0.2605701
0.3461687
0.07592454
-0.1751149
0.9185519
-0.04886537
-0.006729275
0.2740029
0.7300633
-0.03267388
-0.1972203
0.6534862
-0.05526401
-0.02200794
0.2696201
-0.8861184
0.09690715
0.1882765
-0.4122563
