-0.0496394
0.08288774
0.3195178
-0.056073
0.9748449
-0.07771406
-0.2012309
-0.02421083
0.07152569
0.2891882
-0.2934252
0.4633377
-0.4533813
0.7026131
0.008630367
0.07098889
0.3042566
-0.2760124
0.4494837
-0.464653
0.7112519
0.02886295
0.07044476
0.3142042
-0.2788092
0.4517266
-0.4628725
0.7098997
-0.008816249
0.092471
0.3592291
0.04111354
0.1754324
0.0147468
0.9835222
0.0009628258
0.08725026
0.3838391
0.2054888
0.2001404
-0.01392552
0.9578748
0.006618506
0.08123761
0.3963641
0.2078153
0.199403
-0.01455395
0.9575173
-0.02646184
0.07668617
0.3609191
0.4949632
0.2118588
-0.01211119
0.8426035
-0.02186186
0.05278516
0.3597952
-0.9373779
-0.1499187
0.1515813
-0.2754456
-0.02662332
0.04628009
0.3444288
-0.976415
-0.09355832
0.1900316
0.04181767
-0.07159898
0.07958263
0.3697938
0.1321326
-0.03053541
0.2211796
0.9657578
-0.06969173
0.07091972
0.3899834
0.3383929
0.0482962
0.2262013
0.9121353
-0.06563058
0.06198955
0.3987288
0.4928696
0.1070043
0.2206297
0.8348366
-0.04737885
0.07411793
0.363561
0.5098422
0.155278
0.05605594
0.8442792
-0.04186689
0.05207413
0.3616589
-0.9506158
-0.1525169
0.06531593
-0.2623017
-0.04373652
0.04620087
0.3456379
-0.9855907
-0.1261319
0.1076202
0.03346293
