0.001555228
0.09560746
0.2947866
0.1012231
0.9371285
-0.177718
-0.2827728
0.004895126
0.07023108
0.2797089
-0.07415582
0.2299154
-0.690164
0.682139
0.01327112
0.06377226
0.3130063
0.05611615
0.0341975
-0.7207862
0.6900354
0.008824591
0.06193751
0.3341082
0.1943753
-0.1811357
-0.7079247
0.6544088
0.03897712
0.08504838
0.3175205
0.5491218
0.1579238
-0.3424865
0.7458072
0.0294765
0.06392467
0.3174969
-0.8971296
0.06812092
0.3560447
-0.2524882
0.01940765
0.0607807
0.3065981
-0.9348281
0.1734811
0.3071949
0.04039915
0.02458794
0.08936572
0.326609
0.5868884
0.1555479
-0.2397769
0.7575446
0.01779145
0.06463039
0.322565
-0.9424329
-0.005683998
0.2568516
-0.2140448
0.009188283
0.06039757
0.3075955
-0.9702638
0.05870421
0.2305179
0.04476178
-0.01073964
0.09727561
0.3357456
0.5828406
0.1276222
-0.04987866
0.8009505
-0.009390908
0.0792608
0.3326983
-0.9636929
-0.1190375
0.08090132
-0.2249026
-0.01124424
0.07613927
0.3197842
-0.9895818
-0.09733673
0.08284108
0.06626342
0.005909442
0.09356642
0.331925
0.6007068
0.1174566
-0.1592001
0.7746036
0.002068467
0.07028359
0.3265461
-0.9630684
-0.02855578
0.166895
-0.2093559
-0.003395175
0.06605107
0.3105358
-0.9875042
0.01196298
0.1483083
0.05193334
