-0.07324439
-0.06202586
0.2483031
0.8466174
-0.4796877
0.04363096
0.2263516
-0.07988198
-0.04078138
0.2179182
-0.4217328
0.3143238
0.3932869
0.7541004
-0.07125956
-0.01095584
0.2347931
-0.3189565
0.3773495
0.3393701
0.8004386
-0.06136239
0.004923522
0.2462703
-0.2318389
0.4226055
0.2912665
0.8263287
-0.07434009
-0.01984516
0.2906136
0.04034477
0.3417426
0.7936247
0.5017412
-0.06086773
-0.004593253
0.3117667
0.08747426
0.4168362
0.7572185
0.495193
-0.05081023
0.004570127
0.3206561
0.1639929
0.540976
0.6773691
0.470768
-0.06294867
-0.03347236
0.2949104
0.09392922
0.4431718
0.7900684
0.4129989
-0.04435555
-0.0121904
0.3077802
-0.1704067
-0.6580337
-0.642733
-0.3533379
-0.03274463
-0.0004863143
0.3048085
-0.2536347
-0.8701214
-0.3573707
-0.2254871
-0.03941525
-0.06707007
0.2815681
0.2818467
0.6004816
0.707218
0.2445957
-0.02611057
-0.05265188
0.2763575
-0.3821604
-0.8784897
-0.2779188
-0.07050189
-0.02351209
-0.04866698
0.2636341
-0.3894246
-0.9203798
-0.01897267
0.02982738
-0.04843946
-0.04984108
0.2863478
0.2226858
0.6113374
0.6837948
0.3303064
-0.02835822
-0.03242517
0.2801064
-0.3735663
-0.8632244
-0.2820196
-0.1890948
-0.02072009
-0.02837896
0.2648002
-0.4141263
-0.9048928
-0.03453334
-0.09206507
