-0.08544017
0.1509072
0.2536454
0.0333342
0.9809284
-0.1161497
-0.1522424
-0.07565099
0.1290337
0.2371118
0.05431172
0.1353962
-0.6225516
0.7688614
-0.07672583
0.1198179
0.2709548
0.1948485
-0.02043501
-0.638428
0.7443293
-0.08632908
0.1143147
0.2894987
0.3543829
-0.2092464
-0.6188932
0.6690291
-0.04571154
0.1567032
0.2971183
0.06214086
0.196262
-0.08955305
0.9744743
-0.03585577
0.1496021
0.3221328
0.2002926
0.1893795
-0.1159611
0.9542386
-0.03131103
0.1419757
0.3347598
0.3039318
0.1804816
-0.1349447
0.9256576
-0.06824568
0.1443377
0.2950082
0.5372314
0.1371895
-0.07614626
0.8287118
-0.0683056
0.1187522
0.2933484
-0.944328
-0.05210299
0.1490866
-0.288623
-0.07331844
0.1117461
0.2778654
-0.9870509
-0.007933721
0.1595792
-0.01421549
-0.1105641
0.1539514
0.3003574
0.1776159
-0.01678034
0.141804
0.9736851
-0.1099201
0.1434995
0.3202989
0.3487584
-0.02562189
0.1363231
0.9268911
-0.1091655
0.1335919
0.3292563
0.4862421
-0.03283783
0.1281263
0.8637558
-0.08850924
0.1455083
0.2955153
0.5373411
0.1018752
-0.0008676265
0.837189
-0.08640963
0.1218383
0.2933577
-0.9539003
-0.07041437
0.07118721
-0.2829284
-0.08868138
0.1154374
0.2774825
-0.9946433
-0.0451516
0.09209636
0.01282199
