-0.1079964
-0.03084394
0.193216
-0.6173365
0.7608645
-0.08402055
-0.1814426
-0.0912234
-0.0205988
0.1690509
-0.158644
0.3463767
0.02931574
0.924119
-0.07064877
-0.01821044
0.1962751
0.1358248
0.2635867
-0.0659213
0.9527477
-0.06202774
-0.02819461
0.213423
0.3801868
0.1695403
-0.1431102
0.8979052
-0.09445013
0.009902656
0.2350277
-0.02844244
0.2513349
0.5942193
0.7634954
-0.08275202
0.01917356
0.2594988
0.03862141
0.3035399
0.5696633
0.7627947
-0.07437557
0.02364743
0.2723438
0.06030157
0.3201866
0.5607182
0.7612091
-0.09718801
-0.008331865
0.2463146
0.02894656
0.2402016
0.6539168
0.716839
-0.08287883
0.0006428063
0.2751874
0.07374018
0.2865006
0.6365979
0.7121959
-0.07307053
0.005485982
0.2905251
0.09502121
0.3084058
0.6272888
0.7087775
-0.09311338
-0.05189607
0.2289815
-0.4468875
-0.5374227
-0.529775
-0.4804237
-0.07701978
-0.05023049
0.2210924
-0.663848
-0.743961
-0.02774707
-0.07111935
-0.07856169
-0.05141455
0.2079668
-0.6517696
-0.7127645
0.2189279
0.138686
-0.08905235
-0.03472346
0.229505
0.4544927
0.5391866
0.449787
0.548093
-0.06890925
-0.03717524
0.2180825
-0.7060121
-0.7000881
0.02983609
-0.1026325
-0.07081989
-0.04031596
0.2013676
-0.7027714
-0.6557407
0.2475443
0.1218128
