-0.04592505
0.1707758
0.3127901
0.008266136
0.984736
0.01795565
-0.1729285
-0.02092636
0.1599202
0.2828911
-0.1647512
0.4975898
-0.4850025
0.7000243
0.007995646
0.1499025
0.301405
-0.09825528
0.4314836
-0.5319163
0.7219647
0.02326015
0.1424821
0.3158439
-0.04322888
0.3740159
-0.5656307
0.7336929
-0.0100129
0.1549418
0.3466979
0.5324637
0.1589685
-0.1470415
0.8182849
-0.01136918
0.1315065
0.3465887
-0.9175763
-0.06519122
0.1967981
-0.3392264
-0.01670586
0.124983
0.3343262
-0.9815442
0.003142786
0.1909063
0.01076576
-0.02525723
0.1555966
0.3556875
0.520268
0.172009
-0.03224535
0.8358794
-0.0214242
0.1276455
0.3570377
-0.8775833
-0.1169147
0.1250942
-0.4478056
-0.0247364
0.1163223
0.3445518
-0.9775016
-0.06068967
0.1677262
-0.112585
-0.06626166
0.1561838
0.3547974
0.5100768
0.06835365
0.1277639
0.847836
-0.06096291
0.1370412
0.356811
-0.8913801
-0.1037421
-0.05649228
-0.4375932
-0.05924799
0.1295915
0.3462205
-0.9893362
-0.109327
-0.0005860089
-0.09623481
-0.0467651
0.1560788
0.3570654
0.5259717
0.1120171
0.02816022
0.8426227
-0.04261346
0.1304033
0.357396
-0.9041862
-0.09793053
0.04526071
-0.4132898
-0.04360411
0.1207031
0.3437251
-0.9920014
-0.07143217
0.08529714
-0.05962544
