-0.01696517
0.06103787
0.3705705
-0.1217087
0.9737256
0.1210317
-0.1496553
0.01024755
0.06406406
0.3410736
-0.1308797
0.5047039
-0.3398318
0.7827253
0.0398076
0.05662212
0.3595371
-0.03189624
0.4473055
-0.4010362
0.7987931
0.05551968
0.04905862
0.3733751
0.02610896
0.4102846
-0.4335808
0.8018682
0.01865389
0.04485047
0.3962346
0.7355172
0.2170047
-0.06827686
0.6381707
0.0184899
0.02763391
0.3833141
-0.9752225
-0.1426711
0.1620026
0.04838708
0.01296127
0.03167403
0.3698478
-0.9109967
-0.08166906
0.1768817
0.3634941
0.003903097
0.03971356
0.4013525
0.7488878
0.2280401
0.04392188
0.6206736
0.007999824
0.02174902
0.3850564
-0.9710257
-0.2000848
0.1191429
0.05366762
0.002262012
0.02652824
0.3696922
-0.8837098
-0.1421981
0.1819414
0.4071045
-0.03379443
0.03209418
0.3997455
0.7515234
0.1157521
0.2052265
0.6161949
-0.02573154
0.01887128
0.3891765
-0.9752359
-0.2075584
-0.07491326
-0.01491626
-0.02557847
0.0225158
0.3768032
-0.9060481
-0.2202161
0.0213487
0.3607298
-0.0160687
0.03576013
0.4012957
0.7685727
0.1673373
0.105182
0.6084661
-0.009991843
0.01975676
0.3850816
-0.977988
-0.1990316
0.02730728
0.0563938
-0.01283935
0.02532026
0.3696385
-0.8820328
-0.1732053
0.09761859
0.4271871
