-0.1047171
0.2022029
0.2924345
-0.02668697
0.993431
-0.06478823
-0.09047238
-0.0745171
0.1916135
0.267967
-0.2337171
0.3678073
-0.4891969
0.7555003
-0.04780963
0.1906693
0.2915975
-0.1814551
0.327078
-0.5130813
0.7725553
-0.03282122
0.1892923
0.3078361
-0.1593378
0.3095553
-0.5222602
0.7784802
-0.07263137
0.2020977
0.3390656
0.2539305
0.1068328
-0.03636642
0.9606162
-0.06884506
0.1839915
0.3583185
0.5438788
0.07293498
-0.07273497
0.8328181
-0.0693562
0.1699772
0.3599967
0.8439377
0.01388201
-0.1106652
0.5247186
-0.09152323
0.1929117
0.3356853
0.5555434
0.1135641
0.0196771
0.8234608
-0.08837699
0.1689707
0.3321837
-0.9687929
-0.0889819
0.06829254
-0.2210399
-0.09075727
0.1647775
0.3154724
-0.9883882
-0.06162427
0.09711573
0.09929622
-0.1302014
0.1902679
0.3299579
0.5205483
0.04198057
0.1962878
0.8299025
-0.1234744
0.1729732
0.3303636
-0.930741
-0.1470656
-0.1191649
-0.312878
-0.1204662
0.1692122
0.3183781
-0.9807144
-0.1790497
-0.04805978
0.06189293
-0.1118353
0.1915625
0.3336555
0.5601878
0.07380422
0.09084886
0.8200544
-0.1068408
0.1693149
0.3299023
-0.9692899
-0.1052203
-0.009245594
-0.2220818
-0.1066238
0.1656477
0.3133507
-0.9873468
-0.1007243
0.03310363
0.1179203
