-0.1974863
0.03793085
0.2653469
-0.3180175
0.9470772
-0.03716468
0.02299025
-0.1607565
0.04851335
0.2468001
-0.2318853
0.3000777
-0.2525355
0.8901733
-0.1370268
0.05746943
0.2723623
-0.2212121
0.3132218
-0.2585486
0.8866284
-0.1218417
0.06229472
0.2880976
-0.2063321
0.33084
-0.2666699
0.8813962
-0.1835996
0.05449444
0.3189585
0.03553962
-0.0372254
0.306046
0.9506246
-0.1826979
0.04817539
0.3446702
0.2704899
0.00914278
0.3049064
0.9131176
-0.1790756
0.03922904
0.3554856
0.50652
0.04333796
0.2797066
0.8144467
-0.1881978
0.0311054
0.3100785
0.5308884
0.187342
0.3193948
0.7622647
-0.1723881
0.01572537
0.3058493
-0.9069088
-0.3950392
-0.09790147
-0.1089769
-0.1694624
0.01547384
0.2881736
-0.9072837
-0.4082634
-0.01992328
0.09879451
-0.2255986
0.01047176
0.302074
0.2250499
-0.1102875
0.4967001
0.8309502
-0.2225492
-0.001860261
0.3203356
0.3937068
-0.05345524
0.4983664
0.7705637
-0.2176132
-0.01100332
0.3285279
0.4931121
-0.01676542
0.4902785
0.7184612
-0.2039871
0.01854485
0.303829
0.5473495
0.1277189
0.3828417
0.7331635
-0.1881286
0.005650669
0.2996995
-0.8942168
-0.4038009
-0.1809793
-0.06758486
-0.1829801
0.007746965
0.2827498
-0.888648
-0.4316043
-0.1107411
0.1084381
