-0.1118562
-0.01240861
0.2536975
-0.1886092
0.9623655
-0.1594462
-0.1133851
-0.08013598
-0.01578054
0.2275359
-0.3971274
0.3297695
-0.3685206
0.7731329
-0.05256675
-0.003386855
0.2464209
-0.3306438
0.2868228
-0.3919887
0.8091676
-0.03627413
0.003680259
0.2596611
-0.3569062
0.3038756
-0.3832068
0.7958832
-0.07989711
-0.006018668
0.2848295
0.5724964
0.2463377
-0.01726154
0.7818361
-0.07581727
-0.02632308
0.2796861
-0.9545591
-0.1911694
0.1642763
-0.1590113
-0.08084132
-0.02861032
0.2656245
-0.9562968
-0.1291106
0.2031247
0.1660342
-0.0945349
-0.0113948
0.2910565
0.5658516
0.2706637
0.09403788
0.7731171
-0.08526975
-0.03252956
0.2842085
-0.9419929
-0.2748774
0.109297
-0.1585754
-0.0893181
-0.0354436
0.2676457
-0.9418802
-0.224105
0.1860895
0.16736
-0.1292412
-0.02657688
0.2916008
0.5318769
0.2128953
0.2875917
0.7675113
-0.1170916
-0.04023743
0.2895932
-0.9019399
-0.3453388
-0.08139374
-0.2462126
-0.1153773
-0.04264718
0.2769325
-0.9300333
-0.3508812
0.05102191
0.0965265
-0.1129859
-0.019256
0.2921566
0.569563
0.2262794
0.1765549
0.7702104
-0.1019861
-0.03809541
0.2857258
-0.9420564
-0.2926206
0.02314113
-0.162381
-0.1032861
-0.04028147
0.2690154
-0.9409402
-0.267839
0.1174768
0.1705672
