0.04048582
0.06650299
0.2888371
0.1754353
0.9164475
-0.1581929
-0.3229886
0.04032202
0.04070008
0.2727748
-0.1036205
0.2892467
-0.7337189
0.6060163
0.05172836
0.03216422
0.3043353
0.02777679
0.07447067
-0.7790226
0.6219376
0.04897703
0.03038722
0.3254713
0.1679399
-0.1634334
-0.7702847
0.5930828
0.07587583
0.05022806
0.3088983
0.5698902
0.105947
-0.4201234
0.6982096
0.06268562
0.03173634
0.307844
-0.9077972
0.1363973
0.355213
-0.1764199
0.05306785
0.03127062
0.2961175
-0.9286593
0.2340385
0.2662194
0.1092946
0.06351854
0.05662918
0.3190556
0.5976182
0.1175736
-0.3179266
0.7266028
0.05250564
0.03369731
0.3148811
-0.9413063
0.06444373
0.2816841
-0.1744806
0.04329714
0.03172964
0.2999591
-0.9595276
0.1374361
0.2241409
0.1008918
0.03073416
0.06987089
0.3304123
0.5893829
0.09253441
-0.1297788
0.7919739
0.02899105
0.05185875
0.3274247
-0.9683783
-0.04827714
0.1128986
-0.2171793
0.02635992
0.04934347
0.3146488
-0.9912812
-0.01869067
0.08605592
0.09801386
0.0462315
0.06374758
0.3255028
0.6070083
0.08043269
-0.2381912
0.753881
0.03853203
0.04131609
0.3201922
-0.9615857
0.03350725
0.1910027
-0.1942892
0.03240418
0.03825819
0.3043095
-0.9826413
0.08049484
0.1416436
0.08873369
