-0.03422225
0.1950127
0.2733879
0.03565668
0.9637468
-0.1028356
-0.2436093
-0.0139704
0.1800392
0.241304
-0.3680894
0.4608851
-0.4880578
0.6433465
0.02028041
0.1810034
0.2520532
-0.3736213
0.4629244
-0.4840364
0.6417296
0.04180662
0.1823741
0.2574779
-0.4357802
0.4847281
-0.4359281
0.6205652
0.009585449
0.1943376
0.3076247
0.2168189
0.2180242
-0.1476649
0.9400267
0.0179474
0.1797915
0.3286804
0.3235449
0.1937961
-0.1732614
0.9098035
0.02103193
0.1695997
0.3387589
0.3948078
0.1718995
-0.1909494
0.8821087
-0.0127584
0.1849084
0.3085766
0.6078166
0.1549917
-0.1495485
0.7643114
-0.01708637
0.1603438
0.3030357
-0.9533928
0.005345489
0.2346804
-0.1895752
-0.02523084
0.1577903
0.2877785
-0.9590663
0.0846763
0.2361167
0.131418
-0.0493094
0.1910799
0.3202409
0.4281551
0.1004206
0.07462462
0.8950028
-0.04440031
0.17193
0.3272337
0.7897671
0.1075549
0.01318036
0.6037601
-0.0432971
0.1612431
0.3202072
-0.9595346
-0.09622992
0.03934612
-0.2616965
-0.03116283
0.1877212
0.3142435
0.5798658
0.1359665
-0.06410494
0.8007243
-0.03177445
0.1641475
0.3099101
-0.9582514
-0.03419147
0.1568949
-0.2365779
-0.0371884
0.160356
0.2945126
-0.9743112
0.03115951
0.1771493
0.1355175
