-0.08227294
-0.01769203
0.2130467
0.1438433
0.9680299
-0.159899
-0.1290721
-0.07381538
-0.04377121
0.1991709
0.01928879
0.1371692
-0.7050386
0.6955093
-0.07645389
-0.05031028
0.2326939
0.2027813
-0.09887706
-0.7142965
0.662483
-0.0889189
-0.05219185
0.2501059
0.3529423
-0.3046702
-0.6670712
0.5810541
-0.04004402
-0.008282274
0.2561427
-0.1628843
0.256636
-0.1560351
0.939819
-0.02491481
-0.002627224
0.2792452
-0.1292577
0.2651348
-0.1668575
0.9408265
-0.01638946
-0.0008545518
0.2921879
-0.07464225
0.2793329
-0.1839551
0.9394478
-0.06378556
-0.00137496
0.2650216
-0.07435628
0.08995956
-0.08081669
0.9898723
-0.05830738
0.001698196
0.2962781
-0.02291876
0.06843361
-0.08419751
0.9938322
-0.05588032
0.002206922
0.3138185
-0.01469859
0.06473462
-0.08473447
0.9941899
-0.1056728
-0.01348037
0.2515224
0.4700404
0.04012379
0.03058756
0.8812018
-0.1039574
-0.03089148
0.2531451
-0.9483303
-0.05330214
0.003896822
-0.3127513
-0.1039216
-0.0361999
0.2407281
-0.9981567
-0.05047732
0.01742188
-0.02884084
-0.08794067
-0.01699483
0.2548732
0.493368
0.03683052
-0.07221551
0.8660349
-0.0900162
-0.04014385
0.2550589
-0.9498647
0.02285305
0.07858341
-0.3017608
-0.09281959
-0.04719704
0.2394008
-0.9962432
0.04377019
0.06948832
-0.0274816
