0.02511901
0.1031414
0.3433301
0.04675957
0.9806323
0.1219041
-0.1459907
0.05095445
0.09634745
0.313109
-0.08985185
0.5263748
-0.4686421
0.7037264
0.07820204
0.08135837
0.3305689
-0.001654234
0.4647312
-0.530306
0.7090824
0.09222209
0.07003185
0.3436658
0.0408684
0.4324867
-0.5571074
0.7077545
0.05430528
0.07738256
0.3686839
0.7508586
0.09753632
-0.1932645
0.6239766
0.04782149
0.06079358
0.3563697
-0.9834949
0.0277514
0.169705
0.05628411
0.04339896
0.06583574
0.3427574
-0.9213162
0.08024267
0.1300311
0.3575325
0.03904875
0.07741761
0.3746302
0.7618414
0.1125385
-0.07844239
0.6330717
0.03598663
0.05810404
0.3592948
-0.9882166
-0.01979427
0.1473132
0.0365357
0.03089616
0.06327635
0.3437655
-0.9086279
0.03371979
0.1542361
0.386613
0.0009375482
0.08280325
0.3747767
0.7387468
0.007150361
0.08513694
0.6685461
0.003773221
0.06742942
0.365126
-0.9972508
-0.04778205
-0.04628779
-0.03263863
0.004485648
0.07055587
0.3525363
-0.9375094
-0.06129355
-0.01443266
0.3422151
0.01884388
0.08036751
0.3753318
0.7711536
0.04835701
-0.01516908
0.6346288
0.01846125
0.0628522
0.3599553
-0.997388
-0.0237655
0.04592713
0.05042981
0.0167364
0.06853238
0.3442014
-0.9126909
-0.005775885
0.05286669
0.4051752
