-0.146395
0.07139134
0.2819949
-0.2768019
0.9428127
-0.1093564
-0.1500873
-0.1161638
0.07323676
0.252923
-0.3633268
0.3872491
-0.2890908
0.7965289
-0.08648694
0.08560443
0.2694095
-0.3399814
0.3765853
-0.2997172
0.8079392
-0.06811788
0.09301952
0.2801607
-0.3514161
0.3818367
-0.2945653
0.8024579
-0.1174276
0.09846735
0.3242886
-0.05936381
0.1248944
0.2619559
0.9551212
-0.1097077
0.1007646
0.3500627
0.09501901
0.1963688
0.2351427
0.9471635
-0.1026417
0.09792763
0.3627571
0.2616068
0.255611
0.1972162
0.9095773
-0.1249726
0.07513279
0.3248584
0.4325001
0.2990237
0.2010711
0.826498
-0.1103247
0.05707788
0.3234642
-0.8866561
-0.3826454
0.05904174
-0.252859
-0.1110233
0.05057749
0.3071144
-0.9227364
-0.3542297
0.1514425
0.01200695
-0.1661341
0.0570392
0.3311251
0.140737
0.004221017
0.4385231
0.8876221
-0.1604659
0.04960918
0.3513638
0.3371006
0.1058502
0.4265274
0.8326064
-0.1532338
0.04268438
0.3601987
0.463181
0.172177
0.4049374
0.7693141
-0.1425232
0.06324244
0.3259183
0.4645374
0.2521287
0.2642535
0.8067257
-0.127848
0.04728186
0.3235038
-0.8932418
-0.3948624
-0.01835381
-0.2141635
-0.1264902
0.04298982
0.3067169
-0.9176715
-0.388335
0.07545682
0.03716491
