-0.04041282
0.171065
0.2862853
-0.1228346
0.9723578
0.0004906541
-0.1985743
-0.0166695
0.1677745
0.254227
-0.2463352
0.4770204
-0.37646
0.7550155
0.01557987
0.1682875
0.2692519
-0.2484834
0.4775535
-0.3750972
0.7546527
0.03565276
0.1691768
0.2780389
-0.2859367
0.4870119
-0.3507182
0.7470317
0.003363942
0.1868303
0.3259128
-0.1205418
0.3131773
0.1557004
0.9290571
0.01954905
0.1941388
0.3477863
-0.03315312
0.3375481
0.1236676
0.9325602
0.0296965
0.1948217
0.359483
0.1063599
0.3700607
0.07037654
0.9202119
-0.01912671
0.184075
0.3388939
-0.1195583
0.16867
0.2210082
0.9531063
-0.009428386
0.19194
0.3684233
-0.0346872
0.1934954
0.2042369
0.9589806
-0.002276184
0.1928766
0.3846527
0.111387
0.2323894
0.1716274
0.9508587
-0.06544323
0.1615323
0.3372804
0.002802614
-0.1346622
0.274342
0.9521527
-0.07056631
0.1577729
0.3598595
0.1250673
-0.1170283
0.2887478
0.9419593
-0.07178657
0.1520725
0.3725464
0.2743464
-0.08803939
0.3010508
0.9090388
-0.0427767
0.174259
0.34109
-0.06665353
0.04578776
0.2258988
0.9707886
-0.03996609
0.1766297
0.3709599
0.03498976
0.06831702
0.2199524
0.9724863
-0.03666947
0.1743857
0.38784
0.1793534
0.09969647
0.2073257
0.9565088
