-0.07748841
0.09614399
0.3063084
-0.03203639
0.9841483
-0.04295488
-0.169058
-0.0662054
0.07927278
0.2864542
0.08189794
0.2028167
-0.5608307
0.7985156
-0.06390478
0.06535578
0.3186728
0.2321663
0.06107863
-0.5926812
0.7688285
-0.07134565
0.05586296
0.3367444
0.3946516
-0.1080283
-0.5963518
0.6906118
-0.03637323
0.09746453
0.3479913
0.1842217
0.2321972
-0.03190132
0.9545309
-0.02499889
0.08436361
0.3696008
0.3377113
0.2223492
-0.06971751
0.9119493
-0.02003251
0.07323074
0.3788772
0.4759026
0.2063462
-0.1044898
0.8485399
-0.05864891
0.08397377
0.3428064
0.6478556
0.176509
-0.04359762
0.7397479
-0.05732389
0.06006944
0.333604
-0.9730154
-0.115782
0.1391995
-0.1430352
-0.06229136
0.05757639
0.3166114
-0.9770768
-0.07582357
0.1597701
0.1185125
-0.1011153
0.08826464
0.3536739
0.2615863
-0.03044642
0.1903145
0.9457411
-0.09977931
0.07489729
0.3718301
0.4015611
-0.03287341
0.1842388
0.8965066
-0.09840322
0.06426346
0.3798873
0.5083022
-0.03465142
0.1762052
0.842247
-0.07854722
0.08259273
0.3440005
0.6597342
0.1347853
0.029872
0.7387092
-0.07515568
0.06103277
0.3343151
-0.982787
-0.1221316
0.06530028
-0.1222688
-0.07763617
0.05940598
0.3169061
-0.9823229
-0.102087
0.09326254
0.1261826
