-0.01096042
0.1779058
0.2696743
0.1986693
0.9458182
-0.159701
-0.2011322
-0.01166636
0.1521645
0.2563683
0.03301313
0.09110163
-0.7491603
0.6552629
-0.01490364
0.1471535
0.2911344
0.1513333
-0.0748116
-0.75255
0.6365297
-0.02542864
0.1465085
0.3100531
0.2963388
-0.2868472
-0.7092694
0.5716982
0.03181704
0.1741831
0.3089506
0.08674771
0.2121878
-0.2738305
0.93406
0.03892953
0.1631944
0.3325735
0.2904035
0.1539718
-0.3128946
0.891098
0.03932866
0.1530171
0.3436018
0.4207406
0.1089486
-0.3312449
0.837487
0.006220111
0.1699262
0.3086981
0.5411603
0.07011881
-0.2410973
0.802559
-0.002363266
0.1459341
0.3076423
-0.936798
0.08742209
0.2185536
-0.2588459
-0.01005521
0.1408719
0.2924492
-0.9736122
0.1414361
0.1790317
0.004767861
-0.02966903
0.1942751
0.3154581
0.1417683
-0.01442893
-0.02125172
0.9895666
-0.03087213
0.1850869
0.3347216
0.3672396
-0.04189005
-0.02058374
0.9289547
-0.03230131
0.1751075
0.3422
0.5559866
-0.06938165
-0.0207222
0.8280312
-0.01243983
0.1773414
0.3102997
0.5383117
0.03611272
-0.1637282
0.8258992
-0.0184548
0.1543582
0.3086506
-0.9480326
0.07836968
0.1463413
-0.2714347
-0.02375266
0.1484576
0.2930475
-0.985998
0.1131169
0.1209532
-0.01956675
