-0.1502774
-0.02444115
0.1508415
-0.478059
0.8232453
-0.3009987
-0.05591696
-0.1179961
-0.01936662
0.1327831
-0.3433006
0.1658181
-0.170158
0.9086778
-0.1050476
-0.003202021
0.1613226
-0.1670823
0.1106048
-0.1912294
0.9608753
-0.1003406
0.0003840625
0.1824097
0.02158346
0.04920844
-0.2055139
0.977178
-0.1456435
0.02237993
0.1865606
-0.1897519
0.1565933
0.4370401
0.8651409
-0.138062
0.03102764
0.2107106
0.1006831
0.2781712
0.3664084
0.8821726
-0.1282506
0.0296683
0.2222148
0.2977098
0.3449723
0.2943973
0.8400555
-0.1576154
0.007932574
0.1971119
-0.1456445
0.153493
0.5195737
0.8278109
-0.1484815
0.0167048
0.2252583
0.1230355
0.2859056
0.4516717
0.8361298
-0.1364627
0.01591104
0.2380358
0.3223867
0.3696598
0.3702976
0.7888588
-0.1624384
-0.03676486
0.1953188
0.2167879
0.3122064
0.5649341
0.7323795
-0.1449241
-0.03806365
0.2018019
-0.6137842
-0.6129956
-0.2510951
-0.4294842
-0.1354868
-0.04120639
0.1926813
-0.7042013
-0.6619486
-0.08297462
-0.242981
-0.1567281
-0.01708093
0.1972173
0.1338419
0.2933056
0.4998375
0.8038785
-0.1348558
-0.020248
0.2097104
0.5657213
0.5336686
0.2429239
0.5797803
-0.1213613
-0.0276244
0.2028074
-0.7236708
-0.586794
-0.05681833
-0.3588107
