0.01238337
0.1526774
0.2675202
0.1872221
0.9400355
-0.1408068
-0.2479004
0.01133446
0.1282208
0.2531531
0.001010539
0.1441118
-0.7426079
0.6540369
0.01212402
0.1220896
0.2878063
0.1181885
-0.03115666
-0.7561043
0.6429363
0.003995063
0.1209039
0.3079639
0.2471551
-0.2321974
-0.729403
0.5941129
0.05873264
0.1483981
0.3033908
0.04875875
0.248285
-0.2550242
0.9332415
0.06933373
0.1399035
0.3275113
0.1849734
0.2070023
-0.2887633
0.91627
0.07278217
0.1320155
0.3402089
0.2816736
0.1726388
-0.3097501
0.8915777
0.03346871
0.1426423
0.3049086
0.5383025
0.1206885
-0.2601769
0.7924473
0.02529533
0.1179069
0.3043107
-0.9240188
0.05275128
0.2652805
-0.2702461
0.01622032
0.112637
0.2900045
-0.9654322
0.1249911
0.2284842
0.01062271
-0.001947835
0.1665365
0.316209
0.1434664
0.03964517
-0.02552536
0.9885313
-0.00130528
0.1576812
0.3361869
0.3223492
-0.01301502
-0.03920085
0.9457193
-0.002339864
0.1489044
0.3456717
0.4268684
-0.04559162
-0.04706693
0.9019365
0.01469119
0.1499934
0.3084441
0.5430799
0.07837755
-0.1846957
0.815358
0.008658648
0.1266733
0.306765
-0.9420627
0.0578247
0.19026
-0.2701392
0.00195586
0.1209199
0.291596
-0.9800623
0.1053362
0.1678369
-0.01459824
