-0.05052199
0.02029964
0.2033018
0.1321775
0.9644011
-0.1009271
-0.205605
-0.04598752
-0.003908455
0.1860688
0.04718851
0.200235
-0.7029215
0.6808676
-0.04470834
-0.01533717
0.2193271
0.1746525
0.03152791
-0.7302631
0.6597108
-0.05283168
-0.0204362
0.2388754
0.31133
-0.1642992
-0.7201709
0.5978574
-0.006471179
0.0183472
0.2430111
0.04673143
0.2345795
-0.1809088
0.953971
0.004231762
0.0102413
0.2671705
0.2174338
0.2094619
-0.2191214
0.9278114
0.007855525
0.001221001
0.2789494
0.3745051
0.1778957
-0.2495143
0.8751239
-0.03120935
0.01014465
0.2440211
0.5229059
0.1148519
-0.1799605
0.8252228
-0.03619455
-0.01530725
0.2440299
-0.9276552
0.02693583
0.2128365
-0.3056649
-0.04362766
-0.02215227
0.2294756
-0.976264
0.08770598
0.1966123
-0.02366406
-0.07057848
0.03196257
0.2536139
0.02538677
0.005518566
0.04682929
0.998565
-0.07035728
0.02871156
0.276661
0.1509715
-0.005829307
0.04532422
0.9874814
-0.07043178
0.02209824
0.2884966
0.3962741
-0.02645768
0.04037033
0.9168626
-0.05065688
0.01532495
0.2461576
0.5252018
0.08563758
-0.1077372
0.839775
-0.05337319
-0.008696198
0.2452389
-0.9417211
0.01284065
0.1430879
-0.3041749
-0.05841655
-0.01599497
0.2300571
-0.9877857
0.05083377
0.1388307
-0.04920888
