-0.06208558
0.1118673
0.2631507
0.1281495
0.9679545
0.09073099
-0.1959842
-0.05595067
0.09604362
0.2393047
0.1642779
0.3340318
-0.6630388
0.649473
-0.05594817
0.07353532
0.2657012
0.3256369
0.137314
-0.7299775
0.5850114
-0.06598254
0.06204909
0.2813489
-0.4443486
0.03830541
0.7448551
-0.4962639
-0.01872216
0.09553397
0.3037536
0.1223729
0.268264
-0.1280705
0.9469199
-0.004772191
0.08618551
0.3276254
0.149496
0.2764484
-0.1337419
0.9398619
0.00305103
0.07994616
0.3404958
0.189168
0.2870233
-0.1420756
0.9282498
-0.04168367
0.09716403
0.3118842
0.2711524
0.123549
-0.09911001
0.9494153
-0.03906899
0.07756391
0.3339242
0.4700569
0.0321039
-0.142877
0.8704034
-0.04033864
0.06385088
0.3431946
0.4661021
0.03416502
-0.1420202
0.8725892
-0.08384681
0.09700578
0.2995644
0.6939858
0.02758533
-0.002049262
0.7194571
-0.08382246
0.0809007
0.2917622
-0.9975267
-0.006595581
0.03205486
-0.06220531
-0.08478313
0.08197975
0.2781218
-0.9812204
0.001985579
0.03857764
0.1889828
-0.06654063
0.09200117
0.2995507
0.7076707
0.04623949
-0.1037109
0.697358
-0.07069266
0.07192612
0.2878824
-0.9924269
0.03429716
0.1077343
-0.04802041
-0.07425579
0.07349166
0.2707789
-0.9710674
0.0609986
0.09472802
0.2105561
