-0.02352567
0.06693214
0.3380361
0.1598323
0.946714
-0.158493
-0.2303612
-0.0220985
0.04210204
0.3247156
-0.01248345
0.1447974
-0.7233188
0.6750466
-0.01930852
0.03544807
0.3595662
0.1032842
0.02348516
-0.7373853
0.667116
-0.02507009
0.03197241
0.3805453
0.2421975
-0.1272482
-0.7258212
0.6311353
0.02202678
0.06484494
0.3753378
0.07644335
0.2399519
-0.2401062
0.9375119
0.03192151
0.05462578
0.3996232
0.2342529
0.1968676
-0.2771329
0.9108052
0.03489226
0.04541284
0.4120728
0.320125
0.1697737
-0.2945494
0.8842723
-0.004725554
0.05887395
0.3736733
0.5821248
0.08955666
-0.2359487
0.7729415
-0.01274051
0.03498542
0.3698651
-0.9550262
0.05276527
0.2116987
-0.2008097
-0.01994574
0.03166074
0.3538847
-0.9770251
0.1055646
0.1712741
0.07030874
-0.03982855
0.07966095
0.3858477
0.1680427
0.03701804
0.003709234
0.9850774
-0.03917002
0.06872588
0.4045966
0.4284286
-0.02228992
-0.01637939
0.9031522
-0.03976893
0.05885011
0.4133391
0.3836546
-0.0118962
-0.01287489
0.9233103
-0.02316397
0.06481689
0.3762594
0.5925289
0.06679904
-0.1582412
0.7870243
-0.02867403
0.04286346
0.37115
-0.9703442
0.0571584
0.160016
-0.1719303
-0.03430493
0.03991592
0.3545599
-0.9841353
0.09189609
0.1422058
0.05301318
