-0.02497536
-0.07014899
0.2972628
0.9529219
-0.05282405
0.1276184
0.2699316
-0.03734425
-0.06325521
0.2702197
-0.4044197
0.3370898
0.6471291
0.5513974
-0.03784858
-0.03173122
0.2864309
-0.2928373
0.4300716
0.5891404
0.6182219
-0.03137526
-0.01308733
0.2964161
-0.1813194
0.5054806
0.5198241
0.6643761
-0.06084505
-0.03947029
0.336157
-0.1775841
0.3524895
0.9169601
0.05830444
-0.06864823
-0.01856136
0.3553495
-0.1651602
0.4261436
0.8862502
0.07539447
-0.07205637
-0.005119264
0.3642249
-0.151946
0.4996212
0.8478174
0.09217782
-0.03797375
-0.03357589
0.3314338
-0.08588973
0.6719604
0.7344865
0.04027183
-0.0380722
-0.005085886
0.3242871
0.05121327
-0.9297364
-0.3554561
-0.08135366
-0.03552088
0.003867984
0.3095599
0.02326203
-0.9922294
-0.07214636
-0.09866437
0.004465031
-0.04632604
0.3356023
0.08680677
0.4071881
0.9065537
-0.06944624
0.006894039
-0.02810031
0.3487248
0.1097488
0.5203525
0.8443561
-0.06520233
0.008529797
-0.01558703
0.352809
0.1367392
0.6523583
0.7432218
-0.05790016
-0.01690693
-0.03683007
0.3286985
0.02824435
-0.7260014
-0.6871088
0.002420429
-0.0175227
-0.01231557
0.3170273
0.02362909
-0.9728604
-0.2297441
-0.01421294
-0.01700493
-0.008740664
0.300557
0.01628567
-0.9892748
0.1431757
-0.02389451
