-0.000836439
0.1543797
0.3074858
-0.01847043
0.9680884
-0.08322739
-0.2356627
0.006294991
0.1349258
0.2889136
0.04699884
0.213586
-0.5871885
0.7793471
0.0104759
0.1229997
0.3220487
0.1719013
0.06089679
-0.6189986
0.7639256
0.004510554
0.1157417
0.3420109
0.3025296
-0.1115499
-0.6251575
0.7107818
0.04569969
0.1611239
0.3426999
0.06745573
0.3027938
-0.0370291
0.9499445
0.06126332
0.1535942
0.3633446
0.2429724
0.335557
-0.08894305
0.9057898
0.06931147
0.1447027
0.3720504
0.3975441
0.352003
-0.1351941
0.8365257
0.02411702
0.1458029
0.3439756
0.5636051
0.2398939
-0.08505731
0.7858534
0.02495599
0.1216508
0.3392144
-0.9463351
-0.1034104
0.2358443
-0.1952781
0.0168504
0.1170936
0.323971
-0.9630246
-0.03766432
0.2610418
0.05497569
-0.0192485
0.153196
0.3587995
0.147871
0.004635151
0.1786582
0.972725
-0.01686989
0.1452777
0.379727
0.2553464
0.04876317
0.1804755
0.9486037
-0.01350211
0.1377062
0.3899661
0.4242185
0.1129863
0.1763328
0.8810105
0.003597552
0.1446854
0.3481778
0.5820877
0.1790838
-0.01352333
0.7930449
0.006352658
0.1218105
0.3426712
-0.9616203
-0.1227649
0.1305833
-0.2077576
0.001936614
0.1174383
0.3264217
-0.9807243
-0.08008103
0.1616101
0.07515951
