-0.04307879
0.1903801
0.2825413
-0.05326416
0.9529538
-0.1079154
-0.2782019
-0.03578651
0.1709467
0.2639639
-0.0143227
0.245899
-0.5626776
0.7891276
-0.02667331
0.1610838
0.2967942
0.1114976
0.1047191
-0.5977637
0.786944
-0.02908631
0.1543057
0.3176776
0.2407826
-0.04969002
-0.6107951
0.7526513
0.005847888
0.1979145
0.3128509
0.1379515
0.3447011
-0.05191906
0.9270679
0.02125337
0.1848569
0.3304831
0.4072638
0.3212813
-0.1507512
0.8415394
0.02593572
0.1716781
0.3355113
0.6222754
0.2729369
-0.2302727
0.6966013
-0.0141655
0.1848512
0.3165894
0.5364118
0.2990681
-0.08908392
0.7841459
-0.01156636
0.160161
0.312497
-0.921976
-0.1608645
0.2676109
-0.2290577
-0.02031203
0.1540343
0.298237
-0.9490317
-0.08100183
0.3028932
0.03214606
-0.05634584
0.1898801
0.3354343
0.1438709
0.06543962
0.2036775
0.9661958
-0.05118629
0.1832472
0.356567
0.2152414
0.1129395
0.2022265
0.948694
-0.04607444
0.1773017
0.3673741
0.3508988
0.1975441
0.1937407
0.894601
-0.03371274
0.182939
0.3230001
0.5497969
0.2509627
-0.01412256
0.7965813
-0.02895403
0.1599767
0.3182905
-0.9373145
-0.1933971
0.1660272
-0.2376431
-0.03414625
0.1541965
0.3028069
-0.9668166
-0.1372465
0.2090851
0.05208252
