-0.1278316
0.1266137
0.2805662
-0.2288695
0.95724
-0.1021891
-0.1444566
-0.1106478
0.1141099
0.2619445
0.04600534
0.1858685
-0.3936707
0.8990883
-0.1062014
0.1030567
0.2948929
0.2233311
0.03438799
-0.4276433
0.8752496
-0.1122179
0.09287131
0.313277
0.3869315
-0.1178757
-0.4376386
0.8030329
-0.0938375
0.1481947
0.3232858
0.04019131
0.2115493
0.1813244
0.9595588
-0.08112195
0.1451328
0.3471892
0.2041395
0.2530589
0.1422558
0.9349073
-0.07282494
0.1389596
0.3580489
0.3622111
0.2837301
0.09817079
0.8824188
-0.1066136
0.1261986
0.3206439
0.5193244
0.2929125
0.1349029
0.7913948
-0.09567112
0.1057185
0.3156854
-0.9295012
-0.2869956
0.1221628
-0.1968181
-0.09935829
0.1000277
0.2990518
-0.9491407
-0.2505375
0.1898853
0.01750936
-0.1501769
0.1124242
0.3288815
0.1815772
-0.04623434
0.3891787
0.9019047
-0.1473752
0.1025715
0.3493972
0.3097925
-0.002886451
0.3895536
0.8673341
-0.1434406
0.0945667
0.3597543
0.4029652
0.02999145
0.3847753
0.82986
-0.1254224
0.1163302
0.321864
0.5434031
0.2268626
0.2063927
0.78144
-0.1131587
0.09806901
0.316552
-0.9313993
-0.3182558
0.002443367
-0.1766429
-0.1131013
0.09471107
0.2993751
-0.9452177
-0.3075748
0.08017062
0.07439152
