-0.0827465
-0.006508678
0.2408739
-0.4852405
0.8587305
-0.02250908
-0.1631475
-0.06488216
0.01336896
0.2110422
-0.3922647
0.3172259
-0.02488152
0.8630627
-0.04410963
0.0353871
0.2300997
-0.3236507
0.3166065
-0.05060191
0.8901967
-0.03073701
0.04681793
0.2437034
-0.2748447
0.3150285
-0.06827664
0.9058453
-0.05794945
0.02416289
0.2857933
0.01186668
0.207936
0.4672429
0.8592473
-0.04419931
0.02646941
0.3097438
0.2045615
0.3145821
0.4075513
0.832523
-0.03233528
0.0237847
0.3191007
0.3900625
0.4058976
0.3244686
0.7601438
-0.06723312
0.006684899
0.2954119
0.08377279
0.1865338
0.5278037
0.824385
-0.05021741
0.006054997
0.3224989
0.275283
0.2980975
0.4699073
0.7839288
-0.03582018
0.002206147
0.3325056
0.4458745
0.3904097
0.3900009
0.704752
-0.08686513
-0.03405383
0.2886644
0.1872192
0.06247068
0.611402
0.7663119
-0.07560115
-0.03952682
0.3076474
0.3874568
0.2275617
0.5717123
0.6864678
-0.06388581
-0.04328942
0.3137541
0.5292747
0.3506034
0.5075743
0.5825066
-0.07718803
-0.01412898
0.2945496
0.1509493
0.1516164
0.5488968
0.8080465
-0.05993126
-0.01840919
0.3187478
0.356483
0.297334
0.4899086
0.7379038
-0.04478785
-0.0231497
0.3265535
0.5055981
0.4006771
0.4155556
0.6412035
