-0.06939286
0.1424942
0.3067742
-0.001022843
0.9889453
0.03183406
-0.1448199
-0.04144751
0.1362279
0.2773873
-0.2231274
0.4779103
-0.4460089
0.7231128
-0.009153947
0.1328342
0.2931108
-0.2364212
0.4816063
-0.4374637
0.721655
0.01157664
0.1325138
0.3013225
-0.3410744
0.5066279
-0.3644842
0.7029564
-0.03803485
0.1249688
0.3351692
0.7042099
0.1217682
-0.1615841
0.6805525
-0.04272065
0.1066693
0.3251142
-0.984501
-0.001301744
0.1753586
-0.002336325
-0.04773284
0.1097389
0.3110318
-0.944374
0.05019841
0.1529271
0.2867947
-0.05338643
0.1240707
0.3413706
0.70847
0.1402179
-0.04764773
0.6900283
-0.05410805
0.103204
0.3288746
-0.9882552
-0.06118713
0.1391045
-0.01605639
-0.05925442
0.1062219
0.3126519
-0.935634
-0.01091152
0.1571191
0.3158854
-0.09179444
0.1246544
0.3413876
0.6767961
0.04248657
0.1282083
0.7236744
-0.08714919
0.1080282
0.3346118
-0.9854221
-0.09595013
-0.0547964
-0.1293614
-0.08634996
0.1087158
0.3217
-0.9620319
-0.1076095
7.088215E-05
0.2508284
-0.07383595
0.124562
0.3419969
0.7155509
0.07712415
0.02159515
0.6939542
-0.07223616
0.1053126
0.3295721
-0.9968581
-0.0637994
0.04454409
-0.01481373
-0.0742332
0.1086367
0.3130829
-0.9411871
-0.04456596
0.06883336
0.3277847
