-0.04165761
0.2006107
0.274565
-0.009580458
0.9569399
-0.1318582
-0.2584333
-0.03290566
0.1795588
0.2560849
-0.053181
0.2426811
-0.5920322
0.7666652
-0.02389139
0.1715736
0.2889664
0.1015773
0.07136562
-0.6294419
0.7670672
-0.02806619
0.1662076
0.3095939
0.2635029
-0.1193167
-0.6310016
0.719838
0.005406481
0.2058833
0.3060347
0.1726455
0.3116757
-0.1085251
0.9280486
0.01726308
0.1905579
0.3236775
0.4588477
0.2529498
-0.2037539
0.8270185
0.01881558
0.176866
0.3282222
0.6761362
0.1759813
-0.2721479
0.6616691
-0.01619418
0.1945383
0.3097521
0.5518773
0.2320636
-0.1188865
0.7921137
-0.01675198
0.169453
0.3064763
-0.9324562
-0.07312255
0.2584954
-0.2415756
-0.02551972
0.1640021
0.2921589
-0.9589444
0.008166998
0.2808873
0.03822777
-0.05520338
0.1999599
0.3239686
0.3068583
0.1144414
0.1323499
0.9355345
-0.04893035
0.1842555
0.334933
0.724371
0.1261727
0.04841297
0.676035
-0.04558323
0.1714572
0.334365
0.6898655
0.1303178
0.06168396
0.709435
-0.03580415
0.1946386
0.3155021
0.5519851
0.1862402
-0.03815018
0.8118938
-0.03361138
0.1708733
0.3120866
-0.9445977
-0.1088242
0.1552876
-0.2679147
-0.03864568
0.1647054
0.2968316
-0.9805992
-0.05563591
0.1858441
0.02814144
