-0.1030912
0.1414322
0.2982707
-0.02063879
0.9923294
-0.0197202
-0.1202811
-0.07361279
0.1326938
0.2707553
-0.2327552
0.4468073
-0.4645072
0.7283003
-0.04278803
0.1294746
0.2890765
-0.2098527
0.4355991
-0.4781206
0.733223
-0.02357896
0.1275412
0.3003783
-0.2550032
0.4574205
-0.450787
0.722863
-0.07191791
0.1281315
0.330989
0.6422228
0.1211553
-0.1279447
0.7459903
-0.07466432
0.1074876
0.3241649
-0.9799846
-0.02935398
0.1547729
-0.1217121
-0.07918625
0.1071714
0.3097596
-0.9689036
0.02042901
0.1402354
0.2028365
-0.08775745
0.1275345
0.3373001
0.6345213
0.1337699
-0.01366435
0.7611187
-0.08610052
0.103646
0.3293779
-0.977889
-0.08324157
0.1053637
-0.16032
-0.08996062
0.1020443
0.3128227
-0.9681799
-0.03796872
0.1348079
0.2073954
-0.1263382
0.126101
0.33459
0.6058313
0.0502696
0.1631567
0.7770594
-0.1204939
0.1083499
0.3313276
-0.9592661
-0.111607
-0.07698933
-0.2478411
-0.1189292
0.1060779
0.3187157
-0.982202
-0.1271116
-0.006785336
0.1381157
-0.1083253
0.1270268
0.336976
0.6371822
0.07819618
0.0575185
0.7645757
-0.1047399
0.1047644
0.3292
-0.9825163
-0.08398575
0.01808562
-0.1651702
-0.1056936
0.103366
0.3125554
-0.9732668
-0.06966023
0.05738075
0.2112032
