-0.02083906
-0.06972592
0.2960091
0.9564592
-0.05059576
0.1235036
0.2595626
-0.03237207
-0.06103593
0.268659
-0.3911146
0.3620627
0.6357676
0.5583366
-0.03342103
-0.02878863
0.2846173
-0.3347065
0.399535
0.6131352
0.5936403
-0.03051067
-0.009141535
0.2950121
-0.2631372
0.441747
0.5803139
0.6315492
-0.05274891
-0.03390417
0.3237616
-0.169036
0.6490322
0.7326468
0.1158134
-0.05321069
-0.006050229
0.3217731
0.1265104
-0.817506
-0.5381088
-0.1616108
-0.05044962
0.007797241
0.3144698
0.09610105
-0.8922656
-0.4008766
-0.184187
-0.03416643
-0.03436989
0.3277282
0.1095795
-0.7233686
-0.680824
-0.03477008
-0.03566797
-0.004719436
0.3186489
0.09264154
-0.8991925
-0.4222131
-0.06787171
-0.03458177
0.008330584
0.3062717
0.08459831
-0.9396834
-0.3221368
-0.07788636
0.005272502
-0.0419693
0.3215623
-0.01563926
-0.7700302
-0.6304462
0.09667821
0.001848801
-0.02247405
0.3121933
0.01511028
-0.946599
-0.3094094
0.08937525
-0.000555828
-0.01649952
0.3002318
0.03198653
-0.9906194
-0.1059979
0.08009209
-0.01305846
-0.03796637
0.3253521
0.04302957
-0.7690922
-0.637613
0.009766552
-0.01438804
-0.01148218
0.3129019
0.03633785
-0.9357468
-0.3505178
-0.01395503
-0.0141247
-0.001697421
0.2983161
0.03076542
-0.9845159
-0.1704916
-0.02673151
