0.1182512
0.04861796
0.3680496
0.1991614
0.9389973
0.08359465
-0.2676392
0.1173122
0.0325132
0.3446907
0.1452963
0.3320188
-0.7247293
0.5860205
0.1165675
0.01127625
0.3722795
0.2826576
0.126236
-0.7876426
0.5327179
0.1066752
0.002049088
0.3894495
-0.3910451
0.0686012
0.7984033
-0.4526919
0.1471455
0.01769274
0.3866952
0.7127249
0.1042581
-0.3763462
0.5826809
0.1332933
0.001592726
0.3778389
-0.9392476
0.1187545
0.3217737
-0.01315721
0.1249626
0.005171537
0.3654454
-0.914507
0.2016765
0.2549862
0.2408019
0.1338951
0.02231389
0.3963589
0.7411814
0.09637761
-0.2726691
0.6058159
0.1221086
0.003235996
0.3833322
-0.9647651
0.07869864
0.2510513
-0.002866385
0.1141348
0.006738007
0.3677438
-0.9386073
0.138021
0.2129228
0.2337317
0.09932464
0.03704238
0.4053962
0.7413698
-0.01691434
-0.111851
0.6614938
0.09622793
0.02056274
0.3957326
-0.9941379
0.01912547
0.0136613
-0.1055347
0.09642313
0.02088511
0.3823255
-0.9815063
0.01748265
-0.03744243
0.1869166
0.1158081
0.03036833
0.402433
0.7435628
0.02161058
-0.2100916
0.6344359
0.1071645
0.01164263
0.3890725
-0.9871099
0.07673811
0.1355937
-0.03660289
0.1032915
0.01397341
0.3724124
-0.9608017
0.1107676
0.08298882
0.2402157
