-0.03100942
0.07438493
0.355307
-0.2515586
0.9500152
0.1726383
-0.06622267
-0.0005913498
0.09003481
0.3309668
-0.131673
0.4608967
-0.2026863
0.8539056
0.02924138
0.09070134
0.3507389
-0.107529
0.4514934
-0.2155143
0.8591536
0.04778779
0.09135473
0.3628254
-0.1648087
0.4732075
-0.1846956
0.8454587
0.004448962
0.06189263
0.3866041
0.7174467
0.2742992
0.1098245
0.6308476
0.01201178
0.04662982
0.3731694
-0.9494915
-0.3032352
0.07370741
0.03288707
0.007925822
0.04970479
0.3589098
-0.8932925
-0.2644988
0.1459332
0.332825
-0.01061549
0.05256212
0.3856556
0.7657399
0.2561723
0.1947087
0.5568723
-0.000334501
0.03998643
0.3677908
-0.9346782
-0.3278592
0.02630115
0.1348828
-0.00501141
0.04699039
0.3527638
-0.8287998
-0.2969723
0.1321399
0.455453
-0.04511771
0.03794354
0.3763018
0.7637262
0.1269492
0.3451226
0.5305627
-0.0330102
0.02948779
0.3656495
-0.9269057
-0.3184133
-0.1725874
0.09834842
-0.03232128
0.03613997
0.3545485
-0.8218657
-0.3603569
-0.03627883
0.4397314
-0.02874496
0.04479158
0.3811181
0.7866614
0.1982685
0.2507848
0.5281671
-0.01697284
0.03475502
0.363953
-0.9295239
-0.3281378
-0.06638954
0.1546073
-0.01907266
0.04326066
0.3495157
-0.8131891
-0.3284406
0.04324953
0.4785183
