-0.09903124
0.06242499
0.3517922
-0.2442151
0.9661204
0.02946373
-0.07811721
-0.0677965
0.06851304
0.327068
-0.1896959
0.3976612
-0.2836578
0.8517156
-0.04117347
0.06967974
0.3507872
-0.09553143
0.3531694
-0.3245554
0.8722436
-0.02643579
0.06783652
0.3673759
-0.06063439
0.3355817
-0.3385423
0.8769821
-0.06550971
0.05974454
0.3864276
0.6298246
0.2708793
0.08576764
0.7229034
-0.05736636
0.04140395
0.3776155
-0.9456455
-0.2963164
0.08377021
-0.1045656
-0.06051731
0.04059321
0.3628557
-0.9318039
-0.2569683
0.1501003
0.2077952
-0.08001803
0.05073428
0.3889785
0.6531332
0.2716708
0.1861537
0.6818789
-0.06795279
0.0331302
0.3769941
-0.9396703
-0.3357409
0.03824978
-0.05324296
-0.07092233
0.03399342
0.3599795
-0.9049133
-0.3047141
0.1401909
0.2619691
-0.1138639
0.03330457
0.3820479
0.6541229
0.1756914
0.3512463
0.6464379
-0.1006674
0.02207869
0.3754901
-0.9181021
-0.3552615
-0.1549749
-0.08282951
-0.09867558
0.02422893
0.3627109
-0.8899667
-0.3867281
-0.01858605
0.2409464
-0.09801631
0.0414573
0.3860458
0.6757236
0.2189538
0.250107
0.6579539
-0.0849333
0.02658391
0.374169
-0.9382653
-0.3420054
-0.04719185
-0.0215289
-0.08564331
0.02949029
0.357515
-0.8896341
-0.3379497
0.06320422
0.3005771
