-0.03767463
-0.008254111
0.2373242
-0.0700862
0.9645749
-0.1157935
-0.2264398
-0.01435403
-0.02273729
0.2078378
-0.2887444
0.4554878
-0.4719365
0.6974479
0.01692972
-0.0247924
0.225217
-0.2186095
0.4051896
-0.5144889
0.7234172
0.03380886
-0.02772063
0.2394126
-0.1269788
0.3359591
-0.5608974
0.7459237
0.006989897
0.0004984736
0.2734638
0.1406891
0.2744859
-0.02357026
0.9509515
0.01794514
-0.01461795
0.2902954
0.5942677
0.2214208
-0.1575353
0.7569686
0.01834464
-0.02971596
0.2903078
0.8090854
0.1547616
-0.2235939
0.5209947
-0.009606866
-0.001102388
0.2844035
0.1977155
0.2609576
0.06249548
0.9428172
0.004100299
-0.01982266
0.3014308
0.6375002
0.2416716
-0.07755093
0.7274436
0.006530303
-0.03679365
0.2990845
-0.8499235
-0.1906987
0.164579
-0.4627936
-0.05231297
-0.01091903
0.2881492
0.2017412
0.1393505
0.216342
0.9450281
-0.0432322
-0.02318442
0.3024045
0.6341703
0.2041374
0.1186166
0.736265
-0.03801987
-0.03505212
0.3001576
-0.8558225
-0.2205973
-0.02796426
-0.4670361
-0.03167113
-0.005001605
0.2887199
0.2059333
0.1979042
0.1184957
0.9509912
-0.01963294
-0.02273497
0.3057973
0.6385469
0.2176751
0.006225876
0.7381305
-0.01545706
-0.03893572
0.3033835
-0.8623303
-0.1976926
0.07940587
-0.4593461
