0.04520959
0.1598614
0.3396906
0.144197
0.9579378
0.1163482
-0.219147
0.06501426
0.1495844
0.3063432
-0.1179255
0.5767822
-0.5121088
0.6254283
0.09469955
0.1331753
0.3185909
-0.09210698
0.5461863
-0.5381992
0.6352468
0.1125412
0.122581
0.327289
-0.09200718
0.5459515
-0.5383394
0.6353443
0.07356115
0.1297596
0.3592239
0.7525505
0.09975813
-0.3064199
0.5743022
0.0624059
0.1150712
0.3475919
-0.9582843
0.1012921
0.2526439
0.08719056
0.05647909
0.1214492
0.3351051
-0.8907706
0.176248
0.1857103
0.375468
0.06008695
0.132907
0.3676347
0.7739627
0.1139118
-0.1947036
0.5916895
0.05140655
0.114721
0.3522069
-0.9714974
0.04412249
0.2253037
0.05902898
0.0446251
0.1210617
0.337732
-0.8847098
0.122036
0.1968583
0.4045278
0.02437506
0.1438558
0.3741906
0.7587923
0.02798529
-0.03007749
0.6500357
0.02333107
0.1289977
0.3635776
-0.9984786
0.009726747
0.05423544
0.002123645
0.02194308
0.1327552
0.3510132
-0.9352939
0.02791144
0.05598354
0.348299
0.04119335
0.1389881
0.371648
0.7847773
0.05154394
-0.1310424
0.6035691
0.03530512
0.1221017
0.3557896
-0.9874735
0.05055542
0.1371474
0.05942161
0.03139097
0.1282969
0.3405151
-0.9016665
0.09575707
0.113322
0.4061852
