-0.05007896
-0.002487153
0.2359696
-0.1591467
0.9574174
-0.1239053
-0.2065713
-0.02513364
-0.0133172
0.2072222
-0.291153
0.4305162
-0.4229074
0.7423174
0.004660615
-0.01266026
0.2265236
-0.1908606
0.3684555
-0.4756937
0.7755825
0.01983325
-0.01485032
0.2422871
-0.0789313
0.294209
-0.523109
0.7959698
-0.008311165
0.007977664
0.2712092
0.2563676
0.280076
0.0115173
0.9250408
0.002273396
-0.0106625
0.2826877
0.7189505
0.2391962
-0.143495
0.6366354
0.001717226
-0.02456111
0.2774194
-0.8986303
-0.171243
0.2205536
-0.3383719
-0.02405351
0.003819108
0.2811806
0.2967705
0.2769517
0.1068321
0.9076409
-0.009499374
-0.01738191
0.2920526
0.7373831
0.2740242
-0.06311938
0.6141603
-0.007412137
-0.03286007
0.2847013
-0.9013148
-0.2288874
0.1612715
-0.3305054
-0.06339483
-0.01033238
0.2846214
0.2876204
0.1874422
0.2736523
0.8984734
-0.05141092
-0.02335775
0.2945338
0.7166829
0.2869342
0.1317639
0.6218302
-0.04541823
-0.03359541
0.2887203
-0.8827265
-0.3076168
-0.02237533
-0.354493
-0.04463614
-0.002834499
0.2851315
0.3015704
0.2232048
0.1717028
0.9109078
-0.03045779
-0.02241752
0.2961239
0.7347929
0.2725561
0.02717404
0.6205273
-0.02576642
-0.0368458
0.2886949
-0.905095
-0.2615523
0.07347148
-0.3271015
