-0.1825192
0.07953796
0.1967658
-0.2755697
0.8986726
-0.3264993
-0.09923329
-0.1591526
0.06523228
0.1875646
-0.126126
0.05123724
-0.3367859
0.9316878
-0.1580091
0.06830734
0.222607
0.07011419
-0.07351647
-0.3327829
0.9375153
-0.1645167
0.06453583
0.2433677
0.2462953
-0.1841392
-0.3133543
0.8984657
-0.1600357
0.1207143
0.2309632
-0.1278729
0.1875956
0.2144581
0.9499812
-0.1505065
0.1251148
0.2558903
0.106746
0.1988916
0.1687386
0.9594659
-0.1439969
0.1220193
0.2693471
0.1999382
0.1996965
0.1474741
0.9478383
-0.1695378
0.09772655
0.234654
0.3380511
0.3024167
0.1806018
0.8727248
-0.1557748
0.07951561
0.2378992
-0.8715758
-0.3159395
0.1051678
-0.3598301
-0.1570271
0.06898969
0.2236177
-0.9339582
-0.2746733
0.1913139
-0.125203
-0.2089026
0.07946786
0.2437169
0.01683095
0.04178061
0.4749567
0.8788556
-0.204168
0.07781607
0.2658397
0.2007886
0.1355872
0.455877
0.8564323
-0.1975863
0.07414433
0.2771853
0.3034372
0.1879801
0.4358238
0.8262245
-0.1861769
0.08578262
0.2375907
0.3547933
0.2665594
0.2643516
0.8562629
-0.1711965
0.06973219
0.2401223
-0.8628331
-0.3637213
0.00956397
-0.3509052
-0.1693384
0.06095839
0.2253346
-0.9271765
-0.343761
0.1182339
-0.09051478
