-0.05948711
0.02935109
0.2351876
0.1132423
0.9666769
-0.1370138
-0.1842261
-0.05389101
0.005589008
0.2206249
0.01902194
0.1272386
-0.681094
0.7208048
-0.05539451
-0.0009439588
0.2549798
0.1738882
-0.06518959
-0.6917833
0.6978174
-0.066277
-0.003631741
0.2735852
0.3314124
-0.2716451
-0.6543734
0.6230331
-0.01829994
0.03216946
0.2762694
0.03783353
0.171025
-0.1663131
0.9703912
-0.0104058
0.02573723
0.3016508
0.1885326
0.1556322
-0.1901272
0.9508343
-0.007150996
0.01908517
0.3148603
0.2224767
0.1505889
-0.1951749
0.9432572
-0.04211095
0.02145499
0.2739331
0.5672891
0.1064578
-0.1633992
0.8000941
-0.04670455
-0.004251063
0.2711695
-0.9463022
0.004502509
0.1834626
-0.2661454
-0.0530562
-0.01022562
0.2555431
-0.9844686
0.0527411
0.1673741
0.005083871
-0.08175389
0.04104704
0.2834357
0.06452572
-0.01337637
0.07209628
0.9952185
-0.08209398
0.03648928
0.305958
0.1612006
-0.01694818
0.07235923
0.9841195
-0.08217771
0.03069866
0.3182756
0.2982093
-0.02253999
0.07140753
0.9515588
-0.06154615
0.02553847
0.2751265
0.574317
0.07788196
-0.08684424
0.8102793
-0.06336625
0.001222014
0.271447
-0.9577361
-0.01921314
0.1069878
-0.2663196
-0.06697156
-0.005162358
0.255318
-0.9945604
0.006305025
0.102171
-0.01925933
