0.01407942
-0.02526331
0.2667799
0.3002704
0.8520866
-0.2351324
-0.3584674
0.01044353
-0.05519387
0.2537642
0.2462782
-0.3363366
0.7889433
-0.4514348
0.0294228
-0.06207177
0.2814148
-0.1224938
0.08734435
-0.8471073
0.5096818
0.03207079
-0.06027263
0.302361
0.01658912
-0.1784231
-0.832157
0.5247903
0.04803738
-0.04489678
0.2880175
0.4668854
0.05239649
-0.5318861
0.7045351
0.031918
-0.05972789
0.2924983
-0.8422151
0.2629921
0.410604
-0.2300287
0.02125348
-0.05961415
0.2819812
-0.8817497
0.3839773
0.2634596
0.07528613
0.03916996
-0.03351158
0.2968637
0.4959442
0.0822688
-0.4374141
0.745614
0.02371901
-0.05349493
0.2996174
-0.8754385
0.2018065
0.3698086
-0.2369034
0.01203491
-0.05481952
0.2869004
-0.9089783
0.3136891
0.2632089
0.07796562
0.01210531
-0.01096609
0.3073296
0.4690247
0.1212746
-0.26073
0.8350618
0.007144344
-0.02766538
0.3093994
-0.9221514
0.07099697
0.2603303
-0.2771723
0.0007218401
-0.03043598
0.2983614
-0.9633052
0.1568159
0.2045103
0.07501631
0.02526544
-0.02134645
0.3028281
0.4937509
0.07587527
-0.3606615
0.7876397
0.01319447
-0.04133689
0.3042738
-0.9023773
0.1687633
0.307408
-0.2504685
0.003314542
-0.04392439
0.2906841
-0.936988
0.2608803
0.2212003
0.07117212
