-0.02379736
0.09686768
0.330868
0.04249516
0.9887831
0.05388853
-0.1326588
0.003283671
0.08670443
0.3016165
-0.130327
0.5031239
-0.4911936
0.6990066
0.03166218
0.07425272
0.3197059
-0.06862837
0.4616224
-0.5327407
0.705962
0.04758691
0.06521279
0.3325886
-0.04802599
0.4471138
-0.5456715
0.7071248
0.005725557
0.07532576
0.3606575
0.6942655
0.09218864
-0.178953
0.6909939
0.0001394575
0.05643463
0.351321
-0.9850944
0.02348003
0.1655088
-0.04055563
-0.004385484
0.05872437
0.3370835
-0.9496067
0.0742376
0.1300986
0.2753367
-0.01001833
0.07587212
0.3668278
0.6975889
0.1008257
-0.0661604
0.7062768
-0.0119645
0.0533247
0.3554577
-0.9880113
-0.0226577
0.1266463
-0.08532964
-0.01642485
0.05443645
0.3389722
-0.9523215
0.02472894
0.1348534
0.2725563
-0.04853405
0.08016646
0.3645645
0.6859301
0.001976947
0.1014267
0.7205614
-0.04534452
0.06308264
0.3574938
-0.9880496
-0.04348607
-0.05785184
-0.1360894
-0.04420489
0.06338286
0.3444728
-0.9720415
-0.05904685
-0.02187909
0.2262082
-0.03059192
0.07823288
0.3664316
0.7108516
0.036528
-0.0008467362
0.7023923
-0.03038243
0.05777216
0.3545053
-0.9974267
-0.01887587
0.03283459
-0.06087433
-0.03165518
0.0597958
0.337826
-0.9536058
-0.005595439
0.04355435
0.2978385
