-0.1715176
-0.0005400181
0.2807004
-0.338042
0.9389039
-0.06325681
-0.01362861
-0.1382424
0.0126529
0.2588885
-0.3299447
0.2689308
-0.2221986
0.8771777
-0.1170056
0.02831811
0.2832209
-0.2814427
0.2328697
-0.2298125
0.9020798
-0.1042269
0.0376966
0.2989358
-0.3261216
0.2660919
-0.2228422
0.8793072
-0.1449763
0.00619635
0.3172505
0.6077179
0.2831253
0.1671057
0.7229072
-0.1341157
-0.01066762
0.3090891
-0.9335556
-0.3362976
0.05751899
-0.1098616
-0.1366154
-0.01181844
0.2940541
-0.92371
-0.3042952
0.1475917
0.1799473
-0.1579039
-0.004536122
0.3196672
0.6026688
0.2892148
0.2734015
0.6916623
-0.1418315
-0.02064031
0.3099938
-0.9122561
-0.3963342
-0.004745313
-0.1033708
-0.143195
-0.02111113
0.2927672
-0.892117
-0.3736389
0.1330058
0.2164043
-0.1861404
-0.02853471
0.3120429
0.5646181
0.2017117
0.4537738
0.6592482
-0.1705382
-0.03734645
0.3089086
-0.8638721
-0.4424784
-0.203322
-0.1288333
-0.1671513
-0.03590864
0.2962001
-0.8589913
-0.4840905
-0.04063345
0.1616769
-0.1729959
-0.01715153
0.3162615
0.6090999
0.2426739
0.3470173
0.6705862
-0.1559593
-0.03041452
0.3074841
-0.9023886
-0.4124235
-0.09185241
-0.08464645
-0.1549117
-0.02917144
0.2905493
-0.8779444
-0.419147
0.05348273
0.2250979
