-0.07209038
0.02560627
0.2475414
-0.03763656
0.9741338
-0.1232492
-0.1856248
-0.045382
0.0104959
0.21978
-0.311505
0.4303463
-0.4876935
0.6927638
-0.01472765
0.009486914
0.238178
-0.2210094
0.3754358
-0.5390313
0.7208663
0.001895024
0.007055163
0.2529096
-0.1569469
0.3345669
-0.5697594
0.7340347
-0.03487232
0.02198195
0.2785669
0.5160128
0.2093184
-0.1448871
0.817878
-0.03562927
-0.0003501177
0.2781315
-0.924242
-0.06580453
0.2455351
-0.2848843
-0.04262464
-0.005246043
0.2658975
-0.9646364
0.02818978
0.2518385
0.07252125
-0.04977896
0.02285716
0.2876659
0.4964212
0.2273236
-0.02705059
0.837352
-0.04495273
-0.002645254
0.2874074
-0.9114168
-0.1523101
0.1682362
-0.3432457
-0.04999407
-0.01090297
0.2733063
-0.9729069
-0.07883916
0.2170664
0.01090367
-0.08881935
0.0189814
0.2911285
0.4446943
0.1674279
0.1629337
0.8646777
-0.0802037
0.001769066
0.2946776
-0.8591037
-0.2142318
-0.031231
-0.4637567
-0.07826726
-0.006573677
0.2847137
-0.9632776
-0.2078907
0.04890444
-0.1627453
-0.07030477
0.02110413
0.2909446
0.4850494
0.1786762
0.05225966
0.8544418
-0.0635095
-0.002606153
0.2915093
-0.9071283
-0.1709963
0.06948318
-0.3782204
-0.06497528
-0.01139399
0.2773677
-0.9825048
-0.1331292
0.1286457
-0.02028314
