-0.08409509
-0.005322456
0.2110194
0.1352119
0.9714499
-0.1099719
-0.160963
-0.07699542
-0.02905178
0.1955959
0.04173933
0.1634761
-0.6938045
0.7001205
-0.07880747
-0.03812879
0.228945
0.2113008
-0.0540131
-0.7129661
0.6664187
-0.09009334
-0.0417856
0.247246
0.3427963
-0.2359117
-0.6858061
0.5970815
-0.04115708
-0.0005440712
0.2545106
-0.09853002
0.2383149
-0.1422642
0.9556457
-0.02720148
0.002349615
0.2794034
-0.07292578
0.2458761
-0.1493282
0.9549491
-0.01931669
0.002816319
0.2932353
-0.02409992
0.2584892
-0.1623969
0.951961
-0.06511103
0.0003128052
0.2617571
0.1161905
0.08908524
-0.09373677
0.9847726
-0.06041855
-0.007183254
0.2909811
0.1161903
0.08908523
-0.09373675
0.9847726
-0.05776127
-0.01163781
0.3068588
0.1476847
0.1010939
-0.09478246
0.9792781
-0.1061647
-0.005974531
0.2500214
0.5327122
0.04234224
0.0257655
0.8448438
-0.1046444
-0.02365357
0.2491907
-0.9656345
-0.04727857
0.01078039
-0.25534
-0.1048988
-0.02753335
0.2362007
-0.9985242
-0.04234276
0.02370597
0.02438099
-0.08848246
-0.009486377
0.252189
0.5518868
0.04414156
-0.07821305
0.8290689
-0.09093659
-0.03272891
0.2493638
-0.9643678
0.02337644
0.09025291
-0.2475938
-0.09412995
-0.03791273
0.2330449
-0.9949961
0.04805461
0.08180537
0.0313292
