-0.08024052
0.07157502
0.282626
0.01957278
0.9826779
-0.1281521
-0.1324313
-0.05230731
0.05593494
0.2583118
-0.3062412
0.357246
-0.5316629
0.7042203
-0.02355318
0.05736119
0.279842
-0.2613406
0.3213894
-0.5529746
0.7229309
-0.006706814
0.05784649
0.2946126
-0.2581266
0.318781
-0.554392
0.7241539
-0.04525628
0.07479256
0.3267093
0.1841773
0.1066484
-0.09437218
0.9725219
-0.04233818
0.05938303
0.3484677
0.4828888
0.05845447
-0.1257841
0.864627
-0.04339664
0.04547107
0.3544481
0.6620347
0.02010784
-0.140597
0.7358929
-0.06450798
0.06681904
0.3251862
0.5120283
0.119317
-0.04813136
0.8492784
-0.0635829
0.04224205
0.3244098
-0.9519076
-0.05989426
0.1134017
-0.278253
-0.06731633
0.03610975
0.3085515
-0.9912727
-0.02146005
0.124148
0.03879588
-0.1067434
0.0742394
0.328397
0.186256
-0.02025425
0.1638169
0.9685363
-0.1056816
0.06248099
0.3470492
0.4410107
-0.02472905
0.1539616
0.8838517
-0.1042522
0.05095178
0.3534236
0.6032892
-0.02709375
0.1400559
0.7846608
-0.08479856
0.06710905
0.3247275
0.5210131
0.08784184
0.02562361
0.8486298
-0.08164403
0.0440715
0.3231624
-0.9555122
-0.09117781
0.03452749
-0.2783721
-0.08256864
0.03824133
0.3071571
-0.9943008
-0.07643223
0.05748025
0.04711791
