-0.03110639
0.02977586
0.2450409
0.1342846
0.9552252
-0.1396978
-0.2236
-0.02806688
0.006522924
0.2305337
-0.006877828
0.1382745
-0.6971196
0.7034609
-0.02763144
0.001188546
0.2651268
0.1311512
-0.0591794
-0.7091783
0.6901908
-0.03710609
-5.245209E-05
0.2846016
0.2750942
-0.2738647
-0.6741315
0.6283854
0.01366896
0.03066903
0.2830902
0.02817961
0.2191914
-0.1912622
0.9563367
0.02447965
0.02465487
0.3079817
0.1388687
0.2157778
-0.2139748
0.942534
0.02943102
0.01824224
0.3209977
0.2360096
0.2082025
-0.2322898
0.920322
-0.01141522
0.02117702
0.2824122
0.5618567
0.1175102
-0.2043622
0.7929341
-0.01756712
-0.003944874
0.2800209
-0.9415175
0.02447735
0.2219256
-0.2523783
-0.02519145
-0.008981109
0.2648062
-0.9759954
0.08631776
0.1969431
0.03457915
-0.04952773
0.04172713
0.2938908
0.1051511
0.003509179
0.04164598
0.9935777
-0.0495316
0.03512955
0.3152546
0.2296531
-0.02405174
0.03739318
0.9722565
-0.05013986
0.02816319
0.3264912
0.3345413
-0.04853904
0.03298215
0.9405522
-0.03045681
0.02630794
0.2852633
0.5647768
0.08764397
-0.1273122
0.8106401
-0.03384916
0.002738416
0.2819308
-0.9582165
0.005003953
0.1457363
-0.2460836
-0.03886516
-0.002687395
0.2659432
-0.9900341
0.041052
0.134414
0.008953645
