-0.03611998
-0.01116124
0.2379122
-0.07071419
0.9660372
-0.1144504
-0.2206189
-0.01243816
-0.02451146
0.2084076
-0.304943
0.4484142
-0.4630824
0.701063
0.01835096
-0.02530137
0.2263109
-0.2139776
0.3767988
-0.5153912
0.7393296
0.03400299
-0.02760911
0.2417213
-0.1042205
0.2858112
-0.5645074
0.7673209
0.007381617
-0.005632281
0.2737672
0.2246323
0.2595837
-0.04798506
0.9380054
0.01647954
-0.02409279
0.2881079
0.6654919
0.2027863
-0.1712903
0.6976087
0.01558952
-0.03901744
0.2856708
-0.8530455
-0.1390706
0.2256676
-0.4494962
-0.008748692
-0.006245434
0.2842494
0.255659
0.2563656
0.04886128
0.9308747
0.004050792
-0.02739424
0.2989878
0.6814612
0.233649
-0.08739185
0.6880272
0.005591833
-0.04408011
0.2948124
-0.8766904
-0.1818654
0.1698788
-0.4116797
-0.05054942
-0.01490307
0.287875
0.236419
0.1541182
0.2116093
0.9357218
-0.04077385
-0.0279949
0.3006849
0.6645085
0.2303212
0.1076575
0.7027023
-0.03552516
-0.03950876
0.2971552
-0.8704845
-0.2495947
-0.01566159
-0.4239269
-0.03041625
-0.009773493
0.2884064
0.2566017
0.1995346
0.109902
0.9392886
-0.01847945
-0.02942121
0.3033624
0.6763514
0.2217765
-0.0009076411
0.7023981
-0.01466483
-0.04538637
0.2992848
-0.8821435
-0.2035765
0.08304085
-0.4165138
