-0.07675633
0.03641203
0.2241633
0.1263381
0.9706364
-0.02679803
-0.2029424
-0.07067902
0.01463872
0.2037675
0.08254623
0.2783252
-0.6858815
0.6672989
-0.06923407
-0.001743853
0.2343284
0.2432916
0.06496713
-0.737515
0.626626
-0.07846019
-0.009440094
0.2526635
0.3623142
-0.1150957
-0.738172
0.5573002
-0.03022802
0.03242254
0.2641662
-0.01320941
0.3054049
-0.1269076
0.9436355
-0.01338714
0.03035647
0.2875867
0.01091868
0.3134577
-0.1343389
0.9399884
-0.00390161
0.02821219
0.3004457
0.04828477
0.3239349
-0.1457555
0.9335364
-0.05254978
0.03648788
0.2764448
0.08139841
0.1483899
-0.07743028
0.982527
-0.04448652
0.02873898
0.3067049
0.1610131
0.116578
-0.09155628
0.9757571
-0.04129437
0.02206987
0.3230975
0.2173057
0.09313014
-0.1012684
0.966359
-0.09621309
0.02900642
0.2641801
0.5991992
0.06221244
5.381997E-05
0.7981791
-0.09557158
0.01114514
0.2606851
-0.9762991
-0.02473954
0.05750834
-0.2071735
-0.09726603
0.008510143
0.2474422
-0.9948685
-0.005606741
0.07299222
0.0698385
-0.07867381
0.02516991
0.2647606
0.6095375
0.06627122
-0.1036279
0.783156
-0.0821986
0.001842439
0.2590631
-0.9692051
0.02472661
0.1288356
-0.2084021
-0.08671594
-0.001833856
0.2426535
-0.9876212
0.06165124
0.1211763
0.07822947
