0.0216997
0.08557415
0.3040128
0.03107967
0.9654081
-0.0836698
-0.2449909
0.04212708
0.07061136
0.2692629
-0.3570642
0.5244579
-0.4726797
0.6115742
0.07723293
0.06872302
0.2756873
-0.3702928
0.5330499
-0.4612608
0.6049625
0.09917568
0.0683004
0.2778295
-0.4293084
0.5699742
-0.4059456
0.5709921
0.06535039
0.0890438
0.339395
0.07292917
0.1689475
-0.08912631
0.9788742
0.074348
0.08339608
0.3634474
0.1296674
0.2119595
-0.09404913
0.9640614
0.07960102
0.07680827
0.3743824
0.4008994
0.2547489
-0.138785
0.8689772
0.04537882
0.07689565
0.3441456
0.5043585
0.1729832
-0.1125696
0.8384674
0.04422119
0.05292594
0.3435283
-0.9422552
-0.02334099
0.2146982
-0.2559592
0.03680211
0.04723451
0.3285868
-0.9739419
0.0394524
0.2229481
0.01322913
0.002824112
0.08809114
0.3558561
0.1205504
-0.01632619
0.1333712
0.9835716
0.004271704
0.07957402
0.3761286
0.34376
0.04696775
0.137304
0.9277773
0.007556973
0.06967893
0.3835905
0.5968236
0.1172963
0.1293705
0.7831389
0.02498462
0.0786652
0.3489757
0.4930959
0.1199735
-0.03742884
0.8608496
0.02566241
0.05591649
0.3487004
-0.9484531
-0.03593691
0.1241482
-0.289366
0.02142502
0.04967749
0.3334382
-0.9894444
0.009248395
0.142404
0.02520718
