-0.02187356
-0.06884629
0.297406
0.9535238
-0.0277032
0.1158122
0.2767896
-0.03350279
-0.06223376
0.2696273
-0.3827965
0.3896867
0.6402174
0.5401229
-0.0320825
-0.02991325
0.2845794
-0.28488
0.4491912
0.5979277
0.5996276
-0.02537203
-0.0112012
0.2942548
-0.1629263
0.5085732
0.5340254
0.655458
-0.0572333
-0.03508317
0.3306237
-0.2016381
0.5246032
0.825523
0.05143513
-0.0638981
-0.008242458
0.3369275
0.1948605
-0.6978036
-0.6834835
-0.08916232
-0.06550859
0.007504046
0.3343629
0.1833601
-0.8025672
-0.556088
-0.1141537
-0.03624117
-0.03259462
0.3329267
-0.1101332
0.649119
0.75267
-0.001768406
-0.04057109
-0.002106369
0.3295413
0.115731
-0.8599772
-0.496415
-0.02485558
-0.04142539
0.01199949
0.3185281
0.1129533
-0.9411752
-0.3160142
-0.03957219
0.006159536
-0.03951979
0.3289154
0.06217213
0.6008087
0.7895811
-0.1082832
0.004713504
-0.01709175
0.3307279
-0.04733817
-0.7959939
-0.5936849
0.1081256
0.002887393
-0.004694134
0.3251547
-0.03565701
-0.8907475
-0.4411129
0.1035221
-0.01401884
-0.03482139
0.3297579
-0.03007504
0.7000762
0.7126768
-0.03287255
-0.01663033
-0.006969303
0.3222258
0.04325351
-0.9116637
-0.4080181
0.02279545
-0.01783726
0.004156381
0.3087102
0.04834491
-0.9790911
-0.197008
0.01520942
