0.03936826
0.1156652
0.3106047
-0.07476255
0.9583107
-0.03358417
-0.2737213
0.0457449
0.09943128
0.2897722
0.05440501
0.2716118
-0.5422203
0.7932619
0.05156
0.08519256
0.321146
0.2133398
0.07032902
-0.5954608
0.7713407
0.04433481
0.07656813
0.3397848
0.3658551
-0.1485712
-0.6069118
0.6897354
0.08851524
0.1206113
0.3420206
0.1525619
0.3537129
-0.002888533
0.9228238
0.1052904
0.1078961
0.3579797
0.4278023
0.3766548
-0.1042461
0.8150148
0.1113155
0.09499979
0.3604855
0.6797844
0.3566292
-0.2045894
0.607332
0.06857041
0.1054608
0.344622
0.5721267
0.2996253
-0.05646648
0.7613851
0.07127661
0.08252478
0.3379871
-0.9406613
-0.1643433
0.2576252
-0.1475701
0.06236527
0.07893094
0.3229346
-0.9457413
-0.09197007
0.295804
0.09805639
0.02512809
0.1075535
0.3630604
0.188023
0.01738488
0.2121423
0.9588226
0.02978441
0.09775597
0.3825254
0.3485298
0.1232709
0.2177092
0.9032907
0.03570339
0.0893749
0.3909569
0.4677076
0.2015303
0.214788
0.8333674
0.04859848
0.1023738
0.3504103
0.5926728
0.2390113
0.01080558
0.7690877
0.05310947
0.08074293
0.3432371
-0.9566233
-0.1857079
0.1518586
-0.1652979
0.04786879
0.07728225
0.3270284
-0.9649562
-0.1362285
0.1966719
0.1078037
