0.007918991
0.134302
0.3169119
-0.07655203
0.9685895
-0.07357576
-0.2248571
0.01681313
0.1170568
0.2982805
0.05185812
0.2078579
-0.535826
0.8166985
0.02108444
0.1050439
0.3312963
0.1894987
0.0580992
-0.5684274
0.7985017
0.01502757
0.09677151
0.3507746
0.3316403
-0.1096354
-0.5761722
0.738932
0.05318211
0.1441069
0.3525756
0.08275013
0.309843
0.01677904
0.9470313
0.06894723
0.1357219
0.3719066
0.3192653
0.3414008
-0.05900243
0.8820623
0.07677737
0.1255712
0.3790102
0.4682482
0.3472944
-0.1093773
0.8050882
0.03328818
0.1269328
0.3539466
0.5566742
0.2609136
-0.03026604
0.7881129
0.03675804
0.1037124
0.3486673
-0.948382
-0.1518678
0.2135623
-0.178603
0.02940265
0.09934676
0.3330035
-0.9611396
-0.09097183
0.2512369
0.06938879
-0.01209511
0.1294032
0.3682795
0.1319889
-0.03727502
0.2353667
0.9621809
-0.01151204
0.1209133
0.3892186
0.2919162
-0.02547514
0.234543
0.9268903
-0.009917285
0.1124059
0.3995516
0.4112644
-0.01725671
0.2291338
0.882078
0.01257574
0.1234673
0.3577868
0.5793881
0.1899668
0.0394792
0.7916208
0.01754253
0.1016024
0.3518837
-0.9633212
-0.1624073
0.1029708
-0.1871717
0.0139898
0.09780347
0.3352668
-0.9768013
-0.1264051
0.1466253
0.09155314
