-0.05951644
0.1819922
0.2599871
0.1229322
0.9719594
-0.1414515
-0.1420361
-0.05477292
0.157378
0.2457478
0.07809734
0.07466321
-0.6874774
0.7181234
-0.06029998
0.1502151
0.2799731
0.199608
-0.0729454
-0.6905426
0.6913658
-0.07181895
0.1469632
0.2982121
0.3443331
-0.2580126
-0.6567415
0.6193181
-0.0205108
0.1837588
0.3034397
0.07939747
0.1828405
-0.1817234
0.9629341
-0.01318302
0.1743883
0.3276513
0.2679811
0.1505923
-0.213406
0.9273435
-0.01165144
0.1646042
0.338733
0.4381136
0.1119768
-0.2363752
0.8600259
-0.04531644
0.1746881
0.3005731
0.5604022
0.07468652
-0.1440938
0.8121628
-0.04984893
0.1493629
0.2981428
-0.950995
0.02563179
0.1526274
-0.2676873
-0.05521978
0.1434054
0.2822706
-0.9886379
0.06528044
0.1353618
0.003278669
-0.08510433
0.1925996
0.3044734
0.1548583
-0.04846317
0.0657536
0.9845541
-0.08663464
0.1830851
0.3239821
0.343838
-0.05693852
0.07039187
0.9346542
-0.08729546
0.1734067
0.3323414
0.5081033
-0.06569827
0.07127454
0.8558241
-0.06491715
0.1789233
0.300186
0.561124
0.04182888
-0.06699389
0.8239552
-0.06699885
0.1551749
0.2971236
-0.961002
0.01647931
0.08145799
-0.2637579
-0.06990509
0.1492885
0.2809377
-0.9963061
0.03855283
0.07655174
0.005272443
