-0.06303663
-0.06660542
0.2232286
0.8554245
-0.439405
0.0380042
0.2715286
-0.06500289
-0.05154857
0.1945785
-0.2636237
0.4334553
0.370893
0.7778544
-0.04299626
-0.03170368
0.2127234
-0.02593531
0.4850988
0.2494867
0.8377129
-0.02432092
-0.02854064
0.2239955
0.1625966
0.4994177
0.1403377
0.839315
-0.06667918
-0.0198358
0.2625068
-0.02896195
0.3940428
0.8065555
0.4397269
-0.05706985
0.0001987815
0.2824674
-0.01116815
0.4283872
0.7890788
0.4401299
-0.0506833
0.01187027
0.2927132
0.006216245
0.4650875
0.7688343
0.4388039
-0.05278599
-0.03403172
0.2689908
0.06270469
0.444726
0.8111292
0.3746419
-0.03780152
-0.01069164
0.286005
0.07514488
0.548178
0.7566622
0.3483052
-0.02867608
0.003640056
0.292513
0.07968377
0.5873343
0.7318443
0.3362927
-0.02767687
-0.06747334
0.2491461
-0.3134256
-0.7481073
-0.5623823
-0.1607054
-0.0200527
-0.05724484
0.2361686
-0.3656586
-0.925676
0.0814574
0.05274944
-0.02419113
-0.0612803
0.2240999
-0.3290577
-0.8545307
0.3744364
0.1459309
-0.03674408
-0.05257395
0.2490628
-0.3032815
-0.7868469
-0.4827541
-0.2363065
-0.0250668
-0.04348069
0.2294357
-0.3911256
-0.9117597
0.1253146
-0.003364121
-0.02915899
-0.04985523
0.2138864
-0.3722599
-0.8287485
0.4028307
0.1110218
