-0.1157005
0.06317279
0.1220019
-0.008197472
0.8932564
-0.4249457
-0.1464478
-0.1005775
0.03929651
0.1193269
-0.2530985
-0.02866864
-0.5549012
0.7919621
-0.09902665
0.05334076
0.1512351
-0.07788164
-0.1925819
-0.5212427
0.8277395
-0.1076687
0.05923921
0.1702222
0.1094536
-0.3509174
-0.4529817
0.8122097
-0.07908264
0.09657794
0.1516903
-0.1662302
0.1571315
-0.06459681
0.9713416
-0.07039596
0.1013284
0.1775786
0.02299863
0.1415256
-0.09345809
0.9852448
-0.06634635
0.0992139
0.1924121
0.1152152
0.1313561
-0.1063359
0.9788584
-0.09937233
0.08143529
0.1561584
0.328321
0.1470965
-0.05683286
0.9313098
-0.09592336
0.05797404
0.1654027
-0.8588338
-0.1052223
0.128126
-0.4846819
-0.09886145
0.04476532
0.1539177
-0.9636373
-0.07109439
0.1403296
-0.2160009
-0.1403432
0.0874646
0.1607841
-0.0752086
0.09081952
0.213721
0.969752
-0.1366532
0.08765617
0.1823951
0.1786098
0.06799784
0.1902263
0.9629583
-0.1339548
0.08229482
0.194174
0.2915381
0.05647982
0.1753148
0.9386588
-0.1186011
0.07955545
0.1578815
0.3321688
0.1520868
0.0235811
0.9305791
-0.1131385
0.05818874
0.1650324
-0.8763267
-0.1379107
0.0824813
-0.4541246
-0.1144778
0.04604024
0.152614
-0.9690648
-0.1111938
0.113966
-0.1885765
