-0.1403006
-0.04140571
0.1752899
-0.6021313
0.7658581
-0.2041791
-0.09597068
-0.1151467
-0.03028443
0.1539143
-0.2783432
0.2411429
-0.02206687
0.9294559
-0.09879094
-0.01670164
0.1821599
-0.1132612
0.2253606
-0.06103782
0.9657427
-0.08940993
-0.01545796
0.2018636
0.08191004
0.1985736
-0.1037935
0.9711263
-0.137354
0.002652824
0.2146738
-0.1211345
0.20053
0.5602354
0.7945127
-0.1296103
0.01382837
0.2391865
-0.03010235
0.2933948
0.5255659
0.7979937
-0.120491
0.01825255
0.2503614
0.1641521
0.4689414
0.4215626
0.7585731
-0.1436711
-0.0145008
0.2259248
-0.07704175
0.1935573
0.6321211
0.7463398
-0.1330089
-0.004534155
0.254378
0.09065227
0.3007241
0.5812418
0.7506698
-0.1212004
-0.001756579
0.2675052
0.2540026
0.3948421
0.5061197
0.7234814
-0.1380728
-0.06021586
0.2199375
0.3008948
0.3529244
0.6349089
0.6178976
-0.1189701
-0.05885068
0.2235548
-0.5992273
-0.6615227
-0.3131852
-0.3243909
-0.1098876
-0.05870941
0.2133572
-0.6610381
-0.7208127
-0.1359895
-0.1580016
-0.1387922
-0.0387069
0.2246282
0.153184
0.3176274
0.607383
0.7118521
-0.114934
-0.03636801
0.2388496
0.4508865
0.5477436
0.4073782
0.5750837
-0.09897694
-0.0386751
0.2346892
-0.6348384
-0.6583709
-0.1710749
-0.366417
