-0.06473469
0.05515787
0.2931855
-0.4203759
0.8901405
0.09275227
-0.1494359
-0.0428961
0.07137784
0.2662728
-0.1630625
0.449456
-0.1046257
0.8720398
-0.01345343
0.07691383
0.2860519
-0.1229269
0.4518172
-0.1260614
0.8745621
0.00485643
0.07843918
0.298705
-0.08042427
0.4532457
-0.1483239
0.8752716
-0.02698295
0.0673683
0.334954
0.3240959
0.3166371
0.3383472
0.824757
-0.005890558
0.05503142
0.3449176
0.6119698
0.4011477
0.1910703
0.6542673
0.004202694
0.04493845
0.340873
-0.7886258
-0.4283752
-0.04525962
-0.4387662
-0.03600195
0.04749191
0.3267772
0.6331318
0.4051321
0.2787794
0.5977409
-0.01984304
0.03500676
0.3120626
-0.8746332
-0.4784803
0.07033923
-0.03355438
-0.02438696
0.03462213
0.2949515
-0.8461007
-0.4371207
0.2125127
0.2188092
-0.06212977
0.02048314
0.3214125
0.648712
0.3351309
0.4295699
0.5313471
-0.0471317
0.01557472
0.3122168
-0.8426402
-0.5289673
-0.09893701
0.01904247
-0.04832754
0.01880074
0.2993169
-0.79339
-0.5330775
0.07814625
0.2832908
-0.04964243
0.03314906
0.3247555
0.6596288
0.3740216
0.3332791
0.5602881
-0.03321578
0.02388376
0.3100129
-0.8682479
-0.4961045
-0.001592364
0.004828513
-0.03640868
0.02585804
0.2931617
-0.8242456
-0.4723223
0.1553214
0.2709358
