-0.161982
0.05381238
0.220263
-0.143394
0.9667532
-0.1907163
-0.0919444
-0.1279871
0.04345405
0.1966275
-0.3517378
0.349692
-0.4430811
0.7467765
-0.09969901
0.04960078
0.2172757
-0.2595401
0.3057862
-0.4839596
0.777764
-0.08399412
0.05165148
0.2327454
-0.2224484
0.2874897
-0.498272
0.7871413
-0.1321945
0.06030333
0.2546791
0.5281588
0.1670968
-0.02399976
0.8321965
-0.1292887
0.03973919
0.2525433
-0.9633229
-0.1336344
0.1144567
-0.2026093
-0.1325638
0.03618905
0.2379992
-0.9826217
-0.09834263
0.1325345
0.08495887
-0.1473994
0.05634135
0.2603736
0.5172128
0.2055234
0.08532102
0.8264208
-0.1396926
0.03389555
0.257539
-0.9495324
-0.1928386
0.09173256
-0.2297538
-0.1427622
0.02897847
0.2411959
-0.9719197
-0.1507907
0.1566316
0.09000546
-0.1834134
0.04384622
0.258849
0.4725201
0.1544823
0.2777684
0.8220126
-0.1729908
0.02932405
0.2597614
-0.9108378
-0.2721435
-0.0860215
-0.2981825
-0.1709998
0.02577731
0.2475041
-0.957297
-0.2784702
0.04194512
0.0654025
-0.1666213
0.05005544
0.2604578
0.5153183
0.1651851
0.1675913
0.8240596
-0.1572749
0.03025848
0.2575726
-0.9517533
-0.22328
0.00837846
-0.2103369
-0.1576949
0.02664876
0.240995
-0.967508
-0.2063936
0.0885054
0.1161766
