0.04198097
0.05926737
0.2727433
0.09597857
0.9432972
-0.1429953
-0.2837797
0.0442719
0.03600305
0.2572542
-0.04595882
0.2001043
-0.6767191
0.7070342
0.0507092
0.02963668
0.2913613
0.0703485
0.02423026
-0.7006622
0.7096031
0.04577347
0.02748847
0.312569
0.1988687
-0.1772768
-0.6894414
0.6735687
0.09105574
0.05904728
0.3035367
0.1018548
0.3051374
-0.1945534
0.9266422
0.1037204
0.04721028
0.3244507
0.2880453
0.2706014
-0.2506404
0.8837332
0.1074286
0.03616893
0.3337237
0.4656332
0.2214801
-0.2981716
0.8032596
0.06724813
0.05117682
0.3074946
0.5401017
0.1912488
-0.2154862
0.7907463
0.06197856
0.02633476
0.306023
-0.9230977
0.008799967
0.2960946
-0.2452374
0.05191936
0.02172333
0.2922522
-0.9521925
0.09837062
0.2862659
0.04128661
0.02863802
0.06981856
0.3244676
0.09391446
0.03774961
0.06879466
0.9924829
0.03140766
0.06460583
0.3464274
0.1665411
0.08155625
0.06932601
0.9802074
0.03491735
0.05877355
0.3578073
0.3386626
0.1767594
0.067058
0.9217196
0.04847191
0.05525923
0.3130664
0.5468859
0.1614173
-0.1386904
0.8097069
0.04640394
0.03093612
0.3107235
-0.9376369
-0.04850323
0.2019063
-0.2787805
0.03980668
0.02497929
0.2959834
-0.9788852
0.01683276
0.2003945
0.03663926
