-0.1204982
0.07211322
0.3328512
-0.280679
0.9576808
-0.02218834
-0.05978793
-0.08813688
0.07988256
0.3093253
-0.2474297
0.3450167
-0.2683162
0.8647246
-0.06338237
0.08672607
0.334286
-0.162131
0.2966586
-0.2972664
0.892939
-0.04960456
0.08899057
0.3517883
-0.1395194
0.2834363
-0.3042817
0.8986717
-0.08932471
0.07401091
0.3688679
0.6029159
0.26619
0.1142059
0.7433656
-0.08015348
0.05540454
0.3615193
-0.941411
-0.2937987
0.07623321
-0.1470242
-0.08278851
0.05325687
0.3466624
-0.9420232
-0.25804
0.1514051
0.1519351
-0.1034517
0.06460518
0.3721305
0.6119261
0.267197
0.2189743
0.7114791
-0.08954066
0.04611605
0.3626456
-0.9317996
-0.3392008
0.01886727
-0.1278143
-0.09108537
0.04457819
0.3453719
-0.9234879
-0.3147072
0.1304404
0.1763941
-0.1353708
0.04456645
0.3651382
0.5970153
0.1861535
0.3904305
0.6756359
-0.1211713
0.03366923
0.3608575
-0.8980983
-0.3831718
-0.1688502
-0.1344937
-0.1181931
0.03445053
0.347917
-0.8956008
-0.4158979
-0.03137876
0.1547371
-0.1204673
0.05402839
0.3694537
0.6228432
0.2207506
0.2884502
0.6929156
-0.1055992
0.03827709
0.3604082
-0.9288155
-0.3502516
-0.06211762
-0.103764
-0.1049119
0.03851938
0.3433695
-0.9124304
-0.3509519
0.05930015
0.2019582
