-0.01107964
0.1192828
0.2811598
-0.1517701
0.9832925
-0.04115889
-0.09169347
0.009261556
0.1084849
0.2593296
0.05395527
0.248493
-0.4476418
0.8572963
0.01509133
0.09188241
0.2930403
0.3066025
0.06968921
-0.504397
0.8041903
0.00620801
0.077757
0.3097456
0.5168008
-0.1058836
-0.510877
0.6787565
0.02216497
0.1152916
0.3139822
0.6808724
0.2236097
-0.02879455
0.6968375
0.02457347
0.09539056
0.3022806
-0.9740871
-0.1775008
0.1381666
0.02361638
0.01908791
0.09786096
0.2858398
-0.9492064
-0.1436153
0.1546642
0.2333687
0.007138896
0.1073374
0.3167092
0.6964867
0.256921
0.07630906
0.6656387
0.01382154
0.08900559
0.3012612
-0.9547828
-0.2616771
0.1054685
0.09376267
0.007501715
0.09429681
0.282955
-0.9061937
-0.2272259
0.1491605
0.3239328
-0.03261751
0.09708977
0.3127104
0.7011989
0.1351562
0.2541792
0.6522621
-0.02076117
0.08450618
0.303606
-0.9174827
-0.3545145
-0.1765513
0.03707785
-0.01802409
0.09008089
0.2897279
-0.8682485
-0.3857478
-0.1225733
0.2869127
-0.01379521
0.1010651
0.3154298
0.7145406
0.1730268
0.1509347
0.6608421
-0.004135255
0.08442712
0.3006228
-0.9569931
-0.278599
-0.03388944
0.07347347
-0.005234633
0.09057793
0.2821648
-0.9026753
-0.2755378
0.01375738
0.3302531
