0.1228971
0.03734288
0.3202269
0.05613457
0.9900714
-0.06463041
-0.111492
0.1376201
0.01739025
0.2995236
0.04747493
0.2418817
-0.6213676
0.743735
0.1384462
0.003066719
0.3343112
0.2680312
-0.02527019
-0.6682159
0.6935477
0.124532
-0.003653854
0.3518154
0.4508994
-0.282697
-0.6337193
0.5614018
0.1528582
0.02339351
0.352714
0.6907915
0.08569597
-0.186012
0.6934428
0.1469538
0.004260987
0.3422743
-0.9890329
0.0271491
0.1348687
0.0537339
0.1429334
0.00908199
0.3261074
-0.9503243
0.06001953
0.09974582
0.2886732
0.1361605
0.02184033
0.3567042
0.7042238
0.121529
-0.07705833
0.6952422
0.1346287
0.002242506
0.3431163
-0.9868985
-0.05928767
0.1000736
0.1118103
0.1303562
0.00928548
0.324643
-0.9410213
-0.03438883
0.09384464
0.3232484
0.0957498
0.02841726
0.3539792
0.676403
0.02778631
0.1050821
0.7284673
0.1016366
0.01216355
0.3464528
-0.9677081
-0.2013949
-0.151345
-0.008714748
0.1054131
0.01587242
0.3321759
-0.9304734
-0.2329022
-0.1451682
0.2426977
0.1147729
0.02442813
0.3563295
0.6984606
0.05030774
0.0009764648
0.7138774
0.1167165
0.005060792
0.3435206
-0.9938822
-0.09284136
-0.02071422
0.05612119
0.1170837
0.01026839
0.3245128
-0.9558094
-0.09371333
-0.02401096
0.2776142
