-0.0002450603
-0.09135979
0.280993
-0.1195802
0.9723055
-0.0808932
-0.1837908
0.02599511
-0.1012761
0.24992
-0.250644
0.435305
-0.4302212
0.7500646
0.05612568
-0.1047255
0.2747932
-0.06906606
0.3119444
-0.5189261
0.7928659
0.06697032
-0.1113251
0.2955209
0.09399398
0.1884972
-0.5721678
0.7926273
0.03666092
-0.09559172
0.308376
0.6569695
0.2011838
-0.1221393
0.7162389
0.03599674
-0.1177789
0.2984195
-0.9771802
-0.1417679
0.1519428
-0.04397916
0.0307268
-0.1157776
0.2823729
-0.9385384
-0.08239736
0.1357416
0.3064809
0.02193507
-0.1007644
0.3155433
0.6691052
0.2423712
-0.01376489
0.7023995
0.02507322
-0.1242286
0.302258
-0.9697189
-0.1763575
0.1671029
-0.02490026
0.01756778
-0.1214974
0.2846962
-0.9046991
-0.09768244
0.2121518
0.3563274
-0.01596566
-0.1092466
0.3193853
0.651827
0.210236
0.175687
0.7071468
-0.006490767
-0.1258227
0.3112231
-0.9562805
-0.2713696
0.007135225
-0.1087894
-0.008451814
-0.1246445
0.2969902
-0.9124816
-0.242604
0.1235659
0.3053722
0.002108369
-0.1054657
0.3183234
0.6748804
0.2113596
0.06612014
0.7039117
0.008458052
-0.1269293
0.3051513
-0.9727932
-0.2113379
0.08562567
-0.04096302
0.003741402
-0.1243442
0.2871286
-0.9081333
-0.1595501
0.1531129
0.3555197
