0.001522708
-0.08800708
0.2810984
-0.1409735
0.9681234
-0.1036391
-0.1792277
0.03062546
-0.09573141
0.2476678
-0.3431237
0.4426391
-0.3933519
0.7291166
0.06729987
-0.09025201
0.2640755
-0.3088287
0.4234297
-0.4134676
0.7445648
0.08988063
-0.08690982
0.2742636
-0.3641335
0.4539261
-0.38035
0.7188128
0.03826047
-0.08926734
0.3079824
0.6503167
0.2215261
-0.1091559
0.7184006
0.03839757
-0.1109174
0.2980239
-0.9739364
-0.1601467
0.1589113
-0.02341396
0.03265815
-0.1086869
0.2819436
-0.9370009
-0.1018266
0.1513639
0.2979087
0.02426286
-0.09504203
0.3154995
0.6525823
0.273034
0.000579139
0.7068158
0.02873448
-0.1185964
0.3026413
-0.9606676
-0.2076942
0.1793007
-0.04280575
0.02068981
-0.1171097
0.2850203
-0.9091606
-0.1263913
0.2347748
0.3198957
-0.01387977
-0.105369
0.3198192
0.6398501
0.2206186
0.1915669
0.7107893
-0.003303051
-0.1218243
0.3121479
-0.9445491
-0.3004155
-0.01282336
-0.1319585
-0.004559943
-0.1212552
0.2977706
-0.9132104
-0.2792929
0.1067525
0.2768505
0.004637063
-0.1006145
0.3185229
0.6579955
0.2414226
0.0817935
0.7085668
0.01241689
-0.1221177
0.3058243
-0.9625039
-0.2475284
0.09069983
-0.06395011
0.007494011
-0.1207042
0.2876868
-0.9099649
-0.1920249
0.1693812
0.3261909
