-0.02274202
0.2258229
0.2769682
-0.07650858
0.9902005
-0.08586029
-0.0792309
-0.004437291
0.2119938
0.2574587
0.02913884
0.1869134
-0.5132313
0.8371428
-0.002427264
0.1991776
0.2931083
0.2765769
0.004871586
-0.5462849
0.7906039
-0.01410917
0.1882195
0.3094406
0.5386349
-0.2151579
-0.5148206
0.6312997
0.007661419
0.2205756
0.3108004
0.6822245
0.1359756
-0.0772108
0.7142261
0.007534044
0.2006931
0.300059
-0.9900914
-0.1078055
0.08134467
0.03847276
0.004418771
0.2039608
0.2830481
-0.9685514
-0.09029511
0.07418973
0.219661
-0.00846102
0.2147428
0.313487
0.6985295
0.1782859
0.02834624
0.6924356
-0.004933483
0.1957659
0.2994152
-0.97635
-0.1644967
0.08985162
0.1077416
-0.009854056
0.2019613
0.2807282
-0.9360452
-0.1420058
0.110035
0.302566
-0.0481239
0.2113202
0.3087782
0.6718518
0.1305544
0.2132444
0.697207
-0.03820414
0.1985117
0.300926
-0.924287
-0.3477
-0.1398305
0.07242765
-0.03609019
0.203883
0.2865115
-0.8942205
-0.3635492
-0.1102799
0.236728
-0.0291419
0.2114946
0.3118845
0.7004763
0.1212742
0.1090474
0.6947908
-0.02178343
0.1943313
0.298596
-0.9687092
-0.2275586
-0.04661092
0.08744705
-0.02163657
0.2004539
0.2796957
-0.933766
-0.2301068
-0.02620859
0.2728462
