0.02001708
-0.06562871
0.2693123
0.2284636
0.9614659
-0.05876392
-0.1411898
0.02942029
-0.09089503
0.2481496
0.01710019
0.2917123
-0.7356202
0.6111256
0.03212338
-0.1068168
0.2823191
0.2308349
0.03768082
-0.7904954
0.5660498
0.0193454
-0.1119132
0.3005683
-0.4484425
0.2674432
0.7373837
-0.4285311
0.0439228
-0.08926108
0.3017319
0.6694214
-0.03910422
-0.3222794
0.668193
0.03030358
-0.1067009
0.2928129
-0.9645104
0.2102942
0.1593272
-0.01053541
0.02683514
-0.1027548
0.2765321
-0.9265112
0.2482688
0.06142554
0.2759829
0.02810252
-0.08291222
0.3064606
0.6890175
-0.02772079
-0.2168448
0.6909883
0.01748514
-0.1033812
0.2942865
-0.980895
0.1577477
0.1125022
0.0174304
0.0148106
-0.09813401
0.2756042
-0.925378
0.1855753
0.04515123
0.3274123
-0.006107848
-0.06440867
0.3050708
0.6485413
-0.03934493
-0.04184131
0.7590097
-0.007702663
-0.08218548
0.2984089
-0.9976333
0.03302463
-0.02035428
-0.05677101
-0.006742484
-0.08007494
0.2836383
-0.9639687
0.02409496
-0.04364981
0.2613015
0.009795671
-0.07377669
0.3063222
0.6808118
-0.05979709
-0.1409678
0.7162735
0.002911282
-0.09419595
0.2944657
-0.991533
0.1240228
0.03712057
-0.01013312
0.002603321
-0.09054428
0.2755401
-0.9469451
0.1293081
-0.01398865
0.2939028
