-0.06159595
0.08534047
0.3763783
-0.2238906
0.9735582
0.0177641
-0.04173756
-0.0364374
0.07974666
0.3537755
0.1190414
0.2565685
-0.3690578
0.8853238
-0.02993487
0.05901954
0.3852876
0.3657265
0.1082524
-0.4320892
0.8172053
-0.03741806
0.04163641
0.3992825
0.5894337
-0.05870672
-0.455688
0.664432
-0.02881573
0.08068657
0.4135441
0.6595402
0.2621244
0.07808919
0.7001426
-0.02106567
0.06090105
0.4021017
-0.9570278
-0.2688571
0.1004157
-0.04159761
-0.02559943
0.06176865
0.3856412
-0.928041
-0.2278147
0.160545
0.2471149
-0.04403253
0.0707711
0.413534
0.6909845
0.261398
0.1757537
0.6506321
-0.03204015
0.05286378
0.3978708
-0.9431556
-0.3283707
0.0391377
0.03314259
-0.03604908
0.05655235
0.3787851
-0.8976493
-0.3043697
0.1173734
0.2963246
-0.08109719
0.056036
0.4040521
0.6970128
0.1585851
0.3408418
0.6106153
-0.06637269
0.04526019
0.3951086
-0.894655
-0.3951188
-0.2075533
0.01988238
-0.06318812
0.05075288
0.3813105
-0.8494554
-0.4352652
-0.1245493
0.27103
-0.06369892
0.06216484
0.4093489
0.7123177
0.1871483
0.2425549
0.6314635
-0.04994091
0.04686987
0.3944781
-0.9402857
-0.3288343
-0.07403185
0.04743512
-0.04992007
0.05240107
0.3757897
-0.892067
-0.3358639
0.001596596
0.3023399
