-0.1740618
0.3165186
0.1970806
-0.2094724
0.926853
-0.3020449
0.07637919
-0.1465809
0.3037962
0.1909767
-0.06425379
-0.05698828
-0.3763725
0.9224791
-0.157915
0.3041231
0.2268245
0.2230273
-0.2670604
-0.3262124
0.878933
-0.1751849
0.2961258
0.238622
0.5445396
-0.4822987
-0.2004627
0.6562616
-0.1585457
0.3333251
0.2358394
0.5147722
0.07755156
0.1345056
0.843151
-0.1503527
0.3119556
0.2346987
-0.9543655
-0.2169662
-0.07517219
-0.1909488
-0.147296
0.3087904
0.2178599
-0.9702511
-0.2333715
-0.04633508
0.04476034
-0.1735218
0.3243946
0.2382077
0.4792036
0.1281541
0.2352212
0.8358298
-0.1603394
0.3041717
0.2368328
-0.9365759
-0.3024343
-0.07497133
-0.1604323
-0.1568002
0.3010606
0.2170839
-0.9491424
-0.3129369
-0.0282926
0.01997023
-0.2059039
0.3050954
0.227341
0.3968979
0.1289106
0.4155518
0.8081899
-0.1916075
0.295237
0.2305858
-0.8096081
-0.5105806
-0.219016
-0.189405
-0.1840057
0.2947319
0.2168954
-0.8212629
-0.5352587
-0.1765378
-0.08865645
-0.1899063
0.3132733
0.2337969
0.4638576
0.1118333
0.3179296
0.8192987
-0.1744684
0.2968918
0.233098
-0.8921847
-0.3923447
-0.160773
-0.155641
-0.1671833
0.2950545
0.2143808
-0.9019132
-0.4110088
-0.1259176
-0.04206082
