0.03664356
0.02407843
0.248638
0.01249621
0.9464322
-0.2933056
-0.1344681
0.05464121
-0.002476186
0.2365861
-0.1940098
0.1262691
-0.6110736
0.7569713
0.06102472
0.003468066
0.2733546
0.007487678
-0.1450352
-0.5994922
0.7870946
0.0496742
0.00686571
0.2927293
0.2530152
-0.4543426
-0.490335
0.6993766
0.06837507
0.02779439
0.2800533
0.5267719
0.07741937
-0.1864567
0.8256825
0.06358759
0.004831702
0.2788155
-0.9692671
0.01730678
0.1463923
-0.1969546
0.05904778
0.001991987
0.2626364
-0.9863195
0.05591616
0.1011907
0.1175057
0.05268271
0.02845547
0.2864479
0.5206811
0.1404905
-0.08624087
0.837685
0.05268941
0.002469659
0.2839572
-0.9677624
-0.06903674
0.1397812
-0.197816
0.0474521
-0.001909107
0.2653592
-0.9862465
-0.02973783
0.1380903
0.08581708
0.01258076
0.02850002
0.2862887
0.4872461
0.103063
0.1157215
0.8594055
0.02033596
0.010398
0.2870213
-0.9182892
-0.2752293
-0.08255471
-0.2723573
0.02369465
0.006692499
0.2728938
-0.9508939
-0.3034893
-0.05361784
0.02864014
0.03151585
0.02839166
0.2876094
0.5114169
0.09713383
0.007251432
0.8537946
0.03573247
0.00402391
0.2854279
-0.9609318
-0.1539214
0.01521035
-0.2295366
0.03583688
-0.0009711087
0.2667736
-0.9856032
-0.1514753
0.02203672
0.07180604
