0.105231
-0.05239771
0.2608585
0.2451481
0.9344717
-0.114514
-0.2314121
0.1083965
-0.07905719
0.2401519
-0.06854129
0.3126543
-0.7578178
0.568561
0.1158385
-0.09061643
0.2747283
0.1279567
-0.007739183
-0.8176065
0.561326
0.1054438
-0.09070748
0.2948963
-0.3220216
0.3577681
0.746426
-0.4595132
0.1343052
-0.07405648
0.2888896
0.6196033
-0.0107475
-0.399573
0.6755129
0.1193873
-0.0904097
0.2829682
-0.9551055
0.22256
0.1952602
-0.01067637
0.1150182
-0.08630586
0.2669138
-0.9226529
0.2699513
0.07622486
0.2646276
0.1196949
-0.06755996
0.296892
0.6398184
0.01216834
-0.2975058
0.7085017
0.1071741
-0.08634761
0.2881069
-0.96679
0.1873261
0.1694645
0.03883254
0.102397
-0.08059999
0.2694734
-0.9297493
0.2239188
0.1033638
0.273391
0.08607446
-0.04680452
0.3013189
0.6004582
-0.01632977
-0.1165573
0.7909474
0.08291896
-0.06418583
0.296773
-0.9968899
0.03409882
0.01552569
-0.06933117
0.08299036
-0.06278634
0.2817579
-0.9750028
0.03500723
-0.02499355
0.2179897
0.1016554
-0.05732501
0.3000059
0.6295801
-0.0312284
-0.2192191
0.7447125
0.09290875
-0.07651094
0.2911303
-0.9878116
0.1365003
0.07475974
-0.002655968
0.09121484
-0.07309669
0.2718723
-0.958594
0.1507505
0.01629587
0.2410526
