-0.2077018
0.3104429
0.2088044
-0.2901786
0.8949258
-0.3281893
0.08482938
-0.1789199
0.3039492
0.202604
-0.1337597
-0.08689591
-0.2916276
0.9431388
-0.1904729
0.3074525
0.2377961
0.193648
-0.273395
-0.2261907
0.9146548
-0.2062603
0.2979656
0.2504513
0.5456729
-0.4423074
-0.1046978
0.7040196
-0.1954783
0.3324081
0.2460216
0.4750733
0.0997392
0.2051766
0.8498589
-0.1844971
0.31375
0.2463068
-0.9298677
-0.3113185
-0.104886
-0.1656076
-0.180757
0.3121838
0.2295568
-0.9371843
-0.3334397
-0.05613817
0.08574414
-0.2081061
0.3212022
0.2492881
0.4390252
0.1769258
0.2946701
0.8301347
-0.1923717
0.3044026
0.2486708
-0.901983
-0.4008514
-0.07087494
-0.1439506
-0.1888738
0.301866
0.2287745
-0.9122022
-0.4091856
-0.01802612
0.01137613
-0.236697
0.296299
0.2402944
0.3641109
0.1935681
0.4669687
0.7822371
-0.2204614
0.2894319
0.2437802
-0.7369052
-0.6073045
-0.2196177
-0.1998001
-0.212771
0.2895835
0.2301827
-0.7491397
-0.6334251
-0.1671332
-0.09812733
-0.2224475
0.3073893
0.2460453
0.4252597
0.1663932
0.3752154
0.806648
-0.204598
0.2942359
0.2461324
-0.8424379
-0.490253
-0.1581424
-0.1579286
-0.1971655
0.2928976
0.2274485
-0.8517542
-0.506991
-0.118692
-0.05820011
