0.003587176
-0.08678058
0.2814478
-0.1241356
0.9733973
-0.06104022
-0.1826535
0.02538286
-0.09818763
0.2534986
-0.1197223
0.3721516
-0.4569298
0.79899
0.04331344
-0.108992
0.2847878
0.1690246
0.1557402
-0.5580515
0.7973421
0.03945368
-0.1205339
0.3049498
0.4118085
-0.06071856
-0.5821452
0.6984511
0.03935266
-0.09225357
0.3078187
0.6926408
0.1818502
-0.1261923
0.6864799
0.03831934
-0.1144255
0.2959703
-0.9810677
-0.1467546
0.1194156
-0.04134381
0.03429187
-0.1117546
0.2799863
-0.927534
-0.09229046
0.08684682
0.3515975
0.02499183
-0.0977847
0.315255
0.6973864
0.2250833
-0.01429045
0.6802835
0.02878205
-0.1206315
0.3000826
-0.9720066
-0.2089972
0.1073465
0.0003136297
0.02339834
-0.1166431
0.2820314
-0.8985776
-0.150234
0.1351181
0.3895268
-0.01298653
-0.1065054
0.31897
0.6835181
0.1715952
0.175923
0.6873204
-0.003252703
-0.1220614
0.309778
-0.9506521
-0.2982318
-0.07133177
-0.04722563
-0.003141376
-0.1186135
0.2956091
-0.8876085
-0.3040108
0.008047068
0.345925
0.004997029
-0.1026126
0.317997
0.7032679
0.1824705
0.06579909
0.6839513
0.01207224
-0.1232139
0.3034211
-0.9713281
-0.2370719
0.01435054
-0.01061489
0.00991955
-0.1189765
0.2852378
-0.8960783
-0.2123791
0.05777689
0.3854875
