0.06855498
-0.05907995
0.2657386
0.2206756
0.9517369
-0.09937651
-0.1887421
0.0756643
-0.08509788
0.244423
-0.04551139
0.3111493
-0.7366771
0.5986834
0.08195085
-0.09848861
0.2786018
0.1767603
0.01966286
-0.799439
0.5738175
0.07031149
-0.1012731
0.2975593
-0.4056998
0.3253666
0.7305858
-0.4424802
0.09641779
-0.07963717
0.2964023
0.6334813
-0.01978198
-0.3517593
0.6888944
0.08254897
-0.09681265
0.2896326
-0.9589637
0.2179735
0.180677
-0.01523613
0.07848464
-0.09281951
0.2735238
-0.922367
0.2623658
0.07510921
0.2734265
0.08058476
-0.07422644
0.3032146
0.6496733
-0.002144095
-0.2475365
0.7187808
0.0696865
-0.09369075
0.2936159
-0.9744897
0.1718079
0.1393805
0.03774878
0.06597102
-0.08797133
0.2748747
-0.9293989
0.2034099
0.07850796
0.2977896
0.04562417
-0.05571702
0.3046959
0.6073261
-0.03175943
-0.06681117
0.7910011
0.04362437
-0.07323077
0.299839
-0.997391
0.02621246
-0.01436961
-0.0657094
0.04445818
-0.07154045
0.2849594
-0.9699001
0.0191608
-0.04386111
0.2387527
0.06187478
-0.06510551
0.3047593
0.638929
-0.04330833
-0.1696138
0.749083
0.05468673
-0.08478916
0.2952808
-0.9912452
0.1230797
0.04779324
-0.0005365429
0.05394655
-0.08116376
0.2761208
-0.955012
0.1313972
-0.003333121
0.2658494
