-0.001094621
0.08317631
0.3103774
0.05437731
0.9948608
0.01187985
-0.08458161
0.01068263
0.06903049
0.2896217
0.1544279
0.1771898
-0.6107931
0.7561003
0.00591899
0.05121136
0.3234957
0.3207475
-0.002783385
-0.6398679
0.6983427
-0.008840674
0.04248494
0.3379526
-0.552619
0.304328
0.594447
-0.4986277
0.02643026
0.06355625
0.344972
0.702124
0.04436908
-0.1600743
0.6924085
0.01945355
0.04523644
0.3343963
-0.9757769
0.1204544
0.1684053
0.0706396
0.01454814
0.0506444
0.3185023
-0.9415631
0.1501466
0.152401
0.2601708
0.006083647
0.06240696
0.3461089
0.7458506
-0.01471461
-0.05954639
0.6632833
0.003802791
0.04480565
0.3306429
-0.985492
0.03290941
0.0002401577
0.1665009
0.004274894
0.053666
0.3123788
-0.9408323
0.03373467
-0.01321437
0.3369304
-0.03160909
0.0707742
0.341333
0.7104599
-0.04867033
0.1225911
0.6912665
-0.02748528
0.05720425
0.3325999
-0.9699785
-0.1026401
-0.1441532
0.1668137
-0.02387519
0.06382871
0.3188306
-0.9495746
-0.1147714
-0.1388049
0.2566494
-0.01387262
0.06526864
0.3443996
0.7337
-0.05009034
0.01715134
0.6774076
-0.01278317
0.04880357
0.3301691
-0.9845436
-0.006813794
-0.07615577
0.1575689
-0.009826593
0.05699295
0.3121613
-0.9476246
-0.01744115
-0.08116609
0.3084081
