0.00375207
-0.08491777
0.2810563
-0.1023758
0.9696726
-0.1013616
-0.1974337
0.02404858
-0.09802595
0.2541972
-0.1730802
0.3456625
-0.4752841
0.790358
0.04017653
-0.1064323
0.2857929
0.1975024
0.1069329
-0.5804708
0.7826953
0.03264389
-0.1176695
0.3042691
0.5108047
-0.1390446
-0.5705315
0.6278846
0.03926557
-0.08901775
0.305909
0.6797529
0.1772664
-0.1570432
0.6941543
0.03627197
-0.1113628
0.2951794
-0.9802461
-0.09804352
0.1650667
-0.04751933
0.03095721
-0.1088203
0.2795549
-0.9295128
-0.02873307
0.1286055
0.3444431
0.02518452
-0.09349895
0.3142232
0.6865621
0.2258139
-0.04759603
0.6894746
0.0273096
-0.1167893
0.2999077
-0.9734159
-0.1852447
0.1346398
-0.004242388
0.02117366
-0.1131681
0.2818648
-0.9091477
-0.1213823
0.1513624
0.3685189
-0.01286987
-0.1006104
0.3200166
0.6659307
0.1747953
0.1487923
0.7098196
-0.003644969
-0.1166182
0.3116261
-0.9471718
-0.3078553
-0.06793417
-0.05895469
-0.003334722
-0.1135269
0.2973306
-0.8912477
-0.3135316
-0.005691947
0.3276326
0.005292349
-0.09753078
0.3180028
0.6893709
0.1849138
0.03628119
0.6994701
0.01160463
-0.1186007
0.3042391
-0.9700501
-0.241483
0.01743111
-0.01961976
0.009618407
-0.114723
0.2859112
-0.9015262
-0.2168544
0.04389875
0.3718838
