-0.06942003
0.06552485
0.2691897
-0.1742662
0.978352
-0.07566215
-0.08206085
-0.04799132
0.05477643
0.2485505
0.03203277
0.2172554
-0.4305874
0.8754248
-0.04301596
0.03999597
0.2831941
0.3082029
0.04964098
-0.4783792
0.8207924
-0.05208512
0.02563304
0.2997405
0.5320116
-0.1089904
-0.4761859
0.6916155
-0.03724856
0.06512123
0.3028173
0.661296
0.2212049
-0.009124879
0.7167097
-0.03360477
0.04519594
0.2920796
-0.9728247
-0.2005762
0.1150348
0.01218496
-0.03832216
0.04727212
0.2752916
-0.9513843
-0.1719545
0.1322185
0.2186729
-0.05219976
0.05630592
0.3057451
0.6774942
0.249787
0.09443092
0.68534
-0.04469404
0.03775391
0.2914955
-0.9561675
-0.2654457
0.09670606
0.07700828
-0.05056078
0.04239017
0.2727917
-0.9140589
-0.2349898
0.1419445
0.298543
-0.09125173
0.04429734
0.3020026
0.666055
0.1365674
0.2804864
0.6775305
-0.07926556
0.03219077
0.2944402
-0.9119648
-0.3732344
-0.1639498
0.04622391
-0.07676956
0.03742659
0.2801555
-0.8773566
-0.3973645
-0.1118505
0.2446144
-0.07249314
0.04890761
0.3045974
0.6885397
0.1725063
0.173715
0.6826257
-0.06174872
0.03251725
0.2913197
-0.9484335
-0.305826
-0.05227212
0.06490003
-0.06207917
0.03820449
0.2724853
-0.9066097
-0.3077017
-0.007834741
0.2886474
