0.00537543
0.03722769
0.3723443
-0.06760981
0.99688
-0.002005225
-0.04068498
0.02871415
0.02386731
0.3513578
0.09906607
0.2383403
-0.504853
0.8237132
0.03069468
0.005572021
0.3848864
0.3236327
0.03386635
-0.5576686
0.7636234
0.01877616
-0.006893277
0.4009894
0.5231072
-0.1821692
-0.5542855
0.6212414
0.03316927
0.02418643
0.4066953
0.7384167
0.1107383
-0.05180112
0.66317
0.0334864
0.004243255
0.3927491
-0.9929379
-0.1053473
0.04621122
0.02899689
0.03156821
0.008310139
0.3759778
-0.9505771
-0.08822036
0.03735643
0.2953386
0.01728474
0.02053413
0.4087645
0.7304276
0.1524935
0.06209144
0.6628469
0.02250472
-0.000379324
0.3926208
-0.9844301
-0.1645953
0.0486507
0.03793235
0.01919011
0.004739046
0.373989
-0.9208031
-0.1400245
0.09051701
0.3525925
-0.02198692
0.01674306
0.4005312
0.707595
0.05507229
0.2378258
0.6631103
-0.01123595
0.002224624
0.3918636
-0.9386437
-0.2712149
-0.2130114
-0.004088328
-0.00665898
0.007039964
0.3782808
-0.8906999
-0.3203874
-0.1692661
0.274508
-0.003501009
0.01797014
0.4050913
0.7344885
0.08740196
0.1359208
0.6591002
0.0050905
-0.0008978546
0.3899941
-0.9775281
-0.1929907
-0.07927999
0.03013548
0.006632124
0.004452527
0.3714358
-0.9242988
-0.2069494
-0.04260611
0.3178497
