-0.03302301
0.03118375
0.3951811
-0.146231
0.9890911
0.01352145
0.01150959
-0.006456511
0.02365136
0.3763192
0.1064325
0.2143866
-0.4303058
0.870372
-0.00524306
0.003416717
0.4074376
0.4335629
0.04821203
-0.4778413
0.762474
-0.01705979
-0.01363939
0.4179842
0.6750022
-0.108756
-0.4597705
0.5667057
-0.006659734
0.0209865
0.4331772
0.7218724
0.1412638
0.04172887
0.6761683
-0.003015017
0.002258122
0.4200488
-0.9862409
-0.1416298
0.05879113
0.06175429
-0.006057306
0.007032603
0.4036479
-0.9383256
-0.1215359
0.08568095
0.3121423
-0.02239908
0.01368505
0.4330449
0.7140427
0.1588595
0.1529776
0.6644582
-0.01294484
-0.004726589
0.4179444
-0.9679495
-0.2385817
-0.006811953
0.07814194
-0.01508338
0.001725495
0.3993696
-0.9023957
-0.2292697
0.05251203
0.3610542
-0.06027867
0.005517781
0.4206843
0.6802928
0.05398315
0.3250402
0.6547033
-0.0469508
-0.007609189
0.4138262
-0.9075671
-0.3240175
-0.2668785
-0.01050979
-0.04168171
-0.002123833
0.400979
-0.8532626
-0.3909571
-0.193319
0.2858725
-0.04228484
0.008721828
0.4274228
0.7115369
0.0952943
0.2254411
0.658643
-0.02959957
-0.008022785
0.4140723
-0.9504108
-0.273066
-0.1415202
0.04611214
-0.02674023
-0.001410186
0.396134
-0.8892565
-0.3012982
-0.08245288
0.3341316
