-0.1711655
0.0486047
0.2489655
0.7904155
0.5721807
-0.2171556
0.02638303
-0.194995
0.02354181
0.2411523
-0.06927322
0.01866424
0.9962257
-0.04885857
-0.2012368
0.0304983
0.2788403
-0.08771988
0.2048972
0.9742136
-0.03507596
-0.2057036
0.04473391
0.2950868
-0.1177807
0.6081668
0.7850212
0.001621555
-0.1768616
0.04545489
0.3001423
0.2238032
-0.5192981
-0.6264254
0.5365006
-0.1976441
0.05061966
0.2971168
0.6063267
-0.7660285
0.01907194
0.2126137
-0.2021796
0.0452399
0.2808988
0.619741
-0.761233
0.07762529
0.1744129
-0.1767059
0.06180447
0.2933871
0.26761
-0.4904001
-0.5534688
0.6177095
-0.2012499
0.0620482
0.2897611
0.6685655
-0.7060587
0.01634766
0.2328821
-0.2042933
0.05494246
0.2714283
-0.7042947
0.6782619
-0.1939477
-0.07946138
-0.1696033
0.09276462
0.2641174
0.1466581
-0.5402687
-0.3992588
0.726081
-0.1900816
0.09051532
0.2653854
0.5975989
-0.6436659
0.05357195
0.4750788
-0.1949515
0.08008993
0.2557904
-0.7136458
0.5882491
-0.2585073
-0.2790105
-0.1736309
0.07754856
0.2791449
0.2480219
-0.5133483
-0.4848884
0.6632059
-0.1985187
0.07538706
0.2758852
-0.6532065
0.6905167
-0.02084145
-0.3099577
-0.2025559
0.06651145
0.2592431
-0.7153706
0.6504816
-0.2302211
-0.1100766
