-0.07950708
0.08840093
0.3050191
-0.2723086
0.962148
-0.009865311
0.004693755
-0.05634337
0.08753532
0.2872443
0.09444994
0.170767
-0.3193648
0.9273208
-0.0529073
0.06894726
0.3196942
0.4091371
0.07459707
-0.3559916
0.8368466
-0.05988628
0.04993299
0.3309061
0.6748879
-0.03010514
-0.3508448
0.6484813
-0.05210592
0.08673424
0.3444909
0.6730956
0.1963287
0.1289355
0.7012653
-0.04398789
0.07143545
0.3336324
-0.9439677
-0.2964586
0.006498898
0.1448968
-0.04600739
0.07676482
0.3165045
-0.9369852
-0.295115
0.01362261
0.1864949
-0.06565036
0.07526833
0.3431089
0.6888734
0.2282684
0.2285147
0.6489438
-0.05371301
0.06099921
0.3287651
-0.9296445
-0.3387548
0.01816433
0.1437932
-0.05820861
0.06843841
0.3106003
-0.8703349
-0.3240126
0.08889463
0.3600427
-0.1006969
0.05825907
0.3317959
0.656154
0.1285419
0.4040346
0.6242555
-0.0861844
0.04945585
0.3253097
-0.8663877
-0.4380983
-0.2192336
0.09684554
-0.08373028
0.0566825
0.3120061
-0.8199426
-0.4728985
-0.1386877
0.2912506
-0.08399769
0.06479597
0.338521
0.6841747
0.1434734
0.3042403
0.6471153
-0.0698261
0.05240634
0.3264812
-0.9162234
-0.3604412
-0.116344
0.1306942
-0.0693358
0.06087345
0.3086164
-0.8655562
-0.3751064
-0.05054672
0.3279524
