0.0037083
-0.08744664
0.2812501
-0.1150272
0.9710248
-0.07895223
-0.1940263
0.03168039
-0.09429216
0.2460222
-0.3525407
0.4646714
-0.389128
0.7130042
0.07034975
-0.0880165
0.2571419
-0.3901249
0.4959865
-0.3646708
0.6847008
0.09475491
-0.0830968
0.2597768
-0.4740125
0.5632432
-0.3005342
0.6064227
0.04083987
-0.09205894
0.3070045
0.6686853
0.2056524
-0.1374174
0.7012016
0.03925194
-0.1133008
0.2963375
-0.9780234
-0.128503
0.1641862
0.0005614114
0.03345974
-0.1101499
0.2803854
-0.9351609
-0.07003303
0.1455703
0.315244
0.02687104
-0.09716538
0.3148897
0.6710042
0.2588509
-0.02548643
0.6943343
0.02953724
-0.1206369
0.3013035
-0.9654815
-0.1789375
0.1878601
-0.02313993
0.02126079
-0.1181546
0.2839388
-0.9050156
-0.09539207
0.2326242
0.3431225
-0.01153142
-0.1050265
0.3201697
0.65195
0.2121657
0.1662064
0.708747
-0.002138896
-0.1218951
0.3120307
-0.9544694
-0.272832
0.006508894
-0.120451
-0.003988488
-0.1209287
0.2978387
-0.9130788
-0.2437199
0.1205116
0.3039155
0.00716059
-0.1014885
0.3183912
0.6734366
0.2303496
0.05569847
0.7002285
0.01332169
-0.1230613
0.3050481
-0.9688656
-0.2203457
0.103156
-0.04589242
0.007969367
-0.1207986
0.287209
-0.9051207
-0.1599711
0.1720936
0.3543297
