0.09522465
0.003727734
0.3415022
-0.0005216692
0.9947557
-0.04290721
-0.09284306
0.1142702
-0.01532161
0.3196968
0.05145987
0.2662728
-0.5747307
0.772098
0.1168054
-0.03119415
0.3536999
0.2854028
-0.000513322
-0.6336843
0.7190195
0.1033693
-0.03982756
0.3707949
0.4770302
-0.260284
-0.6106758
0.5759943
0.1249491
-0.009496152
0.3750772
0.6926569
0.09421678
-0.1367188
0.7018958
0.1209121
-0.03124821
0.3643489
-0.9909386
-0.01747269
0.12487
-0.04629057
0.1169017
-0.02934325
0.3477443
-0.9637273
0.01876178
0.09995199
0.2467538
0.1090655
-0.01157504
0.3788419
0.6963343
0.1453765
-0.02509553
0.702392
0.1101068
-0.03456557
0.3651927
-0.9893302
-0.1006641
0.1052237
-0.004525955
0.1054097
-0.03103632
0.3464183
-0.9408714
-0.06221584
0.1220238
0.3098393
0.06893352
-0.01035798
0.374746
0.6724325
0.06535888
0.1551506
0.7207574
0.07694373
-0.02700973
0.3672732
-0.9600973
-0.232303
-0.1429555
-0.06174354
0.08034191
-0.02432376
0.3528087
-0.9275568
-0.266839
-0.1137755
0.2355641
0.08791251
-0.01126185
0.3776462
0.695394
0.08946786
0.05158579
0.7111692
0.09247553
-0.03270853
0.3647206
-0.9904666
-0.1351749
-0.009325804
-0.02483656
0.0921779
-0.02976596
0.3455806
-0.9528013
-0.1323455
0.01028229
0.2730362
