0.002376147
-0.08804977
0.281097
-0.1488926
0.9679965
-0.0881516
-0.1817778
0.03140033
-0.0940087
0.2466517
-0.3460406
0.4517094
-0.376743
0.7309442
0.06887292
-0.08728328
0.2609268
-0.3467629
0.4529868
-0.3764071
0.7299837
0.09252827
-0.08328012
0.2680132
-0.3864187
0.5228693
-0.3549807
0.6717715
0.03940593
-0.08984341
0.3077438
0.6576006
0.2260227
-0.1047714
0.7109839
0.03960637
-0.1112278
0.2973065
-0.9734458
-0.1624463
0.1608879
-0.0113859
0.03371492
-0.108637
0.2813261
-0.9327613
-0.1028687
0.1558413
0.3083633
0.02560218
-0.09601003
0.315385
0.6578672
0.2766881
0.006630941
0.700436
0.03019684
-0.1191547
0.3021014
-0.9601044
-0.2114039
0.1804138
-0.03096354
0.02199947
-0.1173157
0.2845687
-0.904802
-0.1299053
0.2385233
0.3279704
-0.01255703
-0.1066629
0.3198385
0.643244
0.2201695
0.1977158
0.7061664
-0.001908388
-0.1229583
0.3120049
-0.9458249
-0.2987296
-0.01265436
-0.1265537
-0.003279469
-0.1222253
0.2976886
-0.9108599
-0.2765027
0.1120958
0.285158
0.006039925
-0.1018175
0.3184709
0.6625437
0.2443297
0.08745357
0.7026314
0.01393186
-0.1229229
0.3054272
-0.9621966
-0.2511082
0.09122021
-0.05292781
0.008859199
-0.1211487
0.2873805
-0.9049569
-0.1947582
0.1729274
0.3364794
